<?xml version="1.0" encoding="utf-8"?>
<!-- Generator: Adobe Illustrator 21.0.2, SVG Export Plug-In . SVG Version: 6.00 Build 0)  -->
<svg version="1.1" id="Слой_1" xmlns="http://www.w3.org/2000/svg" xmlns:xlink="http://www.w3.org/1999/xlink" x="0px" y="0px"
	 viewBox="0 0 1148.6 382.7" style="enable-background:new 0 0 1148.6 382.7;" xml:space="preserve">
<style type="text/css">
	.st0{clip-path:url(#SVGID_2_);}
	.st1{fill:#FFFFFF;}
	.st2{opacity:0.2;fill:#4378C6;enable-background:new    ;}
	.st3{fill:#AACBEB;}
	.st4{fill:#4378C6;}
	.st5{fill:#FFCB00;}
	.st6{fill:#D89800;}
	.st7{fill:#3CB357;}
	.st8{fill:#46C65E;}
	.st9{opacity:0.2;}
</style>
<title>beauty-ill</title>
<g>
	<defs>
		<path id="SVGID_1_" d="M1082.9,225.5c-51-36-78.5-47.3-105.5-95C960.8,101.3,913.3,59.3,906,30L434.9,0c0,0-88.7,45.4-122.4,54.6
			c-45,12.4-90.2,100-161.8,158.8C92.4,261.3,0,382.7,0,382.7h1147.4C1147.4,382.7,1162.8,281.8,1082.9,225.5z"/>
	</defs>
	<clipPath id="SVGID_2_">
		<use xlink:href="#SVGID_1_"  style="overflow:visible;"/>
	</clipPath>
	<g class="st0">
		<path class="st1" d="M1082.9,225.5c-51-36-132-28.9-159-76.5c-16.5-29.3-20.7-65.5-45.5-82.7c-51.2-35.6-160.8,2.6-239.4,2.6
			c-124.8,0-155-26.3-204.1-8.3C390,77,329.5,66.3,296.1,135c-22.7,46.8,12.7,120.6-58.9,179.4C178.9,362.2,0,382.7,0,382.7h1147.4
			C1147.4,382.7,1162.8,281.8,1082.9,225.5z"/>
		<path class="st2" d="M173.2,384.3c0,0,301.6-122.1,343.5-133.6c102-28.1,158.9-6.3,180,21.9c28.5,38.1,157.5,114.9,207,112.6
			S173.2,384.3,173.2,384.3z"/>
		
			<ellipse transform="matrix(0.1295 -0.9916 0.9916 0.1295 -156.8441 600.1425)" class="st3" cx="263.4" cy="389.4" rx="13.3" ry="5.7"/>
		<path class="st4" d="M269.1,390.2c-0.3,2.6-0.8,5.2-1.6,7.7c-0.4,1.3-1.1,2.5-2,3.5c-0.5,0.6-1,1-1.6,1.4
			c-0.7,0.4-1.5,0.6-2.3,0.5c-0.8-0.2-1.5-0.6-2-1.2c-0.5-0.5-0.8-1.1-1.1-1.8c-0.5-1.2-0.8-2.5-1-3.9c-0.4-2.6-0.4-5.2-0.2-7.8
			c0.1-1.3,0.3-2.6,0.5-3.9c0.3-1.3,0.7-2.6,1.2-3.8c0.5-1.3,1.2-2.5,2.1-3.5c0.5-0.6,1-1.1,1.7-1.5c1.5-1,3.4-0.7,4.6,0.6
			c0.5,0.5,0.9,1.2,1.2,1.8c0.5,1.3,0.9,2.6,0.9,4C269.6,385,269.5,387.6,269.1,390.2z M269,390.2c0.2-1.3,0.2-2.6,0.1-3.9
			s-0.3-2.5-0.6-3.8c-0.3-1.2-0.7-2.3-1.3-3.4c-0.3-0.5-0.6-0.9-1-1.3c-0.3-0.3-0.7-0.5-1.2-0.6c-0.5,0-0.9,0.1-1.3,0.3
			c-0.5,0.3-0.9,0.6-1.3,1.1c-0.8,0.9-1.5,1.9-2,3c-1,2.3-1.8,4.7-2.3,7.2c-0.2,1.3-0.4,2.5-0.4,3.8s0.1,2.6,0.3,3.8
			c0.2,1.2,0.6,2.4,1.3,3.5c0.3,0.5,0.7,1,1.1,1.4c0.4,0.3,0.9,0.6,1.4,0.6s1-0.1,1.4-0.4c0.2-0.1,0.5-0.3,0.7-0.5s0.4-0.4,0.6-0.6
			c0.8-0.9,1.5-1.9,2.1-3s1.1-2.3,1.6-3.5C268.5,392.7,268.8,391.4,269,390.2L269,390.2z"/>
		
			<ellipse transform="matrix(0.1295 -0.9916 0.9916 0.1295 -177.105 550.5965)" class="st3" cx="225" cy="376.2" rx="13.3" ry="5.7"/>
		<path class="st4" d="M230.8,377c-0.3,2.6-0.8,5.2-1.6,7.7c-0.4,1.3-1.1,2.5-2,3.5c-0.5,0.6-1,1-1.6,1.4c-0.7,0.4-1.5,0.6-2.3,0.5
			c-0.8-0.2-1.5-0.6-2-1.2c-0.5-0.5-0.8-1.1-1.1-1.8c-0.5-1.2-0.8-2.5-1-3.9c-0.4-2.6-0.4-5.2-0.2-7.8c0.1-1.3,0.3-2.6,0.6-3.9
			s0.7-2.6,1.2-3.8c0.5-1.3,1.2-2.5,2.1-3.5c0.5-0.6,1-1.1,1.7-1.5c1.5-1,3.4-0.7,4.6,0.6c0.5,0.5,0.9,1.2,1.2,1.8
			c0.5,1.3,0.9,2.6,0.9,4C231.3,371.8,231.2,374.4,230.8,377z M230.6,377c0.2-1.3,0.2-2.6,0.1-3.9c-0.1-1.3-0.3-2.5-0.6-3.8
			c-0.3-1.2-0.7-2.3-1.3-3.4c-0.3-0.5-0.6-0.9-1-1.3c-0.3-0.3-0.7-0.5-1.2-0.6c-0.5,0-0.9,0.1-1.3,0.3c-0.5,0.3-0.9,0.6-1.3,1.1
			c-0.8,0.9-1.5,1.9-2,3c-1,2.3-1.8,4.7-2.3,7.2c-0.2,1.3-0.4,2.5-0.4,3.8s0.1,2.6,0.3,3.8c0.2,1.2,0.7,2.4,1.3,3.5
			c0.3,0.5,0.7,1,1.1,1.4c0.4,0.3,0.9,0.6,1.4,0.6s1-0.1,1.4-0.4c0.2-0.1,0.5-0.3,0.7-0.5s0.4-0.4,0.6-0.6c0.8-0.9,1.5-1.9,2.1-3
			s1.1-2.3,1.6-3.5C230.2,379.5,230.5,378.2,230.6,377L230.6,377z"/>
		
			<ellipse transform="matrix(0.9674 -0.2531 0.2531 0.9674 -76.2497 120.0064)" class="st3" cx="428.3" cy="356.4" rx="7.5" ry="14.4"/>
		<path class="st4" d="M435.6,354.5c0.8,2.9,1.2,5.8,1.2,8.8c0,1.5-0.4,3.1-1,4.5c-0.3,0.7-0.8,1.4-1.4,2c-1.2,1.2-3.1,1.7-4.7,1.1
			c-0.8-0.2-1.5-0.6-2.1-1.1c-1.2-1-2.2-2.1-3-3.3c-1.7-2.5-3-5.2-3.9-8c-0.5-1.4-0.8-2.9-1-4.4s-0.2-3-0.1-4.5
			c0.1-1.6,0.5-3.1,1.2-4.5c0.4-0.7,0.8-1.4,1.4-2s1.4-1.1,2.3-1.3c0.8-0.2,1.7-0.2,2.5,0s1.5,0.6,2.2,1.1c1.2,0.9,2.3,2.1,3.1,3.5
			C433.8,348.8,434.9,351.6,435.6,354.5z M435.4,354.5c-0.4-1.4-0.9-2.8-1.6-4.1c-0.7-1.3-1.5-2.5-2.4-3.6s-1.9-2-3.1-2.8
			c-0.5-0.3-1.1-0.6-1.7-0.8c-0.6-0.1-1.2-0.1-1.7,0c-0.6,0.2-1.1,0.5-1.5,0.9c-0.4,0.5-0.8,1-1.1,1.5c-0.6,1.2-1,2.5-1.2,3.9
			c-0.3,2.8-0.2,5.7,0.4,8.5c0.3,1.4,0.7,2.8,1.3,4.1c0.6,1.3,1.3,2.6,2.1,3.8c0.8,1.2,1.9,2.1,3.1,2.9c0.6,0.4,1.2,0.6,1.9,0.8
			c0.6,0.1,1.2,0.1,1.9-0.1c0.6-0.2,1.1-0.6,1.5-1c0.5-0.5,0.8-1,1.1-1.6c0.6-1.2,1.1-2.6,1.3-3.9c0.3-1.4,0.4-2.9,0.3-4.3
			C436,357.3,435.8,355.9,435.4,354.5L435.4,354.5z"/>
		<path class="st3" d="M155.7,292.2c-5.4,20.8,13.7,129.2,191.7,91.3s128.8-174.6,96.1-183c-39.7-10.1-106.2,20.7-157,40.9
			C199,276.3,160.8,272.7,155.7,292.2z"/>
		<path class="st4" d="M155.8,292.3c-0.8,4.2-1,8.5-0.5,12.7c0.1,1.1,0.2,2.1,0.4,3.2l0.5,3.2c0.2,1,0.4,2.1,0.7,3.1l0.3,1.6
			l0.4,1.5c2.2,8.3,5.6,16.2,10.1,23.4c4.5,7.3,10,13.8,16.3,19.6l2.4,2.1c0.8,0.7,1.6,1.4,2.4,2l5.1,3.8l5.4,3.4
			c0.9,0.6,1.8,1.1,2.8,1.6l2.8,1.5c0.9,0.5,1.9,1,2.8,1.5l2.9,1.3l2.9,1.3c0.5,0.2,1,0.5,1.5,0.6l1.5,0.5l6,2.2
			c2,0.7,4.1,1.2,6.1,1.8l3.1,0.9c1,0.3,2.1,0.5,3.1,0.7l6.2,1.4c2.1,0.4,4.2,0.7,6.3,1l3.2,0.5c0.5,0.1,1.1,0.2,1.6,0.2l1.6,0.1
			c17,1.8,34.1,1.9,51.1,0.1l6.4-0.7c2.1-0.2,4.3-0.4,6.4-0.7l12.7-1.9c4.2-0.7,8.4-1.6,12.6-2.3s8.4-1.7,12.5-2.6
			c16.6-4,33-9.1,48.5-16.4s30-16.7,42-28.8c1.5-1.5,3-3.1,4.4-4.7c0.7-0.8,1.4-1.6,2.1-2.4l2-2.5c2.6-3.4,5-6.9,7.2-10.5
			c4.4-7.3,7.7-15.2,10-23.4c4.4-16.5,4.5-33.9,0.1-50.5c-2.1-8.2-5.3-16.1-9.7-23.4c-2.2-3.6-4.7-7-7.6-10.1
			c-2.9-3-6.3-5.7-10.2-6.9c-4.1-1.1-8.3-1.7-12.5-2c-4.2-0.2-8.5-0.2-12.7,0.1c-8.5,0.7-16.9,2-25.2,4
			c-16.6,3.9-32.8,9.4-48.8,15.4s-31.8,12.6-47.7,19s-31.9,12.5-48.2,17.8s-32.7,10-49.3,14.4c-8.3,2.2-16.5,4.4-24.6,7.1
			c-1,0.4-2,0.7-3,1.1l-1.5,0.6l-1.5,0.6c-2,0.8-3.9,1.8-5.7,2.9c-1.8,1.1-3.5,2.5-4.8,4.1C157.4,288.3,156.4,290.2,155.8,292.3z
			 M155.6,292.3c0.5-2.1,1.5-4,2.9-5.7c1.4-1.7,3-3.1,4.9-4.2c1.8-1.2,3.7-2.2,5.7-3l1.5-0.6l1.5-0.6c1-0.4,2-0.8,3-1.1
			c8.1-2.8,16.4-4.9,24.6-7.3c8.2-2.4,16.5-4.6,24.6-7.1s16.3-5.1,24.4-7.9c16.2-5.6,32.1-11.7,47.9-18.2s31.6-13.1,47.7-19.1
			s32.3-11.6,49-15.4c8.4-2,16.9-3.3,25.5-4c4.3-0.3,8.6-0.3,12.9-0.1c4.3,0.3,8.6,1,12.8,2.1c4.3,1.4,7.8,4.3,10.8,7.4
			c3,3.1,5.6,6.6,7.8,10.4c4.4,7.4,7.7,15.5,9.8,23.9c4.3,16.8,4.1,34.3-0.5,51c-2.3,8.3-5.8,16.2-10.2,23.6
			c-2.2,3.7-4.7,7.2-7.3,10.6l-2,2.5c-0.7,0.8-1.4,1.6-2.1,2.4c-1.4,1.6-2.9,3.1-4.4,4.7c-6.1,6.1-12.8,11.5-20,16.3
			c-7.1,4.8-14.6,9-22.3,12.7c-7.8,3.7-15.7,6.8-23.8,9.6c-8.1,2.8-16.4,5.1-24.7,7.2c-4.2,1-8.3,2-12.5,2.8s-8.4,1.7-12.6,2.5
			l-12.7,2c-2.1,0.4-4.3,0.5-6.4,0.8l-6.4,0.7c-17.1,1.6-34.3,2-51.4-0.1l-1.6-0.2c-0.5-0.1-1.1-0.2-1.6-0.3l-3.2-0.5
			c-2.1-0.4-4.3-0.7-6.4-1.1l-6.3-1.4c-1-0.3-2.1-0.5-3.1-0.7l-3.1-0.9c-2.1-0.6-4.1-1.2-6.2-1.9l-6-2.3l-1.5-0.6
			c-0.5-0.2-1-0.4-1.5-0.7l-2.9-1.4l-2.9-1.4c-1-0.4-1.9-1-2.8-1.5l-2.8-1.6c-0.9-0.5-1.9-1-2.8-1.6l-5.4-3.5l-5.1-3.9
			c-0.9-0.6-1.6-1.4-2.4-2.1l-2.4-2.1c-6.3-5.8-11.7-12.5-16.2-19.9c-4.4-7.3-7.8-15.3-10-23.6l-0.4-1.5l-0.3-1.6
			c-0.2-1-0.5-2.1-0.7-3.1l-0.5-3.2c-0.2-1.1-0.2-2.1-0.4-3.2C154.7,300.8,154.8,296.5,155.6,292.3L155.6,292.3z"/>
		<path class="st4" d="M162.4,297.2c-1.4,9.4-2.9,50.4,165.5,14.6s133.4-94.2,110-101.4c-37.1-11.4-102,20.3-150,39.5
			C205,282.9,165.2,278.3,162.4,297.2z"/>
		<path class="st5" d="M440.1,323.1L440.1,323.1c4.4-21-2-76.5-29.4-70.7l-65.1-4c0,0-105.6,40.6-109.3,73.6l136.1-25.9l42.8-8
			c6.1,8.7,5.2,27.3,3.1,35.6c0,0-15.4,13.1-5.1,21.2c5.3,4.2,8.1,1.9,9.6-1.2c-0.4,4.3,0.5,9.1,7.1,8.1s7.6-4.6,7.3-7.8
			c1,1.9,2.8,3.6,5.8,2.6C449.3,344.7,447.4,331.7,440.1,323.1z"/>
		<path class="st6" d="M428.3,352.7c-1.6,0.1-3.2-0.5-4.5-1.6c-1.2-1.3-1.9-3-1.9-4.7c-0.6,0.7-1.5,1.1-2.4,1.4
			c-2,0.5-4.2-0.3-6.8-2.3c-2.3-1.7-3.8-4.3-3.9-7.2c-0.1-6.9,7.4-13.9,8.7-15.1c1.9-7.6,3-25.5-2.7-34.2l-42.3,7.9L235.3,323
			l0.1-1.1c3.8-33,105.5-72.6,109.9-74.3l0.2-0.1l65.1,4c6.3-1.3,12,0.4,16.7,5.2c14,13.9,16.7,50.4,13.6,66.1
			c5.1,6.2,7.7,14.8,6.1,20.2c-0.5,2-1.9,3.7-3.9,4.4c-1.8,0.7-3.9,0.3-5.3-1.1c-0.5,2.6-2.3,5.4-7.9,6.2
			C429.5,352.7,428.9,352.7,428.3,352.7z M424.2,338.7l-0.5,4.9c-0.2,2-0.1,4.8,1.4,6.2c1,1,2.6,1.3,4.8,1c4.8-0.7,7-3,6.6-6.9
			l-0.4-4.2l2,3.7c1.2,2.1,2.7,2.9,4.8,2.2c1.4-0.5,2.5-1.7,2.8-3.2c1.4-4.9-1.2-13.3-6.1-19l-0.3-0.3l0.1-0.4
			c3.2-15.2,0.6-51.3-13.1-65c-4.4-4.4-9.5-5.9-15.3-4.7h-0.1l-65-3.9c-4.7,1.8-102.7,40.4-108.4,71.7l135-25.7l43.3-8.1l0.3,0.4
			c6.5,9.2,5.3,28.1,3.2,36.2l-0.1,0.3l-0.2,0.2c-0.1,0.1-8.5,7.3-8.4,14c0.1,2.4,1.3,4.6,3.2,5.9c2.1,1.7,4,2.4,5.4,2
			c1.2-0.3,2.1-1.3,2.9-2.9L424.2,338.7z"/>
		<path class="st1" d="M385.8,84.3c0,0-61.4,15.6-49.6,86.7s55.5-36.6,55.5-36.6L385.8,84.3z"/>
		<path class="st4" d="M385.8,84.4c0,0,0,0.1-0.1,0.1l-0.2,0.1l-0.4,0.1l-0.8,0.3c-0.5,0.2-1,0.4-1.6,0.6c-1,0.4-2.1,0.8-3.1,1.3
			c-2,0.9-4,1.9-6,3c-3.9,2.1-7.6,4.6-11.1,7.3c-7,5.5-12.9,12.2-17.4,19.9l-1.6,2.9l-1.4,3l-0.4,0.8l-0.3,0.8l-0.6,1.5l-0.6,1.5
			c-0.2,0.5-0.4,1-0.5,1.6l-1.1,3.2l-0.9,3.2c-0.3,1.1-0.5,2.2-0.7,3.3s-0.5,2.2-0.6,3.3l-0.4,3.3l-0.2,1.7l-0.1,1.7l-0.2,3.3
			c-0.1,1.1,0,2.2,0,3.3s0,2.2,0,3.4l0.2,3.3c0.1,2.2,0.5,4.5,0.8,6.7c0.6,4.4,1.6,8.8,2.9,13.1c0.7,2.1,1.5,4.2,2.5,6.1
			c0.9,1.9,2.3,3.6,4,5c0.8,0.6,1.7,1.1,2.7,1.3c0.5,0.1,1,0.1,1.5,0.1s1-0.1,1.5-0.2c0.5-0.1,1-0.3,1.5-0.5s0.9-0.5,1.4-0.7
			c0.5-0.3,0.9-0.5,1.4-0.9c0.5-0.3,0.9-0.6,1.3-1c3.3-2.9,6.3-6.2,8.7-9.9c5.1-7.3,9.6-15.1,13.6-23.1s7.9-16.1,11.4-24.3l-0.1,0.6
			c-0.8-8.2-1.7-16.4-2.5-24.8L385.8,84.4z M385.9,84.2l3.6,24.7c1.2,8.4,2.3,16.8,3.5,25.3v0.3l-0.1,0.3
			c-3.4,8.4-7.1,16.6-11.3,24.6c-2.1,4-4.3,8-6.6,11.8c-2.3,3.9-4.8,7.7-7.5,11.4s-5.8,7.1-9.4,10c-1.8,1.5-4,2.6-6.3,3.2
			c-2.5,0.6-5.1-0.1-7-1.7c-1.8-1.5-3.2-3.5-4.1-5.6c-1-2.1-1.8-4.2-2.4-6.4s-1.2-4.4-1.6-6.6s-0.9-4.4-1.1-6.7
			c-1.4-8.9-1.7-18-0.8-27c0.1-1.1,0.3-2.3,0.5-3.4c0.2-1.1,0.3-2.3,0.6-3.4l0.8-3.3c0.3-1.1,0.6-2.2,1-3.3
			c1.4-4.4,3.2-8.6,5.5-12.5s5-7.6,8.1-11s6.5-6.4,10.2-9.1c3.7-2.7,7.6-5,11.7-7c2-1,4.1-1.9,6.3-2.7c1.1-0.4,2.1-0.8,3.2-1.1
			c0.5-0.2,1.1-0.3,1.6-0.5l0.8-0.2l0.4-0.1h0.2C385.7,84.3,385.8,84.2,385.9,84.2L385.9,84.2z"/>
		<path class="st5" d="M411.2,153.8l25.7-13.4c2.2-1.2,5-0.3,6.2,1.9c0.4,0.9,0.6,1.8,0.5,2.8l-4.9,33.1"/>
		<path class="st6" d="M410.9,153.1l16.1-8.2l8.1-4.1l1-0.5c0.3-0.2,0.7-0.4,1.1-0.5c2.4-0.9,5.2,0.1,6.3,2.5
			c0.4,0.8,0.6,1.6,0.5,2.4c0,0.4-0.1,0.8-0.1,1.2l-0.2,1.1l-0.7,4.5l-1.4,8.9l-2.9,17.9l2.5-17.9l1.2-9l0.6-4.5l0.1-1.1
			c0.1-0.4,0.1-0.7,0.1-1.1c0.1-2.2-1.5-4-3.7-4.2c-0.7-0.1-1.4,0-2,0.3c-0.3,0.1-0.7,0.3-1,0.5l-1,0.5l-8,4.3l-16,8.6L410.9,153.1z
			"/>
		<path class="st5" d="M354.7,156.5l-33.1-13.2c-2.4-0.9-5,0.3-5.9,2.7c-0.3,0.9-0.4,1.9-0.1,2.9l9.8,34.6"/>
		<path class="st6" d="M354.4,157.2l-18.9-7.7l-9.4-3.8l-4.7-2c-1.5-0.5-3.1-0.2-4.3,0.9c-1.2,1.1-1.6,2.8-1.1,4.3l1.3,4.9l2.7,9.8
			l5.4,19.7l-5.8-19.6l-2.9-9.8l-1.5-4.9c-0.3-0.9-0.3-1.8-0.1-2.7c0.6-2.7,3.3-4.4,6-3.8c0.2,0,0.4,0.1,0.5,0.2l4.8,1.9l9.5,3.7
			l19,7.3L354.4,157.2z"/>
		<path class="st6" d="M341.1,163c-2.6-2.5-5.3-4.9-8-7.1c-1.4-1.1-2.8-2.2-4.4-3.1c-1.5-1-3.1-1.8-4.9-2.1c1.8,0.3,3.5,0.9,5.1,1.8
			c1.6,0.9,3.1,1.8,4.6,2.8c3,2,5.9,4.2,8.7,6.5L341.1,163z"/>
		<path class="st5" d="M447.5,207c0-23.5-19-49.4-46.3-56.9c-2.5-0.7,7-10,4.4-10.5c-5.7-1.1-17.4,8.4-20.2,8.4
			c-5.1,0,14.3-6.1,9.6-4.9c-4.2,1-22.5,0-37.7,8.5c-17.5,9.8-38.6,35.2-38.6,55.4c0,27.8,28.8,50.3,64.4,50.3
			S447.5,234.8,447.5,207z"/>
		<path class="st6" d="M447.4,207c-0.2-8.7-2.5-17.2-6.8-24.8c-4.2-7.6-9.9-14.3-16.7-19.6c-3.4-2.7-7-5-10.8-7s-7.8-3.5-12-4.7
			l-0.2-0.1c-0.1,0-0.2-0.1-0.4-0.1c-0.3-0.2-0.5-0.4-0.6-0.8c-0.1-0.4,0-0.8,0.1-1.2c0.2-0.6,0.5-1.1,0.8-1.6
			c0.6-1,1.2-1.9,1.8-2.8c0.6-0.9,1.2-1.8,1.8-2.7c0.3-0.4,0.5-0.8,0.6-1.3c0.1-0.2,0-0.4,0.1-0.2l0.1,0.1h-0.3c-1-0.1-2,0-2.9,0.3
			c-1,0.3-2,0.6-3,1.1c-1.9,0.9-3.9,1.9-5.7,3c-1.9,1.1-3.7,2.2-5.7,3.2c-0.5,0.3-1.1,0.5-1.6,0.7l-0.5,0.1c-0.2,0-0.3,0-0.5,0
			s-0.3,0-0.5-0.1c-0.1,0-0.2-0.1-0.4-0.1c-0.1-0.1-0.2-0.1-0.3-0.2c-0.1-0.2-0.2-0.4-0.2-0.6s0.1-0.4,0.3-0.5
			c0.1-0.1,0.1-0.1,0.2-0.2c0.1-0.1,0.3-0.2,0.4-0.3c0.3-0.2,0.5-0.3,0.8-0.4c0.5-0.2,1-0.5,1.5-0.7c2-0.8,4.1-1.6,6.1-2.3l1.5-0.6
			c0.2-0.1,0.5-0.2,0.7-0.3c-0.3-0.2,0.3,1.5,0.3,0.8h-0.1h-0.2l-0.4,0.1c-1.1,0.2-2.2,0.3-3.3,0.4c-4.3,0.3-8.7,0.5-13,1.2
			c-4.3,0.6-8.5,1.6-12.6,2.9c-8.3,2.6-15.5,7.7-21.9,13.6c-6.4,5.9-11.9,12.6-16.5,19.9c-2.3,3.7-4.2,7.5-5.7,11.6
			c-0.8,2-1.4,4.1-1.9,6.2c-0.5,2.1-0.8,4.2-0.9,6.3c-0.2,8.6,2.3,17,7.1,24.1c4.9,7.1,11.4,12.9,19,17.1c7.5,4.2,15.7,7.1,24.1,8.5
			c8.5,1.4,17.2,1.5,25.7,0.3s16.8-3.8,24.5-7.8s14.4-9.6,19.6-16.6C444.5,224.1,447.3,215.7,447.4,207z M447.6,207
			c0,4.4-0.7,8.7-2,12.8c-1.4,4.1-3.4,8.1-5.9,11.6c-5.1,7.1-11.7,13-19.5,17.3c-7.7,4.3-16.1,7.1-24.8,8.4
			c-8.7,1.3-17.5,1.3-26.2-0.2c-8.7-1.4-17.1-4.4-24.7-8.7c-7.7-4.3-14.3-10.4-19.3-17.7c-2.5-3.7-4.3-7.7-5.6-12
			c-1.2-4.3-1.8-8.7-1.5-13.1c0.1-2.2,0.5-4.4,1-6.5s1.2-4.2,2-6.3c1.6-4.1,3.6-8,6-11.7c4.7-7.4,10.4-14,16.9-19.9
			c6.4-5.8,13.8-10.9,22.1-13.7c8.3-2.8,17-3.8,25.7-4.4c1.1-0.1,2.1-0.2,3.1-0.4l0.4-0.1h0.2h0.1c0-0.7,0.7,1.1,0.3,0.9
			c-0.3,0.1-0.5,0.3-0.8,0.4l-1.5,0.6c-2,0.8-4.1,1.5-6,2.4c-0.5,0.2-1,0.4-1.5,0.7c-0.2,0.1-0.5,0.2-0.7,0.4l-0.3,0.2l-0.1,0.1
			c0,0,0,0,0.1-0.2c0-0.1,0-0.3-0.1-0.4l-0.1-0.1l0,0h0.3c0.1,0,0.2,0,0.3,0l0.3-0.1c0.5-0.2,0.9-0.4,1.4-0.6c1.9-1,3.7-2.2,5.6-3.2
			c1.9-1.1,3.8-2.2,5.8-3.1c1-0.5,2.1-0.9,3.1-1.2c1.1-0.4,2.3-0.5,3.5-0.4c0.2,0,0.3,0,0.5,0.1c0.3,0.1,0.6,0.3,0.8,0.6
			c0.1,0.2,0.2,0.5,0.2,0.8c0,0.2-0.1,0.4-0.1,0.6c-0.2,0.6-0.5,1.1-0.8,1.6c-0.6,1-1.2,1.9-1.8,2.8c-0.6,0.9-1.2,1.8-1.8,2.7
			c-0.3,0.4-0.5,0.9-0.7,1.3c0,0.1-0.1,0.2-0.1,0.4c0-0.1-0.1-0.1-0.1-0.1l0,0l0.2,0.1c8.5,2.4,16.3,6.6,23,12.2
			c6.7,5.6,12.3,12.5,16.4,20.3C445.2,189.6,447.5,198.2,447.6,207L447.6,207z"/>
		<ellipse class="st5" cx="322" cy="208" rx="12.8" ry="11.4"/>
		<path class="st6" d="M334.7,208c0-1.6-0.4-3.1-1.2-4.5c-0.8-1.3-1.8-2.5-3.1-3.4c-2.5-1.7-5.4-2.7-8.4-2.8
			c-3.1-0.2-6.1,0.7-8.6,2.6c-1.2,1-2.2,2.2-2.9,3.6c-0.7,1.4-1,2.9-0.9,4.5c0.2,3,1.7,5.8,4.1,7.7c2.4,1.8,5.3,2.8,8.3,2.8
			s6-0.9,8.4-2.6c1.3-0.9,2.3-2,3.1-3.4C334.3,211.1,334.7,209.5,334.7,208z M334.9,208c0,3.3-1.4,6.4-3.8,8.7
			c-1.2,1.2-2.6,2.1-4.2,2.7c-1.6,0.6-3.2,0.9-4.9,0.9c-3.4,0-6.7-1.2-9.3-3.4c-2.6-2.2-4.1-5.5-4-8.9c0.2-3.3,1.8-6.4,4.3-8.5
			c1.2-1.1,2.6-1.9,4.1-2.6c1.5-0.6,3.2-0.9,4.8-1c3.4-0.1,6.7,1.1,9.1,3.4C333.5,201.6,334.9,204.7,334.9,208L334.9,208z"/>
		<path class="st6" d="M419.8,158.4c2.6-2,5.3-3.9,8-5.7c1.4-0.9,2.8-1.7,4.3-2.5c1.4-0.8,3-1.4,4.6-1.7c-1.6,0.5-3,1.2-4.4,2.1
			c-1.4,0.9-2.7,1.8-4,2.8c-2.6,2-5,4.1-7.4,6.3L419.8,158.4z"/>
		<circle class="st6" cx="362.1" cy="197.7" r="2.4"/>
		<circle class="st6" cx="349.4" cy="205.1" r="2.8"/>
		<circle class="st6" cx="418.9" cy="213.4" r="2.8"/>
		<circle class="st6" cx="413.3" cy="204.3" r="2"/>
		<circle class="st6" cx="422.9" cy="205" r="1.7"/>
		<circle class="st6" cx="346.3" cy="216.5" r="1.5"/>
		<path class="st1" d="M362.2,212.7c0,0,0.2,6.7,6.2,7s6.7-6.5,6.7-6.5"/>
		<path class="st6" d="M362.2,212.7c0.4,1.6,1.1,3.1,2.2,4.4c1,1.1,2.5,1.7,4,1.8c0.8,0,1.5,0,2.2-0.3c0.7-0.2,1.4-0.6,1.9-1.1
			c1.1-1.2,2-2.7,2.5-4.2c0.1,1.8-0.4,3.6-1.5,5.1c-0.6,0.8-1.4,1.4-2.3,1.8c-0.9,0.4-1.9,0.5-2.8,0.5c-1,0-1.9-0.3-2.8-0.7
			s-1.6-1.1-2.2-1.9C362.4,216.4,361.9,214.5,362.2,212.7z"/>
		<path class="st1" d="M391.7,213.4c0,0,0.1,6,6.1,6.3s4.4-7.1,4.4-7.1"/>
		<path class="st6" d="M391.7,213.4c0.4,1.5,1.2,2.9,2.3,4c1.1,0.9,2.5,1.4,4,1.4c1.4,0.2,2.7-0.5,3.4-1.7c0.6-1.4,0.9-3,0.9-4.6
			c0.3,0.8,0.5,1.6,0.6,2.4c0.1,0.9,0,1.8-0.3,2.6c-0.3,0.9-1,1.7-1.8,2.2s-1.8,0.7-2.8,0.6c-0.9,0-1.8-0.2-2.6-0.6
			c-0.9-0.4-1.6-0.9-2.2-1.6C392,216.9,391.5,215.1,391.7,213.4z"/>
		<path class="st6" d="M380.9,200.7c0.7,1.3,1.1,2.8,1.1,4.2c0.1,1.5-0.2,3.1-0.9,4.5c-0.8,1.4-2,2.5-3.4,3.2s-2.8,1.1-4.4,1.3
			c-2.9,0.4-5.9,0.3-8.8-0.3c-2.9-0.5-5.7-1.2-8.4-2.3c2.9,0.3,5.7,0.7,8.5,1s5.6,0.3,8.4-0.1c2.7-0.4,5.4-1.4,6.9-3.6
			S381.5,203.5,380.9,200.7z"/>
		<path class="st6" d="M382.4,200.7c-0.6,2.8-0.4,5.9,1.1,8s4.3,3.1,7,3.5c2.8,0.3,5.6,0.4,8.5,0.1c2.9-0.2,5.7-0.6,8.6-1
			c-2.7,1-5.6,1.8-8.5,2.3s-5.9,0.6-8.9,0.3c-1.5-0.2-3-0.7-4.4-1.3c-1.4-0.7-2.6-1.8-3.4-3.1c-0.8-1.4-1.1-2.9-1.1-4.4
			C381.5,203.5,381.8,202,382.4,200.7z"/>
		<ellipse class="st6" cx="381.6" cy="199.4" rx="6.7" ry="2.7"/>
		<path class="st6" d="M381.6,203c-3.8,0-7.6-1.2-7.6-3.6s3.8-3.6,7.6-3.6s7.6,1.2,7.6,3.6S385.4,203,381.6,203z M381.6,197.6
			c-3.7,0-5.9,1.2-5.9,1.9s2.2,1.9,5.9,1.9s5.9-1.2,5.9-1.9S385.3,197.6,381.6,197.6z"/>
		<path class="st6" d="M307.3,204.7c2.2,1.4,4.7,2.5,7.2,3.3c1.2,0.4,2.5,0.7,3.8,0.9c0.6,0.1,1.3,0.2,1.9,0.3l1.9,0.2
			c0.6,0.1,1.3,0,1.9,0.1h1l1-0.1l2-0.1c0.6-0.1,1.3-0.2,1.9-0.3l1-0.1l1-0.2l1.9-0.4c1.3-0.3,2.5-0.8,3.9-1.1
			c-1.2,0.6-2.4,1.3-3.6,1.9l-1.9,0.7l-1,0.3l-1,0.2c-0.7,0.2-1.3,0.3-2,0.5l-2,0.3l-1,0.1h-1c-0.7,0-1.4,0-2.1,0
			c-2.8-0.2-5.5-0.8-8-1.9C311.6,208.2,309.3,206.7,307.3,204.7z"/>
		<path class="st1" d="M450.4,20.2c-9.7-8.4-85,8.7-77.4,109.3c4,53.8,51.1,57.8,63.6,71.2s37-23.8,37-52.3
			c0-21-17.2-38.3-18.3-62.1C454.6,70.5,463.7,31.8,450.4,20.2z"/>
		<path class="st4" d="M450.4,20.3c-1-0.7-2.1-1.2-3.2-1.4c-1.2-0.2-2.4-0.4-3.6-0.4c-2.4,0-4.8,0.2-7.2,0.6
			c-4.7,0.9-9.3,2.4-13.7,4.4c-8.7,4-16.5,9.7-23.1,16.7c-3.3,3.5-6.2,7.2-8.9,11.2c-1.3,2-2.6,4-3.7,6.1c-1.1,2.1-2.2,4.2-3.2,6.4
			c-3.9,8.7-6.7,17.9-8.4,27.3c-1.7,9.4-2.4,19-2.3,28.6c0.1,4.8,0.3,9.6,0.8,14.4c0.6,4.8,1.6,9.4,3.1,14c1.5,4.6,3.5,8.9,6,13
			c2.6,4,5.6,7.7,9.1,11s7.3,6.2,11.4,8.8c4.1,2.5,8.3,4.9,12.6,6.9c4.3,2.1,8.7,4.1,13,6.4c2.2,1.1,4.3,2.5,6.2,4
			c0.5,0.4,1,0.8,1.4,1.3c0.5,0.4,0.9,0.9,1.3,1.2c0.8,0.7,1.7,1.2,2.8,1.5c2.1,0.5,4.4,0.1,6.3-1c2-1.1,3.9-2.5,5.5-4.1
			c3.3-3.4,6.2-7.1,8.5-11.2c4.8-8.2,8.2-17.2,10-26.5c0.4-2.3,0.7-4.7,0.9-7c0.1-1.2,0.1-2.3,0.1-3.5s-0.1-2.3-0.1-3.5
			c-0.5-4.7-1.5-9.2-3.1-13.6c-3.1-9-7.8-17.5-10.9-26.7c-1.6-4.6-2.8-9.4-3.4-14.3c-0.3-2.4-0.4-4.9-0.3-7.4
			c0.1-2.4,0.3-4.9,0.5-7.3c0.9-9.6,2.2-19.1,2.5-28.8c0.2-4.8-0.1-9.6-0.9-14.4c-0.4-2.4-1.1-4.7-2-6.9
			C453.5,24,452.1,22,450.4,20.3z M450.5,20.2c1.8,1.6,3.2,3.6,4.2,5.9c1,2.2,1.7,4.5,2.1,6.9c0.8,4.8,1.2,9.6,1.2,14.4
			c0,9.7-1,19.3-1.5,28.9c-0.1,2.4-0.3,4.8-0.3,7.2s0.2,4.7,0.5,7.1c0.7,4.7,1.9,9.3,3.6,13.7c3.2,9,7.9,17.4,11.2,26.6
			c1.7,4.6,2.8,9.5,3.3,14.4c0.3,4.9,0,9.9-1,14.7c-1,4.8-2.3,9.5-4.1,14.1c-1.8,4.6-3.9,9-6.4,13.1c-2.5,4.2-5.5,8.1-9,11.6
			c-1.8,1.8-3.9,3.2-6.1,4.4c-1.2,0.6-2.4,1-3.7,1.2c-2.7,0.5-5.5-0.3-7.5-2.2c-0.5-0.4-1-0.9-1.3-1.3c-0.4-0.4-0.8-0.8-1.3-1.2
			c-1.8-1.5-3.8-2.8-5.8-4c-4.1-2.4-8.5-4.4-12.8-6.7c-4.3-2.2-8.5-4.6-12.6-7.3s-7.9-5.7-11.4-9c-7-6.8-12.3-15.1-15.4-24.4
			c-1.5-4.6-2.7-9.3-3.4-14.1c-0.6-4.8-1-9.6-1.1-14.5c-0.4-9.7,0.1-19.4,1.6-29s4.3-19,8.4-27.9s9.8-16.9,16.7-23.8
			c6.9-6.9,15-12.4,24-16.2c4.4-1.9,9.1-3.3,13.9-4.1c2.4-0.4,4.8-0.6,7.2-0.5c1.2,0,2.4,0.2,3.6,0.4
			C448.4,18.9,449.6,19.4,450.5,20.2L450.5,20.2z"/>
		<ellipse class="st1" cx="443.6" cy="205.1" rx="13.7" ry="12.2"/>
		<path class="st6" d="M443.6,217.5c-7.7,0-13.9-5.6-13.9-12.4s6.3-12.4,13.9-12.4s13.9,5.6,13.9,12.4S451.3,217.5,443.6,217.5z
			 M443.6,193.1c-7.5,0-13.5,5.4-13.5,12s6.1,12,13.5,12s13.5-5.4,13.5-12S451,193.1,443.6,193.1z"/>
		<ellipse class="st5" cx="443.6" cy="205.1" rx="13.7" ry="12.2"/>
		<path class="st6" d="M457.2,205.1c0-1.7-0.4-3.3-1.3-4.8c-0.8-1.4-2-2.7-3.3-3.6c-2.7-1.9-5.8-2.9-9.1-3c-3.3-0.2-6.6,0.8-9.2,2.9
			c-1.3,1-2.3,2.4-3.1,3.9c-0.7,1.5-1.1,3.1-1,4.8c0.2,3.2,1.8,6.3,4.4,8.3c2.5,2,5.7,3,8.9,3c3.2,0,6.4-1,9-2.9
			c1.3-1,2.5-2.2,3.3-3.6C456.7,208.5,457.2,206.8,457.2,205.1z M457.4,205.1c0,3.5-1.4,6.9-4,9.3c-1.3,1.2-2.8,2.2-4.5,2.8
			s-3.5,1-5.3,1c-3.6,0-7.1-1.3-9.9-3.6s-4.4-5.8-4.3-9.5c0.2-3.5,1.9-6.8,4.6-9.1c1.3-1.1,2.8-2.1,4.4-2.7c1.6-0.7,3.4-1,5.1-1.1
			c3.6-0.1,7.1,1.2,9.7,3.6C455.9,198.3,457.4,201.6,457.4,205.1L457.4,205.1z"/>
		<path class="st6" d="M428.5,202.3c2.2,1.4,4.7,2.5,7.2,3.3c1.2,0.4,2.5,0.7,3.8,0.9c0.6,0.1,1.3,0.2,1.9,0.3l1.9,0.2
			c0.6,0.1,1.3,0,1.9,0.1h1l1-0.1l2-0.1c0.6-0.1,1.3-0.2,1.9-0.3l1-0.1l1-0.2l1.9-0.4c1.3-0.3,2.5-0.8,3.9-1.1
			c-1.2,0.6-2.4,1.3-3.6,1.9l-1.9,0.7l-1,0.3l-1,0.2c-0.7,0.2-1.3,0.3-2,0.5l-2,0.3l-1,0.1h-1c-0.7,0-1.4,0-2.1,0
			c-2.8-0.2-5.5-0.8-8-1.9C432.7,205.8,430.4,204.3,428.5,202.3z"/>
		<path class="st6" d="M363.3,148.8c-1.2,1.1-2.2,2.3-3.2,3.5s-1.7,2.6-2.4,4c-0.6,1.4-0.8,2.8-0.7,4.3c0.1,0.7,0.3,1.4,0.6,2.1
			c0.3,0.7,0.7,1.3,1.1,1.9c0.4,0.5,0.9,0.9,1.5,1.1c0.7,0,1.3-0.2,1.8-0.6c1.2-1,2.2-2.2,2.9-3.6c1.5-2.8,2.7-5.8,3.5-8.8l0.9,0.3
			c-0.4,1.6-0.5,3.2-0.3,4.8c0.2,1.6,0.5,3.2,1.1,4.8c0.6,1.5,1.3,3,2.2,4.4c0.9,1.4,1.9,2.7,3,3.9c0.4,0.5,1,0.9,1.6,1.1
			c0.2,0,0.4,0,0.5-0.2c0.2-0.2,0.4-0.5,0.5-0.8c0.3-0.7,0.5-1.5,0.6-2.3s0.2-1.6,0.3-2.5c0.2-3.4,0.3-6.8,0.1-10.2h0.2
			c0.6,3.4,1,6.8,1,10.2c0,1.8-0.2,3.6-0.8,5.3c-0.2,0.5-0.5,1-0.9,1.3c-0.5,0.5-1.2,0.7-1.8,0.6c-0.6-0.1-1.1-0.3-1.5-0.6
			s-0.8-0.6-1.1-0.9c-2.5-2.5-4.4-5.6-5.5-9c-0.6-1.7-0.9-3.4-0.9-5.2c-0.1-1.8,0.2-3.6,0.8-5.2l0.9,0.3c-1.1,3-2.4,6-3.8,8.8
			c-0.4,0.7-0.8,1.4-1.2,2.1c-0.4,0.7-1,1.4-1.6,1.9c-0.7,0.7-1.6,1.1-2.5,1.1c-1-0.1-1.9-0.6-2.5-1.3c-0.6-0.7-1-1.4-1.4-2.2
			s-0.6-1.6-0.7-2.5c-0.1-1.7,0.2-3.5,1-5c1.5-2.9,3.8-5.4,6.6-7.1L363.3,148.8z"/>
		<path class="st4" d="M397,41.9c-0.9,7.1-1.4,14.3-1.5,21.5c-0.2,7.2,0,14.3,0.6,21.5c1.1,14.3,3.6,28.5,8.5,42
			c2.4,6.7,5.4,13.2,9,19.4c3.6,6.1,8,11.9,12.9,17c9.9,10.3,22.6,17.8,36.2,22.3c-3.5-1-6.9-2.2-10.2-3.6l-1.3-0.5l-1.2-0.6
			l-2.5-1.1c-1.6-0.8-3.2-1.6-4.8-2.5c-6.3-3.6-12.1-8-17.2-13.1c-10.3-10.2-17.7-23.2-22.6-36.7c-2.4-6.8-4.3-13.8-5.6-20.9
			c-1.3-7.1-2.2-14.3-2.6-21.5C394,70.6,394.7,56.1,397,41.9z"/>
		<path class="st4" d="M424.6,22.4c0.1,5.6,0.4,11.2,1,16.8s1.3,11.1,2.3,16.7s2.1,11,3.5,16.4s3,10.8,4.9,16
			c1.9,5.3,4,10.4,6.5,15.5c2.5,5,5.2,9.9,8.3,14.5l2.4,3.5c0.8,1.1,1.7,2.2,2.5,3.3c0.4,0.6,0.8,1.1,1.3,1.7l1.4,1.6
			c0.9,1,1.8,2.2,2.8,3.2c3.8,4.1,7.9,8,12.3,11.5c-2.2-1.7-4.6-3.3-6.7-5.2c-1-0.9-2.2-1.8-3.2-2.8l-3-2.9c-0.5-0.5-1-1-1.5-1.5
			l-1.4-1.6l-1.4-1.6c-0.5-0.5-0.9-1.1-1.3-1.6c-0.9-1.1-1.8-2.2-2.6-3.3l-2.5-3.4c-6.4-9.4-11.5-19.5-15.3-30.2
			c-3.7-10.7-6.4-21.6-8.1-32.8c-0.8-5.6-1.4-11.2-1.8-16.8C424.4,33.7,424.4,28,424.6,22.4z"/>
		<path class="st5" d="M415.3,288.1c0,0-2.4-7.5-6.8-10.9"/>
		<path class="st6" d="M414.5,288.3c-0.3-1-0.6-2-1-3s-0.8-2-1.3-2.9c-0.9-1.9-2.2-3.7-3.8-5.2c0.9,0.6,1.7,1.3,2.5,2.1
			c0.7,0.8,1.4,1.7,2,2.6s1.2,1.9,1.7,2.8c0.5,1,1,2,1.4,3L414.5,288.3z"/>
		<circle class="st1" cx="252" cy="355.2" r="5.7"/>
		<circle class="st1" cx="170.2" cy="289.8" r="7.2"/>
		<circle class="st1" cx="176.5" cy="277.2" r="9.2"/>
		<circle class="st1" cx="206.4" cy="291.6" r="3.5"/>
		<circle class="st1" cx="214.1" cy="272.5" r="4.5"/>
		<circle class="st1" cx="199.8" cy="250.7" r="6.6"/>
		<circle class="st1" cx="193.3" cy="274.6" r="6.5"/>
		<circle class="st1" cx="232.1" cy="256.7" r="8.2"/>
		<circle class="st1" cx="182.8" cy="257.8" r="5.4"/>
		<circle class="st1" cx="203.1" cy="266.6" r="3.3"/>
		<circle class="st1" cx="229.5" cy="279" r="9.1"/>
		<circle class="st1" cx="223.7" cy="317.5" r="8.4"/>
		<circle class="st1" cx="185.9" cy="321.9" r="4.4"/>
		<circle class="st1" cx="196.9" cy="330" r="6.3"/>
		<circle class="st1" cx="201.6" cy="311" r="4.8"/>
		<circle class="st1" cx="183.8" cy="308.5" r="6.4"/>
		<circle class="st1" cx="276.3" cy="260.3" r="9.6"/>
		<circle class="st1" cx="245.4" cy="239.8" r="8.6"/>
		<circle class="st1" cx="257" cy="266.6" r="3.3"/>
		<circle class="st1" cx="240.2" cy="271.8" r="5.2"/>
		<circle class="st1" cx="239.8" cy="300.6" r="5.6"/>
		<circle class="st1" cx="261.7" cy="298" r="8.2"/>
		<circle class="st1" cx="288.3" cy="304" r="7"/>
		<circle class="st1" cx="319.2" cy="286.3" r="7.3"/>
		<circle class="st1" cx="297.4" cy="283.5" r="4.6"/>
		<circle class="st1" cx="279.1" cy="279.1" r="4.5"/>
		<circle class="st1" cx="302.6" cy="265.2" r="7.3"/>
		<circle class="st1" cx="302.9" cy="252.9" r="4.4"/>
		
			<ellipse transform="matrix(0.7071 -0.7071 0.7071 0.7071 -83.4232 273.7765)" class="st1" cx="288.8" cy="237.6" rx="6.5" ry="6.5"/>
		<circle class="st1" cx="256.5" cy="246.8" r="6.9"/>
		<circle class="st1" cx="259.4" cy="291" r="9.9"/>
		<circle class="st1" cx="217.5" cy="297.4" r="7.6"/>
		<circle class="st1" cx="236.2" cy="313.2" r="4.1"/>
		<circle class="st1" cx="264.4" cy="326.8" r="4.9"/>
		<circle class="st1" cx="281.8" cy="316.4" r="5.5"/>
		<circle class="st1" cx="268.3" cy="316.5" r="8"/>
		
			<ellipse transform="matrix(0.7071 -0.7071 0.7071 0.7071 -132.548 285.1901)" class="st1" cx="278" cy="302.6" rx="5.6" ry="5.6"/>
		<circle class="st1" cx="312.5" cy="295" r="5.2"/>
		<circle class="st1" cx="342.5" cy="297.8" r="9.7"/>
		<circle class="st1" cx="352.3" cy="284.5" r="7.4"/>
		<circle class="st1" cx="336" cy="269.8" r="6.5"/>
		<circle class="st1" cx="325.8" cy="276.3" r="3.7"/>
		<circle class="st1" cx="322.5" cy="263.7" r="7"/>
		<circle class="st1" cx="323.4" cy="252.6" r="4.1"/>
		<circle class="st1" cx="308.7" cy="313.5" r="8.4"/>
		<circle class="st1" cx="296.9" cy="327.5" r="8.1"/>
		<circle class="st1" cx="287.3" cy="300.4" r="27.9"/>
		<circle class="st1" cx="246.1" cy="298.5" r="32"/>
		<circle class="st1" cx="205.1" cy="302.3" r="21.2"/>
		<circle class="st1" cx="181.7" cy="298.4" r="8.5"/>
		<circle class="st1" cx="303.2" cy="270.2" r="17.3"/>
		<circle class="st1" cx="279.3" cy="256.2" r="13.5"/>
		<circle class="st1" cx="260.4" cy="272.1" r="14.3"/>
		<circle class="st1" cx="273.4" cy="275.9" r="15.6"/>
		<circle class="st1" cx="304.9" cy="241.5" r="3.9"/>
		<circle class="st1" cx="213.1" cy="279.8" r="10"/>
		<circle class="st1" cx="223.7" cy="271.6" r="8.4"/>
		<circle class="st1" cx="224.1" cy="249.6" r="5.4"/>
		<circle class="st1" cx="240.1" cy="266" r="5.9"/>
		<circle class="st1" cx="252.9" cy="264.2" r="10.5"/>
		<circle class="st1" cx="247.1" cy="256" r="10.7"/>
		<circle class="st1" cx="264.2" cy="261.2" r="10.5"/>
		<circle class="st1" cx="273.7" cy="242" r="4.4"/>
		<circle class="st1" cx="285.3" cy="231.1" r="3.5"/>
		<circle class="st1" cx="299.3" cy="255.6" r="10.3"/>
		<circle class="st1" cx="316.6" cy="259.1" r="6.7"/>
		<circle class="st1" cx="305.8" cy="231.4" r="3.8"/>
		<circle class="st1" cx="230.3" cy="326.4" r="6.5"/>
		<circle class="st1" cx="212.5" cy="327" r="11.2"/>
		<circle class="st1" cx="191.6" cy="317.3" r="6.4"/>
		<circle class="st1" cx="197.5" cy="326.1" r="6.8"/>
		<circle class="st1" cx="172.9" cy="311.9" r="9.9"/>
		<circle class="st1" cx="184" cy="318.5" r="7.5"/>
		<circle class="st1" cx="164" cy="297.8" r="6.2"/>
		<circle class="st1" cx="174.4" cy="302.1" r="7.1"/>
		<circle class="st1" cx="182.3" cy="291.4" r="7.9"/>
		<circle class="st1" cx="161.6" cy="308.7" r="7.8"/>
		<circle class="st1" cx="189.7" cy="288.2" r="8.2"/>
		<circle class="st1" cx="201.9" cy="283.2" r="8.7"/>
		<circle class="st1" cx="212.8" cy="267.9" r="4.6"/>
		<circle class="st1" cx="234.6" cy="267.8" r="9.9"/>
		<circle class="st1" cx="312" cy="288.2" r="4.7"/>
		<circle class="st1" cx="323.6" cy="316.2" r="11.1"/>
		<circle class="st1" cx="316.4" cy="308.1" r="7.2"/>
		<circle class="st1" cx="324.4" cy="302.7" r="10.4"/>
		<circle class="st1" cx="323.9" cy="297.1" r="8.9"/>
		<circle class="st1" cx="335.1" cy="315.3" r="12.7"/>
		<circle class="st1" cx="347.9" cy="307.7" r="5.4"/>
		<circle class="st1" cx="355" cy="305.6" r="7.1"/>
		<circle class="st1" cx="356.2" cy="298" r="5.6"/>
		<circle class="st1" cx="369.9" cy="305.1" r="10.1"/>
		<circle class="st1" cx="373.1" cy="287.7" r="4.2"/>
		<circle class="st1" cx="388.4" cy="294.5" r="6.3"/>
		<circle class="st1" cx="379.5" cy="297.8" r="6.2"/>
		<circle class="st1" cx="360.8" cy="297.3" r="6.3"/>
		<circle class="st1" cx="380.8" cy="278.1" r="3.5"/>
		<circle class="st1" cx="363.4" cy="330" r="5.6"/>
		<circle class="st1" cx="380.5" cy="321.9" r="2.6"/>
		<circle class="st1" cx="191.5" cy="324.2" r="4.2"/>
		<circle class="st1" cx="237.2" cy="341.4" r="5.2"/>
		<circle class="st1" cx="250.5" cy="338" r="2.4"/>
		<circle class="st1" cx="265.2" cy="343.4" r="3.1"/>
		<circle class="st1" cx="277.1" cy="333.7" r="0.9"/>
		<circle class="st1" cx="283.7" cy="346.6" r="5.3"/>
		<circle class="st1" cx="150.7" cy="259.8" r="6.1"/>
		<circle class="st1" cx="165.8" cy="239.6" r="4.4"/>
		<circle class="st1" cx="190.4" cy="227.1" r="7.5"/>
		<circle class="st1" cx="216.4" cy="235.7" r="1.1"/>
		<circle class="st1" cx="434.3" cy="247.6" r="6.1"/>
		<circle class="st1" cx="446.1" cy="257" r="6.3"/>
		<circle class="st1" cx="454" cy="241.6" r="4.8"/>
		<circle class="st1" cx="459" cy="230.3" r="3.6"/>
		<circle class="st1" cx="457.5" cy="257.5" r="5.1"/>
		<circle class="st1" cx="433.5" cy="263.4" r="6.4"/>
		<circle class="st1" cx="441.7" cy="265" r="5.8"/>
		<circle class="st1" cx="441.7" cy="237.3" r="2.3"/>
		<circle class="st1" cx="451.5" cy="265" r="3.9"/>
		<circle class="st1" cx="423" cy="257.5" r="5.1"/>
		<circle class="st1" cx="429.9" cy="242.6" r="5.7"/>
		<circle class="st1" cx="424.8" cy="252.1" r="3.6"/>
		<circle class="st1" cx="432.6" cy="256.3" r="6.4"/>
		<circle class="st1" cx="445.9" cy="249.6" r="3.2"/>
		<circle class="st1" cx="446.8" cy="235.5" r="1.8"/>
		<circle class="st1" cx="457" cy="246.7" r="4"/>
		<circle class="st1" cx="438.9" cy="230.3" r="4"/>
		<circle class="st1" cx="447.5" cy="230.3" r="4"/>
		<circle class="st1" cx="451.3" cy="234.9" r="4"/>
		<circle class="st1" cx="447.5" cy="238.8" r="4"/>
		<circle class="st1" cx="451.3" cy="246.4" r="4"/>
		<circle class="st1" cx="451.3" cy="251.6" r="4"/>
		<circle class="st1" cx="452.4" cy="254.4" r="4"/>
		<circle class="st1" cx="437.9" cy="253.7" r="4"/>
		<circle class="st1" cx="439.9" cy="258.5" r="4"/>
		<circle class="st1" cx="435.6" cy="270.8" r="4"/>
		<circle class="st1" cx="418" cy="251.6" r="4"/>
		<circle class="st1" cx="422.9" cy="246.4" r="4"/>
		<circle class="st1" cx="427.1" cy="250.4" r="4"/>
		<circle class="st1" cx="434.3" cy="237" r="4"/>
		<circle class="st1" cx="437.5" cy="242.4" r="4"/>
		<circle class="st1" cx="438.9" cy="237" r="4"/>
		<ellipse transform="matrix(0.655 -0.7556 0.7556 0.655 -23.2898 418.5996)" class="st1" cx="446.8" cy="234.8" rx="4" ry="4"/>
		<ellipse transform="matrix(0.655 -0.7556 0.7556 0.655 -23.8236 415.13)" class="st1" cx="442.7" cy="233.7" rx="4" ry="4"/>
		<ellipse transform="matrix(0.655 -0.7556 0.7556 0.655 -16.8394 412.999)" class="st1" cx="443.9" cy="224.9" rx="5.2" ry="5.2"/>
		
			<ellipse transform="matrix(0.655 -0.7556 0.7556 0.655 -18.3076 424.1098)" class="st1" cx="455.3" cy="232.1" rx="5.2" ry="5.2"/>
		<ellipse transform="matrix(0.655 -0.7556 0.7556 0.655 -11.5925 416.2275)" class="st1" cx="450" cy="220.8" rx="5.2" ry="5.2"/>
		<circle class="st1" cx="451.3" cy="226.4" r="5.7"/>
		<circle class="st1" cx="458.8" cy="235.5" r="3.4"/>
		<circle class="st1" cx="443" cy="245.9" r="7"/>
		<path class="st7" d="M537.9,202.8c-9.7,17.4,0.5,55.8,0.5,55.8s37.9-11.6,47.6-29.1s6.8-37.6-6.5-44.9S547.6,185.4,537.9,202.8z"
			/>
		<path class="st8" d="M575.8,187c-3.3,5.3-6.6,10.6-9.8,16s-6.3,10.8-9.4,16.3s-5.9,11.1-8.6,16.7c-1.3,2.8-2.6,5.7-3.7,8.6
			c-1.2,2.9-2.1,5.9-2.6,9c0.4-3.1,1-6.2,2-9.2c0.9-3,2-6,3.2-8.9c2.3-5.9,4.9-11.7,7.5-17.4s5.5-11.4,8.3-17s5.8-11.2,8.8-16.8
			L575.8,187z"/>
		<polygon class="st8" points="568.5,198 573.6,222.9 563.8,199.5 		"/>
		<polygon class="st8" points="558.4,216.9 562.7,237.9 553.7,218.4 		"/>
		<polygon class="st8" points="562.3,209.9 541.6,215.7 560.4,205.3 		"/>
		<polygon class="st8" points="570.6,192.6 550.1,196.4 569.1,187.8 		"/>
		<polygon class="st8" points="551.8,230.9 537.7,235.4 549.5,226.5 		"/>
		<path class="st7" d="M646.9,316.1c-1.3,12.3,13.8,31.9,13.8,31.9s19-15.8,20.3-28.2s-5.2-23.2-14.6-24.2S648.3,303.8,646.9,316.1z
			"/>
		<path class="st8" d="M664.8,297.9c-0.7,3.8-1.2,7.7-1.8,11.6s-1,7.8-1.4,11.6s-0.7,7.8-0.9,11.7c-0.1,2-0.1,3.9,0,5.9
			c0,2,0.2,3.9,0.7,5.8c-0.5-1.9-0.9-3.8-1-5.8c-0.2-2-0.3-3.9-0.3-5.9c-0.1-3.9,0-7.9,0.1-11.8s0.4-7.9,0.7-11.8s0.6-7.8,1-11.8
			L664.8,297.9z"/>
		<polygon class="st8" points="663.4,306 672.3,319 661,308 		"/>
		<polygon class="st8" points="662.1,319.2 669.7,330.3 659.8,321.3 		"/>
		<polygon class="st8" points="662.6,314.3 652.2,322.6 660.4,312.1 		"/>
		<polygon class="st8" points="663.3,302.3 652.4,309.5 661.2,300 		"/>
		<polygon class="st8" points="661.7,328.9 654.7,334.9 659.3,326.9 		"/>
		<path class="st7" d="M745.6,146.2c8.3,14.9-0.4,47.7-0.4,47.7s-32.4-9.9-40.7-24.8s-5.8-32.1,5.6-38.4
			C721.5,124.4,737.3,131.3,745.6,146.2z"/>
		<path class="st8" d="M713.2,132.7c2.9,4.5,5.7,9.1,8.4,13.7c2.7,4.6,5.4,9.3,8,14s5.1,9.5,7.3,14.3c1.1,2.4,2.2,4.9,3.2,7.4
			s1.8,5.1,2.3,7.7c-0.3-2.7-0.9-5.3-1.8-7.9c-0.8-2.6-1.7-5.1-2.7-7.6c-2-5-4.2-10-6.4-14.9c-2.2-4.9-4.7-9.7-7.1-14.6
			c-2.4-4.9-5-9.6-7.5-14.3L713.2,132.7z"/>
		<polygon class="st8" points="719.4,142.1 715,163.4 723.5,143.4 		"/>
		<polygon class="st8" points="728,158.2 724.3,176.3 732.1,159.6 		"/>
		<polygon class="st8" points="724.7,152.3 742.4,157.2 726.3,148.3 		"/>
		<polygon class="st8" points="717.6,137.5 735.1,140.8 718.8,133.4 		"/>
		<polygon class="st8" points="733.7,170.2 745.7,174.1 735.7,166.5 		"/>
		<path class="st7" d="M825.2,44c8,5.1,12.5,23.6,12.5,23.6s-18.6,3.8-26.7-1.4s-11.4-14.3-7.5-20.4S817.1,38.9,825.2,44z"/>
		<path class="st8" d="M805.6,46c2.6,1.5,5.2,3,7.8,4.5s5.1,3.1,7.7,4.7c2.6,1.6,5,3.3,7.4,5.1c1.2,0.9,2.4,1.8,3.5,2.8
			c1.2,1,2.2,2,3.2,3.2c-0.9-1.2-1.9-2.4-3-3.4c-1.1-1.1-2.2-2.1-3.4-3c-2.3-1.9-4.7-3.8-7.1-5.6s-4.9-3.6-7.3-5.3
			c-2.4-1.7-5-3.4-7.5-5L805.6,46z"/>
		<polygon class="st8" points="811.2,49 814.7,60.6 813.5,48.5 		"/>
		<polygon class="st8" points="819.7,54.6 822.7,64.5 822.1,54.2 		"/>
		<polygon class="st8" points="816.5,52.6 826.5,50.3 816.3,50.2 		"/>
		<polygon class="st8" points="809,47.2 818.5,44.1 808.6,44.8 		"/>
		<polygon class="st8" points="825.7,59 832.7,57.7 825.7,56.6 		"/>
		<path class="st7" d="M872.8,300.5c6.6,1.7,13.7,13.3,13.7,13.3s-11.8,6.6-18.5,4.9s-10.9-7.2-9.6-12.3S866.2,298.8,872.8,300.5z"
			/>
		<path class="st8" d="M859.9,306.2c2.1,0.4,4.2,0.9,6.3,1.4s4.2,1,6.3,1.6s4.1,1.2,6.2,1.8c1,0.4,2,0.7,3,1.1s2,0.9,2.8,1.5
			c-0.9-0.7-1.8-1.2-2.8-1.7s-2-0.9-3-1.3c-2-0.8-4-1.6-6.1-2.3s-4.1-1.4-6.2-2s-4.1-1.2-6.2-1.8L859.9,306.2z"/>
		<polygon class="st8" points="864.4,307 869.3,314.1 865.8,306.2 		"/>
		<polygon class="st8" points="871.4,308.9 875.6,315 872.9,308.1 		"/>
		<polygon class="st8" points="868.8,308.2 875.1,304.5 868.1,306.7 		"/>
		<polygon class="st8" points="862.5,306.2 868.3,302.1 861.7,304.7 		"/>
		<polygon class="st8" points="876.4,310.6 880.9,308.2 875.9,309 		"/>
		<g class="st9">
			<path class="st4" d="M539.2,89.1c0,0-13.8-16.2,1.8-14c15.6,2.2,4.1,14,4.1,14H539.2z"/>
			<path class="st4" d="M544.4,88.1c0,0,4.9-6.3,11.3-4.4c6.4,1.9-2.7,15.5-8.9,12.1S544.4,88.1,544.4,88.1z"/>
			<path class="st4" d="M545.3,93.7c0,0-7.3,4-2.1,10.7C548.4,111.1,563.4,99.8,545.3,93.7z"/>
			<path class="st4" d="M541.4,93.7l3,4c0,0-2.8,14.1-8.6,8.1S527.5,94.7,541.4,93.7z"/>
			<path class="st4" d="M540.1,88.2c0,0-4.9-7-8.6-4.9s-8.2,14.8,7.9,11.8S540.1,88.2,540.1,88.2z"/>
		</g>
		<circle class="st5" cx="542.2" cy="91.2" r="4.3"/>
		<g class="st9">
			<path class="st4" d="M786.5,268.9c0,0-2.1-18.7,8.3-9.4c10.4,9.3-4,12.3-4,12.3L786.5,268.9z"/>
			<path class="st4" d="M790.8,270.8c0,0,6.7-2.2,10.4,2.4c3.7,4.6-9.6,10-12.5,4.5S790.8,270.8,790.8,270.8z"/>
			<path class="st4" d="M788.7,275.3c0,0-7.3-0.7-6.8,6.8S798.9,288.7,788.7,275.3z"/>
			<path class="st4" d="M785.8,273.4l0.2,4.4c0,0-9,9-10.3,1.7C774.4,272.2,775.1,267.2,785.8,273.4z"/>
			<path class="st4" d="M787.6,268.8c0,0-0.1-7.6-3.9-7.8c-3.8-0.2-13.3,6.8,0,12.6C797,279.4,787.6,268.8,787.6,268.8z"/>
		</g>
		
			<ellipse transform="matrix(0.5598 -0.8286 0.8286 0.5598 121.3258 772.3268)" class="st5" cx="787.6" cy="272" rx="3.8" ry="3.8"/>
		<path class="st4" d="M969.4,179.6c0,0,1.4-21.2,11.1-8.8s-6.9,12.9-6.9,12.9L969.4,179.6z"/>
		<path class="st4" d="M973.8,182.5c0,0,7.9-1.1,11.2,4.8s-12.8,9.2-14.8,2.4S973.8,182.5,973.8,182.5z"/>
		<path class="st4" d="M970.5,187.1c0,0-8-2.3-9,6.2S979.2,204.2,970.5,187.1z"/>
		<path class="st4" d="M967.7,184.4l-0.6,4.9c0,0-11.8,8.2-11.9-0.2S957.1,175.4,967.7,184.4z"/>
		<path class="st4" d="M970.7,179.6c0,0,1.4-8.5-2.7-9.5s-16.2,4.8-2.6,14S970.7,179.6,970.7,179.6z"/>
		
			<ellipse transform="matrix(0.6993 -0.7148 0.7148 0.6993 160.7345 748.5057)" class="st5" cx="970.1" cy="183.2" rx="4.3" ry="4.3"/>
		<path class="st4" d="M514.2,348.4c0,0-6.8-12.2,3-8.8c9.8,3.4,0.8,9.6,0.8,9.6L514.2,348.4z"/>
		<path class="st4" d="M517.7,348.5c0,0,4-3.4,7.8-1.4s-3.8,9.6-7.3,6.6S517.7,348.5,517.7,348.5z"/>
		<path class="st4" d="M517.6,352.2c0,0-5.2,1.6-2.7,6.6S528.4,358.5,517.6,352.2z"/>
		<path class="st4" d="M515,351.7l1.4,2.9c0,0-3.6,8.8-6.6,4.1S505.9,350.5,515,351.7z"/>
		<path class="st4" d="M515,348c0,0-2.3-5.2-4.9-4.3s-7.2,8.5,3.6,8.6C524.5,352.6,515,348,515,348z"/>
		
			<ellipse transform="matrix(0.1982 -0.9802 0.9802 0.1982 70.483 786.3072)" class="st5" cx="515.8" cy="350.1" rx="2.8" ry="2.8"/>
		<path class="st5" d="M204.4,278.5c1.4-4.6,0.4-9.1-2.4-9.9c-2.1-0.7-4.6,0.9-6.3,3.8l0,0c0.8-4.1-0.3-7.7-2.8-8.5
			c-2.1-0.7-4.6,0.9-6.3,3.8c-0.4-1-1.3-1.8-2.3-2.1c-2.8-0.9-6.2,2.1-7.7,6.8c-1.2,3.7-0.7,7.3,1,9c-0.5,1.1-0.9,2.1-1.3,3.3
			c-3,9.5-0.3,18.8,6,20.7s13.8-4.1,16.8-13.5c0.7-2.3,1.1-4.7,1.2-7.2C202.3,283,203.7,280.9,204.4,278.5z"/>
		<path class="st6" d="M204.3,278.5c0.5-1.5,0.7-3.1,0.6-4.7c0-1.6-0.6-3-1.7-4.2c-0.5-0.5-1.2-0.8-1.9-0.8s-1.4,0.2-2,0.6
			c-1.3,0.8-2.3,2-3,3.3l-0.4,0.6l-0.6-0.5l0,0l-0.3-0.2l0.1-0.4c0.2-1.4,0.2-2.7,0-4.1c-0.1-1.3-0.8-2.4-1.8-3.2
			c-0.5-0.3-1-0.5-1.6-0.4s-1.2,0.3-1.8,0.6c-1.2,0.7-2.1,1.7-2.9,2.9l-0.6,0.9L186,268c-0.3-0.8-0.9-1.5-1.7-1.9
			c-0.8-0.3-1.8-0.3-2.6,0.1c-1.7,0.8-3.2,2.3-4,4c-0.9,1.7-1.4,3.6-1.5,5.6c0,1,0.1,1.9,0.3,2.9c0.2,0.9,0.7,1.7,1.3,2.4l0.2,0.2
			l-0.1,0.3c-0.9,2.2-1.5,4.5-1.8,6.8c-0.3,2.3-0.3,4.7,0.1,7c0.2,1.1,0.5,2.3,0.9,3.4s1,2,1.7,2.9s1.5,1.6,2.5,2.1
			c0.5,0.3,1,0.5,1.5,0.6c1,0.3,2.1,0.4,3.2,0.2c0.5-0.1,1.1-0.2,1.6-0.4c1.1-0.4,2.1-0.9,3-1.5c1.9-1.3,3.5-3,4.9-4.9
			c2.8-3.9,4.4-8.5,4.8-13.3v-0.1l0.1-0.1c1-0.7,1.9-1.5,2.6-2.6C203.4,280.8,203.9,279.7,204.3,278.5z M204.4,278.6
			c-0.4,1.2-0.9,2.3-1.6,3.4c-0.7,1.1-1.5,2-2.5,2.8l0.1-0.2c0,2.5-0.3,4.9-0.9,7.3c-0.6,2.4-1.7,4.7-3,6.8c-1.4,2.2-3.1,4-5.2,5.5
			c-1,0.8-2.2,1.4-3.4,1.8c-0.6,0.2-1.3,0.4-1.9,0.5c-0.7,0.1-1.3,0.1-2,0c-0.7,0-1.3-0.2-2-0.4c-0.6-0.2-1.3-0.5-1.8-0.8
			c-1.2-0.7-2.2-1.6-2.9-2.6c-1.5-2.1-2.5-4.5-2.8-7.1c-0.6-5,0.3-10,2.6-14.5l0.1,0.4c-0.7-0.8-1.2-1.8-1.4-2.8s-0.3-2-0.2-3.1
			c0.1-2,0.7-4,1.6-5.8c0.9-1.9,2.3-3.4,4.1-4.5c1-0.5,2.2-0.6,3.2-0.3c1.1,0.4,1.9,1.2,2.4,2.3h-1c0.7-1.4,1.8-2.6,3.1-3.5
			c0.7-0.5,1.5-0.8,2.4-0.9c0.9-0.1,1.8,0.1,2.6,0.6c0.7,0.5,1.3,1.2,1.7,1.9c0.4,0.7,0.6,1.5,0.7,2.3c0.2,1.5,0.2,3.1-0.2,4.6
			l-0.3-0.7h0.1l-1,0.2c0.9-1.5,2.1-2.6,3.6-3.4c0.8-0.4,1.7-0.6,2.6-0.5c0.9,0.1,1.7,0.5,2.3,1.2c1,1.3,1.6,2.9,1.6,4.6
			C205.2,275.4,204.9,277,204.4,278.6z"/>
		
			<ellipse transform="matrix(0.3007 -0.9537 0.9537 0.3007 -134.2367 365.341)" class="st6" cx="182" cy="274.2" rx="4.4" ry="2.1"/>
		
			<ellipse transform="matrix(0.3007 -0.9537 0.9537 0.3007 -128.3428 372.3473)" class="st6" cx="189.7" cy="273.7" rx="4.4" ry="2.1"/>
		
			<ellipse transform="matrix(0.3011 -0.9536 0.9536 0.3011 -127.5723 382.2742)" class="st6" cx="197" cy="278.2" rx="4.4" ry="2.1"/>
		
			<ellipse transform="matrix(0.3007 -0.9537 0.9537 0.3007 -148.1373 381.7043)" class="st6" cx="186.2" cy="291.9" rx="8.4" ry="7.2"/>
		<path class="st5" d="M238.9,278.1c1.8-5.6,0.5-11.1-2.9-12.1c-2.6-0.8-5.6,1.1-7.7,4.6h-0.1c1-5-0.4-9.4-3.4-10.4
			c-2.6-0.8-5.6,1.1-7.7,4.6c-0.5-1.2-1.5-2.2-2.8-2.6c-3.4-1.1-7.6,2.6-9.4,8.3c-1.4,4.5-0.9,8.9,1.2,11c-0.6,1.3-1.1,2.6-1.6,4
			c-3.6,11.6-0.4,22.9,7.4,25.3s16.9-5,20.6-16.6c0.9-2.8,1.4-5.8,1.5-8.8C236.3,283.6,238.1,281,238.9,278.1z"/>
		<path class="st6" d="M238.8,278.1c0.6-1.8,0.8-3.8,0.7-5.7c0-1.9-0.8-3.7-2.1-5.1c-0.6-0.6-1.5-1-2.4-1s-1.7,0.2-2.5,0.7
			c-1.5,1-2.8,2.4-3.6,4l-0.4,0.8l-0.8-0.6h-0.1l-0.4-0.3l0.1-0.5c0.3-1.7,0.3-3.3,0-5c-0.2-1.5-1-2.9-2.2-3.9
			c-0.6-0.4-1.3-0.6-2-0.5c-0.8,0.1-1.5,0.3-2.1,0.7c-1.4,0.9-2.6,2.1-3.5,3.5l-0.7,1.1l-0.5-1.1c-0.4-1-1.1-1.8-2.1-2.3
			c-1-0.4-2.1-0.4-3.1,0.1c-2.1,1.1-3.8,2.8-4.8,4.9c-1.1,2.1-1.8,4.5-1.9,6.8c-0.1,1.2,0.1,2.4,0.4,3.5c0.3,1.1,0.8,2.2,1.6,3
			l0.2,0.2l-0.1,0.3c-1.2,2.7-2,5.5-2.3,8.4c-0.4,2.9-0.4,5.8,0.1,8.6c0.2,1.4,0.6,2.8,1.1,4.1s1.2,2.5,2.1,3.6c0.8,1.1,1.8,2,3,2.6
			c0.6,0.3,1.2,0.6,1.8,0.8c1.3,0.3,2.6,0.4,3.9,0.3c0.7-0.1,1.3-0.3,2-0.5c1.3-0.4,2.6-1,3.7-1.8c2.3-1.6,4.3-3.7,5.9-6
			c3.4-4.8,5.4-10.4,5.8-16.2v-0.1l0.1-0.1c1.2-0.8,2.3-1.9,3.1-3.1C237.6,280.9,238.3,279.5,238.8,278.1z M239,278.1
			c-0.4,1.5-1.1,2.9-1.9,4.1c-0.8,1.3-1.9,2.5-3.1,3.4l0.1-0.2c0,3-0.3,6-1.1,8.9c-0.8,3-2,5.8-3.6,8.4c-1.7,2.6-3.8,4.9-6.3,6.8
			c-1.3,0.9-2.7,1.7-4.2,2.2c-0.8,0.3-1.6,0.4-2.4,0.6c-0.8,0.1-1.6,0.1-2.5,0c-0.8-0.1-1.6-0.2-2.4-0.4c-0.8-0.3-1.5-0.6-2.2-1
			c-1.4-0.8-2.6-1.9-3.6-3.2c-1.8-2.6-3-5.5-3.4-8.7c-0.7-6.1,0.4-12.2,3.2-17.7l0.1,0.6c-0.8-1-1.4-2.2-1.7-3.5
			c-0.3-1.2-0.3-2.5-0.3-3.7c0.2-2.5,0.9-4.9,2-7.1c1.1-2.3,2.8-4.2,5-5.5c1.2-0.6,2.6-0.7,3.9-0.3c1.3,0.5,2.3,1.5,2.9,2.8
			l-1.2-0.1c0.9-1.7,2.2-3.1,3.8-4.3c0.9-0.6,1.9-0.9,2.9-1.1c1.1-0.1,2.2,0.2,3.1,0.8c0.9,0.6,1.6,1.4,2.1,2.4
			c0.5,0.9,0.8,1.8,0.9,2.8c0.3,1.9,0.3,3.8-0.2,5.7l-0.3-0.8l0.1,0.1l-1.2,0.2c1.1-1.8,2.6-3.2,4.5-4.2c1-0.5,2-0.7,3.1-0.6
			s2.1,0.6,2.8,1.4c1.3,1.6,1.9,3.6,1.9,5.6C239.9,274.3,239.6,276.3,239,278.1L239,278.1z"/>
		
			<ellipse transform="matrix(0.3007 -0.9537 0.9537 0.3007 -112.1727 392.5683)" class="st6" cx="211.6" cy="272.8" rx="5.4" ry="2.6"/>
		
			<ellipse transform="matrix(0.3007 -0.9537 0.9537 0.3007 -105.0053 401.1589)" class="st6" cx="221.1" cy="272.2" rx="5.4" ry="2.6"/>
		
			<ellipse transform="matrix(0.3007 -0.9537 0.9537 0.3007 -102.527 414.1309)" class="st6" cx="231.1" cy="277" rx="5.4" ry="2.6"/>
		
			<ellipse transform="matrix(0.3007 -0.9537 0.9537 0.3007 -129.2065 412.6474)" class="st6" cx="216.8" cy="294.4" rx="10.3" ry="8.8"/>
		<circle class="st1" cx="236.9" cy="298.6" r="7.6"/>
		<circle class="st1" cx="220" cy="308.4" r="4.7"/>
		<circle class="st1" cx="188.9" cy="306" r="3.3"/>
		<circle class="st1" cx="173.8" cy="291.3" r="3.6"/>
		<circle class="st1" cx="228.3" cy="262.8" r="3"/>
	</g>
</g>
</svg>
