<?xml version="1.0" encoding="utf-8"?>
<!-- Generator: Adobe Illustrator 21.0.2, SVG Export Plug-In . SVG Version: 6.00 Build 0)  -->
<svg version="1.1" id="Слой_1" xmlns="http://www.w3.org/2000/svg" xmlns:xlink="http://www.w3.org/1999/xlink" x="0px" y="0px"
	 viewBox="0 0 1148.6 409.8" style="enable-background:new 0 0 1148.6 409.8;" xml:space="preserve">
<style type="text/css">
	.st0{clip-path:url(#SVGID_2_);}
	.st1{fill:none;}
	.st2{fill:#FFFFFF;}
	.st3{opacity:0.5;fill:#45AD56;enable-background:new    ;}
	.st4{fill:#6D4E3E;}
	.st5{fill:#84624F;}
	.st6{fill:#45AD56;}
	.st7{fill:#469E54;}
	.st8{fill:#FFCB00;}
	.st9{fill:#D89800;}
	.st10{fill:#E8B858;}
	.st11{opacity:0.5;}
	.st12{fill:#FF3200;}
	.st13{fill:#4378C6;}
	.st14{fill:#AACBEB;}
	.st15{fill:#3CB357;}
	.st16{fill:#FFFFFF;stroke:#D89800;stroke-width:0.5;stroke-miterlimit:10;}
	.st17{fill:#EAE2C7;}
	.st18{fill:#8C7F64;}
	.st19{fill:#8C7F64;stroke:#8C7F64;stroke-width:2;stroke-miterlimit:10;}
</style>
<title>events-ill</title>
<g>
	<defs>
		<rect id="SVGID_1_" width="1148.6" height="410.5"/>
	</defs>
	<clipPath id="SVGID_2_">
		<use xlink:href="#SVGID_1_"  style="overflow:visible;"/>
	</clipPath>
	<g class="st0">
		<path class="st1" d="M1082.9,253.2c-51-36-76.9-53-103.9-100.6c-16.6-29.2-84.2-48.7-91.5-78H353c-27.3,39.2-72.4,27.8-106.1,37
			c-45,12.3-86.4,18.6-158.1,77.5C30.6,236.9,0,410.5,0,410.5h1147.4C1147.4,410.5,1162.8,309.6,1082.9,253.2z"/>
		<g>
			<path class="st2" d="M1082.9,253.2c-51-36-132-28.9-159-76.5C904.1,60.8,711-21.2,564.4,4.8C390.6,35.6,293.2,167.5,259.5,176.7
				c-45,12.4-99-46.5-170.6,12.4C30.6,236.9,0,410.5,0,410.5h1147.4C1147.4,410.5,1162.8,309.6,1082.9,253.2z"/>
			<path class="st3" d="M1102.8,410.3c0,0-9.5-58.8-74.5-75.8c-41.5-10.8-89.3,1.8-161.3-5.3c-87.7-8.7-151.1-31.5-221.7-11.7
				c-52.5,14.8-74.2,29.8-116.9,34c-86.1,8.4-111.1-31.8-193.1-23.1c-110.8,11.7-178.9,90.8-178.9,90.8L1102.8,410.3z"/>
			<polygon class="st4" points="798.8,111.6 810.5,348.6 787.2,348.6 			"/>
			<polygon class="st5" points="904.1,194.2 912.9,393.4 895.3,393.4 			"/>
			<path class="st6" d="M880.2,168.4c0-7.6-3.4-14.7-9.3-19.4c3.6-10.9-2.3-22.8-13.2-26.4c-5.4-1.8-11.2-1.3-16.2,1.3
				c10.7-16.4,6.1-38.3-10.3-49c-16.4-10.7-38.3-6.1-49,10.3c-3.8,5.8-5.8,12.5-5.8,19.3c0,0.5,0,1,0,1.5
				c-20.7-5.9-42.2,6.1-48.1,26.8c-3.3,11.4-1.1,23.7,5.8,33.4c-14.7,7-20.9,24.6-13.9,39.3c0.9,2,2.1,3.8,3.4,5.5
				c-9,9.8-8.3,25,1.6,34c0,0,0,0,0,0c-6.4,11.2-2.6,25.4,8.6,31.9c6.7,3.9,14.9,4.2,21.9,0.8c3.2,5.4,9.5,8,15.5,6.4
				c6.1,13.5,22,19.5,35.6,13.4c5.2-2.4,9.5-6.3,12.4-11.3c17.2,9.7,39,3.6,48.7-13.6c7.1-12.6,5.9-28.2-2.9-39.6
				c10.5-11.9,10.1-29.8-0.8-41.2C873.8,188,880.2,178.7,880.2,168.4z"/>
			<path class="st7" d="M962.6,259.9c0-14.3-7.7-27.6-20.1-34.7c11.2-15.9,7.3-37.9-8.6-49.1c-15.9-11.2-37.9-7.3-49.1,8.6
				c-5.4,7.7-7.5,17.2-5.8,26.4c-12.9-7.6-29.5-3.4-37.1,9.4c-7.5,12.6-3.6,28.9,8.8,36.7c-10,13.5-7.3,32.6,6.2,42.6
				c0.6,0.4,1.2,0.8,1.8,1.2c-6.6,10.9-3.2,25.1,7.7,31.8c2.4,1.5,5,2.5,7.8,3c11.6,20.1,37.2,27,57.4,15.4
				c13.1-7.5,21.1-21.5,21-36.5c0-0.2,0-0.4,0-0.6c10.4-6.9,13.2-21,6.2-31.3c-0.6-0.8-1.2-1.6-1.8-2.4
				C960.6,274.2,962.6,267.1,962.6,259.9z"/>
			<path class="st8" d="M289.5,361.4c-0.5-1.7-1.9-3.1-3.7-3.6l0.4-0.4c3.2-3.5,3.7-8.3,1-10.8c-1.9-1.7-4.8-1.8-7.4-0.6
				c-0.7-2.4-2.8-4-5.3-4.2c-3.2,0-5.9,3.2-5.9,7.2c0,1.4,0.4,2.8,1.1,4.1l-38.4,23.2c-2.9-16.1-6.6-29.9-11.4-33.4
				c-18.8-13.9-40.7-3.6-40.7-3.6s-5.8,14.8-12,34.7l-38.2-23.1c0.7-1.3,1.1-2.7,1.1-4.1c0-4-2.6-7.2-5.9-7.2
				c-2.5,0.1-4.6,1.8-5.3,4.2c-2.7-1.3-5.6-1.2-7.4,0.6c-2.7,2.5-2.2,7.3,1,10.8l0.4,0.4c-1.8,0.5-3.1,1.9-3.7,3.6
				c-0.8,3.2,1.8,6.6,5.9,7.7c3.5,1,7-0.1,8.4-2.4l39.2,25c-6.3,22.6-11.5,48.1-9.6,65.6h99.6c0,0,3.5-15.6-14.1-15.6
				c0,0-1.5-22.9-4.7-46.5l41.4-26.3c1.5,2.3,4.9,3.4,8.4,2.4C287.7,368.1,290.3,364.6,289.5,361.4z"/>
			<path class="st9" d="M289.4,361.5c-0.2-0.9-0.7-1.6-1.4-2.2c-0.7-0.6-1.4-1-2.3-1.3l-0.2-0.1l0.1-0.1c1.2-1.2,2.1-2.6,2.6-4.2
				c0.6-1.6,0.6-3.3,0-4.9c-0.6-1.5-2-2.7-3.6-3c-1.7-0.3-3.4,0-4.9,0.7l-0.2,0.1l-0.1-0.2c-0.6-1.7-1.9-3.1-3.5-3.8
				c-1.7-0.6-3.6-0.2-4.9,1c-1.3,1.2-2.1,2.8-2.3,4.6c-0.2,1.8,0.1,3.5,1,5.1l0.1,0.3l-0.3,0.1l-38.3,23.5l-0.8,0.5l-0.2-1
				c-1.2-6.4-2.5-12.8-4.4-19c-0.9-3.1-2-6.1-3.4-9c-0.7-1.4-1.5-2.7-2.5-3.9c-0.3-0.3-0.5-0.5-0.8-0.7c-0.3-0.2-0.7-0.5-1-0.7
				l-2-1.3c-0.7-0.4-1.4-0.8-2.1-1.1c-0.7-0.4-1.4-0.7-2.1-1.1l-2.2-0.9l-1.1-0.4l-1.2-0.3l-2.3-0.6l-2.4-0.4
				c-0.4-0.1-0.8-0.1-1.2-0.2l-1.2-0.1c-0.8,0-1.6-0.2-2.4-0.1c-6.4-0.1-12.8,1.1-18.8,3.6l0.4-0.4c-2.2,5.7-4.3,11.4-6.4,17.2
				s-4,11.6-5.8,17.4l-0.2,0.7l-0.6-0.4l-19-11.7l-19.1-11.6l-0.3-0.2l0.2-0.3c0.8-1.5,1.2-3.3,0.9-5c-0.2-1.7-1-3.4-2.3-4.5
				c-1.3-1.2-3.1-1.5-4.8-0.9c-1.6,0.7-2.9,2-3.4,3.7l-0.1,0.3l-0.3-0.1c-1.5-0.7-3.1-1-4.8-0.7c-1.6,0.4-2.9,1.5-3.5,3
				c-0.6,1.5-0.6,3.2,0,4.8c0.5,1.6,1.4,3,2.6,4.1l0.4,0.4l-0.5,0.2c-1,0.3-1.8,0.9-2.5,1.6c-0.7,0.7-1.1,1.7-1.1,2.7
				c0,2,1.1,3.9,2.9,5c1.7,1.2,3.7,1.7,5.8,1.6c2,0,3.9-1,5.1-2.6l0.2-0.4l0.4,0.2l39.3,24.8l0.4,0.3l-0.1,0.5
				c-2.9,10.7-5.4,21.5-7.3,32.4c-0.9,5.5-1.7,10.9-2.1,16.4c-0.5,5.5-0.5,11,0,16.5l-0.9-0.8l49.8-0.1h49.8l-0.9,0.8
				c0.4-1.9,0.4-3.9,0-5.8c-0.3-1.9-1.2-3.6-2.4-5c-1.3-1.4-3-2.4-4.8-2.9c-1.9-0.6-3.9-0.8-5.9-0.8h-0.8v-0.8
				c-0.5-7.8-1.1-15.5-1.8-23.3s-1.5-15.5-2.5-23.2V393l0.3-0.2l20.8-13c6.9-4.3,13.8-8.7,20.8-13.1l0.1-0.1l0.1,0.1
				c0.9,1.4,2.4,2.3,4,2.6c1.6,0.3,3.3,0.2,4.9-0.4c1.6-0.5,3-1.5,4-2.8C289.4,365,289.9,363.2,289.4,361.5z M289.6,361.4
				c0.4,1.7,0,3.5-1.2,4.8c-1.1,1.3-2.5,2.3-4.1,2.9c-1.6,0.6-3.3,0.7-5,0.4c-1.7-0.3-3.3-1.2-4.3-2.7l0.2,0
				c-6.9,4.4-13.8,8.8-20.6,13.3L234,393.5l0.2-0.5c1.1,7.7,2.1,15.4,2.9,23.2c0.9,7.8,1.6,15.5,2.1,23.3l-0.9-0.8
				c2.2,0,4.3,0.2,6.4,0.8c2.2,0.6,4.1,1.7,5.7,3.4c1.5,1.7,2.6,3.7,3,5.9c0.4,2.2,0.4,4.4,0,6.6l-0.1,0.8h-0.8h-49.8l-49.8-0.1
				h-0.9l-0.1-0.8c-0.5-5.6-0.5-11.2,0-16.8c0.5-5.6,1.2-11.1,2.2-16.6c2-11,4.6-21.8,7.6-32.5l0.3,0.8l-39-25.1l0.6-0.1
				c-1.4,1.9-3.5,3-5.8,2.9c-2.2,0.1-4.4-0.6-6.2-1.9c-0.9-0.6-1.7-1.5-2.3-2.4c-0.6-1-0.9-2.1-0.9-3.2c0.1-1.1,0.5-2.2,1.3-3.1
				c0.8-0.8,1.7-1.4,2.8-1.8l-0.1,0.6c-1.3-1.2-2.2-2.7-2.8-4.4c-0.6-1.7-0.6-3.5,0.1-5.2c0.7-1.7,2.2-3,4-3.3
				c1.8-0.3,3.6-0.1,5.2,0.7l-0.4,0.2c0.6-1.8,2-3.3,3.8-4c1.8-0.7,3.9-0.3,5.4,1c1.4,1.3,2.3,3,2.5,4.9c0.3,1.9-0.1,3.8-1,5.5
				l-0.1-0.5l19.1,11.5l19.2,11.4l-0.8,0.3c1.8-5.9,3.6-11.7,5.6-17.5c2-5.8,4-11.6,6.2-17.3l0.1-0.3l0.3-0.1
				c3.1-1.3,6.3-2.3,9.6-2.9c3.3-0.6,6.6-0.9,9.9-0.9c0.8,0,1.7,0.1,2.5,0.1l1.3,0.1c0.4,0,0.8,0.1,1.2,0.2l2.5,0.4l2.4,0.6l1.2,0.3
				l1.2,0.4l2.4,0.9c0.8,0.4,1.5,0.7,2.3,1.1c0.8,0.4,1.5,0.8,2.2,1.2l2.1,1.4c0.3,0.2,0.7,0.5,1,0.7c0.4,0.3,0.7,0.6,1,0.9
				c1.1,1.3,2.1,2.7,2.8,4.3c1.4,3,2.5,6.1,3.4,9.3c1.8,6.3,3.2,12.8,4.2,19.3l-1-0.5l38.6-22.9l-0.1,0.4c-0.9-1.7-1.3-3.6-1-5.4
				c0.2-1.9,1.1-3.6,2.5-4.9c1.4-1.3,3.5-1.7,5.3-1c1.7,0.7,3.1,2.2,3.7,4l-0.2-0.1c1.6-0.8,3.3-1,5.1-0.7c1.7,0.4,3.2,1.6,3.9,3.3
				c0.6,1.6,0.6,3.4,0,5.1c-0.5,1.6-1.5,3.1-2.7,4.3v-0.2c0.9,0.3,1.7,0.8,2.3,1.4C288.8,359.7,289.3,360.5,289.6,361.4L289.6,361.4
				z"/>
			<ellipse class="st2" cx="269.6" cy="298.7" rx="13.6" ry="12.1"/>
			<path class="st9" d="M269.6,311c-7.6,0-13.9-5.5-13.9-12.3c0-6.8,6.2-12.3,13.9-12.3s13.9,5.5,13.9,12.3
				C283.5,305.5,277.3,311,269.6,311z M269.6,286.9c-7.4,0-13.4,5.3-13.4,11.9s6,11.9,13.4,11.9s13.4-5.3,13.4-11.9
				S277,286.9,269.6,286.9z"/>
			<path class="st8" d="M233.6,248.2l25.5-13.3c2.2-1.2,5-0.3,6.1,1.9c0.4,0.9,0.6,1.8,0.5,2.8l-4.9,32.8"/>
			<path class="st9" d="M233.2,247.4l16-8.1l8-4l1-0.5c0.3-0.2,0.7-0.4,1.1-0.5c2.5-1,5.2,0.1,6.4,2.5c0.4,0.7,0.5,1.6,0.5,2.4
				c0,0.4-0.1,0.8-0.1,1.2l-0.2,1.1l-0.7,4.4l-1.4,8.9l-2.9,17.7l2.4-17.8l1.2-8.9l0.6-4.4l0.1-1.1c0.1-0.4,0.1-0.7,0.1-1.1
				c0.1-2.1-1.5-3.9-3.6-4.1c-0.7-0.1-1.3,0-1.9,0.3c-0.3,0.1-0.7,0.3-1,0.5l-1,0.5l-7.8,4.2l-15.8,8.5L233.2,247.4z"/>
			<path class="st8" d="M175.1,248.8l-30.4-11c-2.3-0.9-5,0.3-5.8,2.7c-0.3,0.9-0.4,1.9-0.1,2.8l9.7,34.3"/>
			<path class="st9" d="M174.8,249.7l-18.2-6.9l-9.1-3.4l-2.3-0.9l-0.6-0.2l-0.5-0.2c-1.8-0.4-3.7,0.4-4.5,2.1
				c-0.3,0.6-0.5,1.4-0.4,2.1c0.1,0.8,0.3,1.5,0.5,2.3l1.3,4.7l2.6,9.4l5.1,18.8l-5.6-18.7l-2.8-9.3l-1.4-4.7
				c-0.3-0.8-0.5-1.6-0.6-2.4c-0.1-0.9,0.1-1.8,0.5-2.6c0.8-1.7,2.4-2.8,4.3-2.9c0.5,0,0.9,0,1.4,0.1l0.6,0.2l0.6,0.2l2.3,0.8
				l9.2,3.2l18.4,6.4L174.8,249.7z"/>
			<path class="st9" d="M164,257.4c-2.5-2.5-5.2-4.9-7.9-7.1c-1.4-1.1-2.8-2.2-4.3-3.1c-1.4-1-3.1-1.8-4.8-2.1
				c1.8,0.2,3.5,0.8,5.1,1.7c1.6,0.9,3.1,1.8,4.6,2.8c3,2,5.9,4.1,8.6,6.4L164,257.4z"/>
			<path class="st8" d="M269.6,301c0-23.3-18.8-49-45.9-56.4c-2.4-0.7,6.9-9.9,4.4-10.5c-5.7-1.1-17.3,8.4-20,8.4
				c-5.1,0,9.1-15.6,4.4-14.4c-4.2,1-30.8,17.4-34.6,19.3c-17.8,9.1-35.9,33.6-35.9,53.7c0,27.5,28.6,49.9,63.9,49.9
				S269.6,328.5,269.6,301z"/>
			<path class="st9" d="M269.5,301c-0.1-4.3-0.7-8.6-1.9-12.8c-0.3-1-0.7-2.1-1-3.1l-0.5-1.5c-0.2-0.5-0.4-1-0.6-1.5l-1.3-3
				l-1.5-2.9c-0.3-0.5-0.5-1-0.8-1.4l-0.9-1.4c-0.6-0.9-1.1-1.8-1.8-2.7l-1.9-2.6c-0.3-0.4-0.6-0.9-1-1.3l-1.1-1.2
				c-0.7-0.8-1.4-1.6-2.1-2.4l-2.3-2.3l-1.1-1.1l-1.2-1l-2.5-2.1c-3.4-2.6-7-4.9-10.9-6.9c-1.9-1-3.9-1.9-5.9-2.6c-1-0.4-2-0.7-3-1
				l-1.5-0.5l-0.8-0.3l-0.4-0.1l-0.2-0.1c-0.2-0.1-0.3-0.1-0.4-0.2c-0.3-0.2-0.5-0.5-0.5-0.9c0-0.2,0-0.5,0-0.7
				c0.1-0.3,0.2-0.6,0.3-0.9c0.2-0.5,0.5-1,0.8-1.5c0.6-0.9,1.2-1.8,1.8-2.7s1.2-1.8,1.7-2.6c0.1-0.2,0.2-0.4,0.3-0.6
				c0.1-0.1,0.1-0.3,0.1-0.4c0,0.1,0.1,0.2,0.1,0.2l0.1,0.1h-0.1l-0.7-0.1c-0.2,0-0.5,0-0.7,0c-0.2,0-0.5,0-0.7,0.1
				c-0.5,0.1-1,0.2-1.5,0.4c-1,0.3-1.9,0.7-2.9,1.2c-1.9,0.9-3.8,1.9-5.7,3s-3.7,2.2-5.8,3.1c-0.3,0.1-0.6,0.2-0.8,0.3
				c-0.3,0.1-0.7,0.2-1,0.2c-0.4,0-0.9-0.1-1.2-0.4c-0.4-0.3-0.6-0.8-0.6-1.3c0-0.6,0.2-1.3,0.4-1.9c0.2-0.5,0.5-1,0.7-1.5
				c1-2,2.3-3.8,3.4-5.6c0.6-0.9,1.1-1.8,1.6-2.8c0.2-0.4,0.4-0.8,0.5-1.3c0-0.1,0-0.1,0,0s0.1,0,0,0c-0.2,0-0.4,0-0.6,0.1l-0.7,0.3
				l-0.7,0.3c-0.5,0.2-1,0.4-1.4,0.7c-1,0.5-1.9,1-2.9,1.5c-1.9,1-3.8,2-5.7,3.1c-3.8,2.1-7.5,4.3-11.3,6.5s-7.5,4.4-11.3,6.5
				c-3.8,2-7.4,4.5-10.7,7.2c-6.5,5.6-12.1,12.3-16.5,19.7c-2.2,3.7-4,7.6-5.5,11.6c-1.5,4-2.4,8.2-2.7,12.5
				c-0.2,2.1-0.1,4.2,0.1,6.4c0.2,2.1,0.6,4.2,1.2,6.2c1.1,4.1,2.9,8,5.2,11.6c4.7,7.1,11.1,13,18.5,17.3c7.4,4.3,15.5,7.2,24,8.7
				c8.4,1.5,17.1,1.6,25.6,0.5c8.5-1.1,16.8-3.7,24.4-7.6c7.7-3.9,14.4-9.5,19.6-16.4c2.6-3.5,4.6-7.3,6-11.4
				C268.8,309.6,269.5,305.3,269.5,301z M269.7,301c0,4.4-0.7,8.7-2.1,12.8c-1.4,4.1-3.4,8-5.9,11.6c-5.1,7.1-11.8,13-19.4,17.2
				c-7.7,4.2-16.1,7.1-24.8,8.3c-8.7,1.3-17.5,1.2-26.2-0.3c-8.7-1.5-17-4.5-24.6-9c-7.7-4.4-14.2-10.6-19-18
				c-2.4-3.7-4.2-7.8-5.3-12.1c-0.6-2.1-0.9-4.3-1.1-6.5c-0.2-2.2-0.2-4.4,0-6.6c0.4-4.4,1.4-8.7,3-12.8c1.6-4.1,3.5-8,5.8-11.7
				c2.3-3.7,4.9-7.2,7.7-10.5c0.7-0.9,1.5-1.6,2.2-2.4s1.5-1.6,2.3-2.3s1.6-1.5,2.4-2.3l2.5-2.1c3.3-2.8,7-5.2,10.8-7.3
				c3.8-2.1,7.5-4.4,11.2-6.6s7.5-4.4,11.2-6.6c1.9-1.1,3.8-2.2,5.7-3.2c1-0.5,1.9-1,2.9-1.5c0.5-0.3,1-0.5,1.5-0.7l0.8-0.4l0.8-0.3
				c0.3-0.1,0.7-0.2,1-0.2c0.3,0,0.6,0.1,0.8,0.3c0.2,0.2,0.3,0.5,0.3,0.7c-0.1,0.6-0.2,1.2-0.5,1.8c-0.5,1-1,2-1.6,2.9
				c-1.1,1.9-2.3,3.7-3.2,5.6c-0.2,0.5-0.4,0.9-0.6,1.4c-0.2,0.4-0.3,0.8-0.3,1.3c0,0.2,0,0.2,0.1,0.2c0.1,0,0.2,0.1,0.3,0.1
				c0.2,0,0.4-0.1,0.6-0.1c0.2-0.1,0.4-0.2,0.7-0.3c1.9-0.9,3.7-2.1,5.6-3.2s3.8-2.2,5.8-3.1c1-0.5,2-0.9,3.1-1.3
				c0.5-0.2,1.1-0.3,1.7-0.4c0.3-0.1,0.6-0.1,0.9-0.1c0.3,0,0.6,0,0.9,0l0.9,0.1h0.1l0.2,0.1c0.2,0.1,0.3,0.1,0.4,0.3
				c0.3,0.2,0.4,0.6,0.4,0.9c0,0.4-0.1,0.8-0.2,1.2c-0.1,0.3-0.2,0.6-0.4,0.8c-0.6,1-1.2,1.9-1.8,2.8s-1.2,1.8-1.8,2.6
				c-0.3,0.4-0.5,0.9-0.8,1.3c-0.1,0.2-0.2,0.4-0.2,0.6c0,0.1,0,0.1,0,0.1c0-0.1-0.1-0.2-0.1-0.2c0,0,0,0-0.1,0s0.1,0,0.1,0.1
				l0.4,0.1l0.8,0.3l1.6,0.5c1.1,0.3,2.1,0.7,3.1,1.1c2.1,0.8,4.1,1.7,6,2.8c3.9,2,7.5,4.5,10.9,7.3l2.4,2.2l1.2,1.1l1.1,1.2
				l2.3,2.4c0.7,0.8,1.4,1.7,2.1,2.5l1,1.3c0.3,0.4,0.6,0.9,1,1.3l1.9,2.7c0.6,0.9,1.1,1.9,1.7,2.8l0.8,1.4c0.3,0.5,0.5,1,0.7,1.4
				l1.5,2.9l1.3,3c0.2,0.5,0.4,1,0.6,1.5l0.5,1.5c0.3,1,0.7,2.1,1,3.1C269.1,292.4,269.7,296.7,269.7,301z"/>
			<ellipse class="st2" cx="269.6" cy="298.7" rx="13.6" ry="12.1"/>
			<path class="st9" d="M283.2,298.7c0-1.7-0.4-3.3-1.2-4.9c-0.8-1.5-1.9-2.8-3.2-3.8c-2.6-2-5.9-3.1-9.2-2.9
				c-3.2,0.1-6.3,1.3-8.8,3.5c-4.5,3.7-5.1,10.4-1.4,14.9c0.4,0.5,0.9,1,1.4,1.4c2.4,2.1,5.5,3.4,8.8,3.5c3.3,0.1,6.6-0.9,9.2-2.9
				c1.3-1.1,2.4-2.4,3.1-3.9C282.8,302,283.2,300.4,283.2,298.7z M283.2,298.7c0,3.4-1.6,6.7-4.2,8.9c-5.5,4.7-13.5,4.9-19.3,0.5
				c-1.4-1.1-2.6-2.5-3.4-4.1c-1.7-3.3-1.7-7.2,0-10.6c0.8-1.6,2-3,3.4-4.1c2.8-2.2,6.3-3.3,9.9-3.1c3.5,0.1,6.8,1.4,9.4,3.7
				C281.7,292,283.2,295.3,283.2,298.7z"/>
			
				<ellipse transform="matrix(0.7071 -0.7071 0.7071 0.7071 -131.9897 277.9275)" class="st9" cx="269.5" cy="298.3" rx="3.1" ry="3.1"/>
			<ellipse class="st2" cx="145.1" cy="301.9" rx="12.7" ry="11.3"/>
			<path class="st9" d="M157.9,301.9c0-1.6-0.4-3.1-1.1-4.5c-0.7-1.4-1.8-2.6-3-3.6c-2.5-1.9-5.5-2.8-8.6-2.7
				c-3,0.1-5.9,1.2-8.2,3.2c-4.2,3.5-4.8,9.6-1.3,13.8c0.4,0.5,0.9,0.9,1.4,1.3c2.3,2,5.2,3.1,8.2,3.2c3.1,0.1,6.2-0.8,8.6-2.7
				c1.2-1,2.3-2.2,3-3.6C157.5,305.1,157.9,303.5,157.9,301.9z M157.9,301.9c0,3.2-1.5,6.2-3.9,8.3c-5.1,4.4-12.6,4.6-18,0.5
				c-1.3-1.1-2.4-2.4-3.2-3.9c-1.6-3.1-1.6-6.8,0-9.9c0.8-1.5,1.9-2.8,3.2-3.9c2.6-2,5.9-3.1,9.2-2.9c3.2,0.1,6.3,1.3,8.8,3.5
				C156.4,295.7,157.8,298.7,157.9,301.9z"/>
			
				<ellipse transform="matrix(0.7071 -0.7071 0.7071 0.7071 -170.7253 190.8524)" class="st9" cx="145" cy="301.5" rx="2.9" ry="2.9"/>
			<path class="st9" d="M242,252.7c2.6-2,5.3-3.9,8-5.6c1.4-0.9,2.8-1.7,4.2-2.4c1.4-0.8,3-1.4,4.6-1.7c-1.5,0.5-3,1.2-4.3,2.1
				c-1.4,0.9-2.6,1.8-3.9,2.8c-2.5,2-5,4.1-7.3,6.3L242,252.7z"/>
			<circle class="st9" cx="184.9" cy="291.8" r="2.4"/>
			<circle class="st9" cx="172.3" cy="299.2" r="2.8"/>
			<circle class="st9" cx="241.2" cy="307.3" r="2.8"/>
			<circle class="st9" cx="235.6" cy="298.4" r="2"/>
			<circle class="st9" cx="245.2" cy="299" r="1.7"/>
			<circle class="st9" cx="169.3" cy="310.4" r="1.5"/>
			<path class="st10" d="M223.4,307.3c0,0-7.4,0.6-12.8-0.4c-4-0.8-5.6-5-5.6-5s-5.5,5-7.3,5.2c-2.6,0.3-8.5,0.2-8.5,0.2
				s-0.7,15.9,17.2,15.9c8.1,0,12.9-7,15.2-11.9C223.9,308.8,223.4,307.3,223.4,307.3z"/>
			<path class="st9" d="M223.4,307.3c-3.4,0.5-6.9,0.6-10.3,0.4c-0.9-0.1-1.7-0.2-2.6-0.3c-0.9-0.2-1.8-0.5-2.6-1
				c-1.6-1-2.8-2.5-3.5-4.2l1.1,0.3c-1.1,1-2.2,2-3.4,2.9c-0.6,0.5-1.2,0.9-1.8,1.4c-0.7,0.5-1.4,0.9-2.2,1.1l-0.4,0.1h-0.3h-0.6
				l-1.1,0.1l-2.2,0.1c-1.5,0-2.9,0.1-4.4,0.1l0.9-0.9c0,3.7,1.2,7.4,3.6,10.2c2.6,2.7,6,4.3,9.7,4.7l2.8,0.2c0.5,0,0.9,0,1.4,0
				s0.9-0.1,1.4-0.2c1.8-0.4,3.6-1.1,5.1-2.2c3.1-2.3,5.6-5.3,7.3-8.8l0,0l0,0c0.5-0.5,1-1.1,1.4-1.7c0.2-0.3,0.4-0.6,0.5-1
				C223.4,308.2,223.5,307.8,223.4,307.3z M223.4,307.3c0.1,0.4,0.1,0.8,0,1.1c-0.1,0.4-0.2,0.7-0.4,1.1c-0.3,0.7-0.8,1.3-1.3,1.9v0
				c-1.5,3.7-3.8,7-6.9,9.6c-1.6,1.3-3.5,2.2-5.5,2.6c-0.5,0.1-1,0.2-1.5,0.3s-1,0.1-1.5,0.1l-3-0.1c-1-0.1-2-0.3-3-0.5l-1.5-0.5
				c-0.5-0.1-1-0.3-1.4-0.5l-1.4-0.7c-0.5-0.3-0.9-0.5-1.3-0.9c-0.8-0.6-1.6-1.3-2.3-2.1c-1.4-1.6-2.4-3.4-3.1-5.4c-0.7-2-1-4-1-6.1
				v-0.9h5.3h2.2h1.1h0.5h0.3h0.1c0.6-0.2,1.2-0.5,1.7-0.9c0.6-0.4,1.2-0.8,1.8-1.2c1.1-0.9,2.3-1.8,3.4-2.7l0.8-0.7l0.4,0.9
				c0.6,1.5,1.6,2.8,2.8,3.7c0.6,0.5,1.4,0.8,2.1,1c0.8,0.2,1.6,0.3,2.5,0.4c1.7,0.2,3.4,0.4,5.1,0.5
				C220,307.3,221.7,307.4,223.4,307.3z"/>
			<path class="st2" d="M185,306.6c0,0,0.1,6.6,6.1,6.9s6.6-6.4,6.6-6.4"/>
			<path class="st9" d="M185,306.6c0.4,1.6,1.2,3,2.3,4.3c1,1.1,2.4,1.7,3.9,1.7c1.5,0.1,2.9-0.4,4-1.3c1.1-1.2,2-2.6,2.5-4.1
				c0.2,1.8-0.4,3.7-1.4,5.1c-0.6,0.8-1.4,1.4-2.3,1.8c-0.9,0.4-1.9,0.5-2.9,0.5c-1,0-1.9-0.3-2.8-0.7c-0.9-0.5-1.6-1.1-2.2-1.9
				C185,310.3,184.7,308.5,185,306.6z"/>
			<path class="st2" d="M214.3,307.3c0,0,0.1,5.9,6,6.2c5.9,0.3,4.3-7,4.3-7"/>
			<path class="st9" d="M214.3,307.3c0.4,1.5,1.2,2.8,2.3,3.9c1.1,0.9,2.4,1.4,3.9,1.4c1.3,0.2,2.6-0.4,3.2-1.6c0.6-1.4,1-2.9,1-4.5
				c0.4,0.8,0.6,1.6,0.7,2.4c0.1,0.9,0,1.8-0.3,2.6c-0.3,1-1,1.8-1.8,2.3c-0.9,0.5-1.8,0.7-2.8,0.6c-0.9,0-1.8-0.2-2.7-0.6
				c-0.9-0.4-1.6-0.9-2.2-1.7C214.4,310.9,214,309.1,214.3,307.3z"/>
			<path class="st9" d="M203.5,294.8c0.7,1.3,1.1,2.7,1.2,4.2c0.3,3.2-1.4,6.3-4.3,7.7c-1.4,0.7-2.8,1.1-4.4,1.3
				c-2.9,0.4-5.9,0.3-8.8-0.3c-2.8-0.5-5.6-1.3-8.3-2.4c2.9,0.3,5.7,0.6,8.5,0.9c2.8,0.3,5.5,0.2,8.3-0.1c2.7-0.4,5.3-1.3,6.7-3.4
				C204,300.6,204.1,297.5,203.5,294.8z"/>
			<path class="st9" d="M205.1,294.8c-0.5,2.8-0.3,5.8,1.2,7.9c1.5,2.1,4.2,3,6.8,3.4c2.8,0.3,5.6,0.4,8.4,0.1
				c2.8-0.2,5.7-0.6,8.6-0.9c-2.7,1.1-5.5,1.8-8.4,2.4c-2.9,0.5-5.9,0.6-8.8,0.3c-1.5-0.2-3-0.7-4.4-1.3c-1.4-0.7-2.6-1.8-3.5-3.1
				c-0.7-1.4-1.1-2.9-1-4.5C204.1,297.6,204.4,296.1,205.1,294.8z"/>
			<ellipse class="st9" cx="204.3" cy="293.5" rx="6.7" ry="2.7"/>
			<path class="st9" d="M204.3,297.2c-3.8,0-7.6-1.3-7.6-3.7c0-2.4,3.8-3.7,7.6-3.7s7.6,1.3,7.6,3.7
				C211.9,295.9,208,297.2,204.3,297.2z M204.3,291.8c-3.7,0-5.7,1.2-5.7,1.7s2,1.7,5.7,1.7s5.8-1.2,5.8-1.7
				C210,293.1,208,291.8,204.3,291.8L204.3,291.8z"/>
			<g class="st11">
				<ellipse class="st9" cx="274.3" cy="348.3" rx="1.9" ry="3.5"/>
				
					<ellipse transform="matrix(0.4493 -0.8934 0.8934 0.4493 -169.2207 452.6116)" class="st9" cx="282.5" cy="363.6" rx="2.5" ry="2.5"/>
				
					<ellipse transform="matrix(0.7071 -0.7071 0.7071 0.7071 -165.5852 303.1621)" class="st9" cx="283.2" cy="351.5" rx="3.5" ry="2.4"/>
				
					<ellipse transform="matrix(0.8923 -0.4513 0.4513 0.8923 -132.3808 162.5016)" class="st9" cx="274.5" cy="358.8" rx="3" ry="4.2"/>
			</g>
			<g class="st11">
				
					<ellipse transform="matrix(7.132329e-02 -0.9975 0.9975 7.132329e-02 -230.7721 445.6603)" class="st9" cx="123.9" cy="346.8" rx="3.5" ry="1.9"/>
				
					<ellipse transform="matrix(0.9231 -0.3846 0.3846 0.9231 -130.1793 71.91)" class="st9" cx="114.7" cy="361.4" rx="2.4" ry="2.5"/>
				
					<ellipse transform="matrix(0.7557 -0.6549 0.6549 0.7557 -200.6829 160.567)" class="st9" cx="114.9" cy="349.3" rx="2.3" ry="3.5"/>
				
					<ellipse transform="matrix(0.5137 -0.858 0.858 0.5137 -246.6237 279.3019)" class="st9" cx="123.1" cy="357.2" rx="4.2" ry="3"/>
			</g>
			<polygon class="st9" points="101.4,346 128.7,381.1 125.6,338.9 			"/>
			
				<ellipse transform="matrix(0.9591 -0.283 0.283 0.9591 -87.7073 43.7119)" class="st8" cx="107.4" cy="325.4" rx="11.7" ry="11.7"/>
			
				<ellipse transform="matrix(0.9591 -0.283 0.283 0.9591 -91.6234 43.6548)" class="st12" cx="105.3" cy="339" rx="13.1" ry="13.1"/>
			
				<ellipse transform="matrix(0.9591 -0.283 0.283 0.9591 -89.0008 47.9792)" class="st13" cx="121.6" cy="332" rx="11.7" ry="11.7"/>
			<path class="st13" d="M289.7,209.8c0.2,16.5-0.1,32.9-0.7,49.4l-1.1,24.7l-0.9,24.7c-0.6,16.5-1.4,32.9-2.6,49.3l-0.9,12.3
				l-1.1,12.3c-0.7,8.2-1.6,16.4-2.5,24.6h-0.1l0.9-12.3c0.4-4.1,0.6-8.2,0.9-12.3l1.7-24.6c1-16.4,2.1-32.9,3-49.3
				c0.2-4.1,0.5-8.2,0.6-12.3c0.2-4.1,0.4-8.2,0.5-12.3c0.3-8.2,0.4-16.5,0.6-24.7c0.4-16.5,0.9-32.9,1.4-49.4L289.7,209.8z"/>
			<ellipse class="st12" cx="289.6" cy="169.1" rx="38.5" ry="47.9"/>
			<g class="st11">
				<path class="st2" d="M272.6,142.3c-1.1,2.7-1.9,5.6-2.5,8.4c-0.6,2.8-1,5.6-1.1,8.5c-0.1,2.7,0.2,5.4,0.9,8.1
					c0.7,2.4,1.7,4.7,3.1,6.8l-8,4.1c-1.2-3.2-1.8-6.7-1.8-10.1c0.1-3.2,0.5-6.4,1.4-9.5c0.9-3,2-5.8,3.4-8.6
					C269.3,147.3,270.9,144.7,272.6,142.3z"/>
			</g>
			<polygon class="st12" points="289.6,212.7 284.5,222.9 293.2,222.9 			"/>
			<path class="st13" d="M607.1,201.9c0.8-7.5,1-15.1,0.3-22.7c-0.7-7.5-2.1-15-4.2-22.2c-4.3-14.5-11.5-28-21-39.7
				c-14.3-17.6-33.4-30.6-55-37.6c-28.9-9.5-60.4-7.1-87.6,6.6c-6.7,3.4-13.1,7.5-19,12.2c-5.9,4.7-11.4,9.9-16.3,15.7
				c-4.9,5.8-9.2,12-12.8,18.6c-7.3,13.2-11.9,27.8-13.5,42.8c-3.2,30.2,5.6,60.5,24.6,84.2c23.8,29.8,60.9,45.8,98.9,42.8
				c7.5-0.6,14.8-1.9,22.1-3.9c14.5-4.1,28-10.9,40-20.1c12-9.2,22-20.8,29.5-33.9c3.8-6.6,6.8-13.5,9.2-20.7
				C604.6,216.9,606.2,209.5,607.1,201.9z M607.4,201.9c-1.7,15.1-6.3,29.8-13.6,43.2c-7.3,13.4-17.1,25.3-29,35
				c-36.9,29.8-88.2,34.2-129.6,11.1c-13.4-7.5-25.3-17.6-34.8-29.7c-19.2-24.3-27.9-55.4-24-86.2c0.9-7.6,2.6-15,5-22.3
				c7.2-21.8,20.6-41.1,38.5-55.5c5.9-4.7,12.3-8.9,19.1-12.4c34.5-18.3,75.9-17.8,110,1.2c13.4,7.5,25.2,17.6,34.5,29.8
				c9.4,12.1,16.3,25.9,20.3,40.7C607.9,171.5,609.1,186.8,607.4,201.9L607.4,201.9z"/>
			<path class="st4" d="M410.9,335.4c6.1-12.6,12.6-25,19.1-37.3l4.9-9.2l5-9.2c3.3-6.1,6.7-12.2,10.2-18.3l10.6-18.1l5.3-9l5.2-9.1
				c6.9-12.2,13.4-24.5,19.9-36.9l1.2-2.4l0.8,2.6c2,6.7,4.1,13.3,6.1,20s4,13.4,5.9,20.1l5.8,20.1c2,6.7,3.8,13.4,5.7,20.1
				c3.7,13.5,7.3,26.9,10.7,40.5s6.8,27.1,9.9,40.7l-0.4,0.1c-4.4-13.3-8.5-26.6-12.6-39.9s-8-26.8-11.8-40.2
				c-1.9-6.7-3.8-13.4-5.6-20.2l-5.4-20.2c-1.8-6.7-3.6-13.5-5.4-20.2s-3.4-13.5-5.1-20.3l2,0.2c-7.1,12.1-14,24.2-20.7,36.5
				l-4.9,9.3l-4.8,9.3l-9.7,18.6c-3.3,6.2-6.6,12.3-10,18.4l-5.1,9.2l-5.2,9.1c-7,12.1-14,24.2-21.5,36L410.9,335.4z"/>
			<path class="st13" d="M505.6,73.8c-0.6,9.6-1.4,19.3-2.3,28.9s-1.9,19.2-3.2,28.8l-2.1,14.3c-0.7,4.8-1.4,9.6-2,14.3
				c-1.2,9.6-2.1,19.2-3,28.8s-1.7,19.2-2.7,28.8s-2,19.2-3.1,28.8c-2.3,19.2-4.9,38.3-8,57.3h-0.3c1.3-19.3,3.1-38.5,5.2-57.7
				c1.1-9.6,2.3-19.2,3.5-28.7s2.5-19.1,3.9-28.7s2.7-19.2,3.6-28.8c0.5-4.8,0.9-9.6,1.3-14.4l1.2-14.4c0.9-9.6,2.1-19.2,3.4-28.7
				s2.7-19.1,4.3-28.6L505.6,73.8z"/>
			<path class="st13" d="M583,116.9c-7.2,6.4-14.6,12.6-22,18.8s-15,12.2-22.7,18.1l-11.6,8.7c-3.9,2.9-7.7,5.8-11.5,8.7
				c-7.6,5.9-15.1,12.1-22.5,18.3c-7.4,6.2-14.8,12.4-22.3,18.5c-7.5,6.1-15,12.2-22.5,18.1c-15.2,11.9-30.5,23.6-46.2,34.8
				l-0.2-0.2c14.5-12.7,29.4-25,44.4-37.1c7.5-6,15.2-11.9,22.8-17.9s15.3-11.8,23-17.5c7.7-5.8,15.4-11.6,22.9-17.7
				c3.8-3,7.4-6.1,11.1-9.3l11.1-9.3c7.5-6.1,15.1-12.1,22.7-17.9c7.7-5.9,15.4-11.6,23.3-17.2L583,116.9z"/>
			<path class="st13" d="M607.2,202.1c-9.7-0.6-19.3-1.4-28.9-2.3s-19.2-1.9-28.8-3.2l-14.3-2c-4.8-0.7-9.5-1.4-14.3-2
				c-9.6-1.2-19.2-2.1-28.8-3c-9.6-0.9-19.2-1.7-28.8-2.7s-19.2-2-28.8-3.1c-19.1-2.3-38.3-4.9-57.3-8v-0.3
				c19.3,1.3,38.5,3.1,57.7,5.2c9.6,1.1,19.2,2.3,28.7,3.5s19.1,2.5,28.7,3.9s19.2,2.6,28.7,3.6c4.8,0.5,9.6,0.9,14.4,1.3l14.4,1.2
				c9.6,0.9,19.2,2.1,28.7,3.4c9.6,1.3,19.1,2.7,28.6,4.3V202.1z"/>
			<path class="st13" d="M564.1,279.5c-6.4-7.2-12.7-14.6-18.8-22c-6.1-7.4-12.2-14.9-18.1-22.6l-8.7-11.6
				c-2.9-3.9-5.8-7.7-8.7-11.6c-5.9-7.6-12-15.1-18.3-22.5c-6.2-7.4-12.4-14.8-18.5-22.3c-6.1-7.5-12.1-15-18.1-22.6
				c-11.9-15.2-23.6-30.5-34.9-46.2l0.2-0.2c12.7,14.5,25,29.4,37.1,44.4c6,7.5,11.9,15.2,17.9,22.8s11.8,15.3,17.5,23
				s11.6,15.4,17.7,22.9c3,3.8,6.2,7.4,9.3,11.1l9.3,11.1c6.1,7.4,12.1,15.1,17.9,22.7c5.9,7.7,11.6,15.4,17.2,23.3L564.1,279.5z"/>
			<path class="st6" d="M454.6,98.6c13.7,1.6,26-8.2,27.6-21.9L432.7,71C431.1,84.7,440.9,97.1,454.6,98.6z"/>
			<path class="st14" d="M549.4,109.5c13.7,1.6,26-8.2,27.6-21.9l-49.5-5.7C525.9,95.6,535.7,108,549.4,109.5
				C549.3,109.5,549.3,109.5,549.4,109.5z"/>
			<path class="st13" d="M431.3,301.4c13.7,1.6,26-8.2,27.6-21.9l-49.5-5.7C407.8,287.5,417.6,299.9,431.3,301.4z"/>
			<path class="st14" d="M526.1,312.3c13.7,1.6,26-8.2,27.6-21.9l-49.5-5.7C502.6,298.4,512.4,310.8,526.1,312.3z"/>
			<path class="st12" d="M379.2,229.1c13.7,1.6,26-8.2,27.6-21.9l-49.5-5.6C355.8,215.2,365.6,227.5,379.2,229.1z"/>
			<path class="st8" d="M593.2,253.7c13.7,1.6,26-8.2,27.6-21.9l-49.5-5.7C569.7,239.7,579.5,252.1,593.2,253.7z"/>
			<path class="st8" d="M388,152.4c13.7,1.6,26-8.2,27.6-21.9l-49.5-5.7C364.6,138.5,374.4,150.8,388,152.4z"/>
			<path class="st12" d="M602,177c13.7,1.6,26-8.2,27.6-21.9l-49.5-5.7C578.5,163.1,588.3,175.4,602,177z"/>
			<polygon class="st4" points="638.2,285.3 644.7,352.5 631.7,352.5 			"/>
			<path class="st15" d="M697.7,250.5c0-14.6-11.8-26.4-26.4-26.4H671c2.9-16.2-7.9-31.6-24.1-34.5s-31.6,7.9-34.5,24.1
				c-0.3,1.6-0.4,3.3-0.5,5c0,0.3,0,0.6,0,0.9c-14.2-3.7-28.6,4.8-32.3,19c-2,7.7-0.4,15.9,4.3,22.3c-4.2,17.2,4.9,34.9,21.3,41.4
				c0.1,12.4,10.3,22.4,22.7,22.3c4.1,0,8.1-1.2,11.6-3.3c9.8,9.3,25.3,8.9,34.6-1c7.5-7.9,8.8-19.7,3.4-29.1
				c4.6-4.3,6.6-10.7,5.3-16.9C691.9,269.9,697.7,260.6,697.7,250.5z"/>
			
				<ellipse transform="matrix(0.1141 -0.9935 0.9935 0.1141 248.554 656.2326)" class="st13" cx="492.2" cy="188.8" rx="16.1" ry="16.1"/>
			
				<ellipse transform="matrix(1.483473e-02 -0.9999 0.9999 1.483473e-02 361.5664 1019.315)" class="st16" cx="698.1" cy="326.2" rx="5.7" ry="6.4"/>
			<path class="st17" d="M642.3,387c0,0-15.1-3.3-18.8,1.9c-2.7,3.7-3.1,12,9.5,11s5.6-8.5,5.6-8.5l6.1-0.9L642.3,387z"/>
			<path class="st18" d="M642.3,387c-4.4-0.4-8.8-0.8-13.1-0.2c-1.1,0.1-2.1,0.4-3.1,0.8c-1,0.3-1.8,1-2.5,1.8
				c-1.3,1.7-1.8,4-1.2,6.1c0.3,1,1,1.9,1.9,2.5c0.9,0.6,1.9,1,2.9,1.2c2.1,0.4,4.3,0.4,6.5,0c1.1-0.1,2.1-0.4,3.1-0.7
				c0.9-0.3,1.8-0.8,2.5-1.5c0.5-0.7,0.7-1.7,0.3-2.5c-0.3-1-0.8-1.9-1.5-2.6l-0.7-0.9l1.1-0.1c2-0.2,4.1-0.5,6.1-0.6l-0.2,0.5
				c-0.3-0.6-0.7-1.2-1-1.8L642.3,387z M642.4,386.9c0.4,0.5,0.9,1.1,1.3,1.7s0.9,1.2,1.3,1.8l0.3,0.4l-0.5,0.1c-2,0.4-4,0.8-6,1.1
				l0.3-1c0.4,0.4,0.8,0.9,1.1,1.4c0.3,0.5,0.6,1.1,0.8,1.6c0.2,0.6,0.3,1.3,0.2,1.9c-0.1,0.7-0.3,1.3-0.8,1.9
				c-0.8,0.9-1.9,1.6-3.1,1.9c-1.1,0.3-2.2,0.5-3.4,0.6c-1.1,0.1-2.3,0.1-3.4,0.1c-1.1,0-2.3-0.2-3.4-0.5c-1.1-0.3-2.2-0.8-3.1-1.6
				c-0.4-0.4-0.8-0.8-1.2-1.3c-0.3-0.5-0.6-1-0.8-1.5c-0.3-1.1-0.4-2.3-0.2-3.4c0.2-1.1,0.6-2.2,1.1-3.2c0.6-1,1.5-1.8,2.6-2.3
				c1.1-0.5,2.2-0.8,3.3-1c2.2-0.3,4.5-0.3,6.8,0C638,385.8,640.2,386.3,642.4,386.9L642.4,386.9z"/>
			<path class="st17" d="M655.4,344.6c0,0-14.6,29.4-13,47.5l46.7,0.7c0,0,1.7-7.3-6.5-7.4c0,0-2.1-34.2-8.2-38.8
				C665.7,339.9,655.4,344.6,655.4,344.6z"/>
			<path class="st18" d="M655.4,344.7c-1.7,3.7-3.2,7.6-4.7,11.5s-2.8,7.8-4,11.7c-1.2,3.9-2.2,7.9-3,12c-0.1,0.5-0.2,1-0.3,1.5
				l-0.2,1.5c-0.1,1-0.3,2-0.3,3s-0.2,2-0.2,3.1l0.1,3.1l-0.4-0.4c3.9,0.1,7.8,0.3,11.7,0.4l5.8,0.1l5.8,0.1c3.9,0,7.8,0,11.7,0
				h11.7l-0.5,0.4c0.2-0.9,0.2-1.8,0-2.6c-0.2-0.9-0.5-1.6-1.1-2.3c-0.6-0.6-1.4-1.1-2.2-1.3c-0.4-0.1-0.9-0.2-1.3-0.3l-1.4-0.1H682
				v-0.5c-0.4-5-0.9-10-1.5-14.9c-0.6-5-1.4-9.9-2.5-14.7c-0.5-2.4-1.3-4.8-2.4-7l-0.5-0.8c-0.2-0.2-0.3-0.5-0.5-0.7
				c-0.4-0.4-0.9-0.8-1.4-1.1c-0.2-0.2-0.5-0.4-0.8-0.5l-0.8-0.4c-0.3-0.1-0.5-0.3-0.8-0.4l-0.8-0.4c-2.3-0.9-4.8-1.3-7.2-1.3
				C660.2,343.3,657.8,343.8,655.4,344.7z M655.3,344.6c2.3-1,4.8-1.6,7.3-1.8c2.6-0.2,5.1,0.1,7.5,1l0.9,0.3
				c0.3,0.1,0.6,0.3,0.9,0.4l0.9,0.4c0.3,0.1,0.5,0.3,0.8,0.5c0.6,0.3,1.1,0.7,1.6,1.2c0.2,0.3,0.4,0.5,0.7,0.8s0.3,0.6,0.5,0.8
				c1.2,2.3,2.1,4.7,2.7,7.2c0.7,2.4,1.2,4.9,1.6,7.4s0.8,5,1.1,7.5c0.7,5,1.1,10,1.4,15l-0.6-0.6l1.5,0.1c0.5,0.1,1,0.2,1.5,0.4
				c1,0.3,2,0.9,2.7,1.7c0.7,0.8,1.2,1.8,1.4,2.9c0.2,1,0.1,2.1-0.1,3.1l-0.1,0.4h-0.4l-11.7-0.3c-3.9-0.1-7.8-0.3-11.7-0.3
				l-5.8-0.1h-5.8c-3.9,0-7.8,0-11.7,0H642v-0.4c-0.3-4.2-0.1-8.4,0.7-12.5c0.7-4.1,1.7-8.2,3-12.1c0.6-2,1.3-3.9,2-5.9
				s1.5-3.9,2.3-5.8s1.6-3.8,2.5-5.7S654.3,346.5,655.3,344.6L655.3,344.6z"/>
			<path class="st17" d="M681.6,302.3l12-6c1-0.5,2.3-0.1,2.8,0.9c0.2,0.4,0.3,0.9,0.2,1.3l-2.5,15.3"/>
			<path class="st18" d="M681.3,301.7l7.6-3.6l3.8-1.8l0.5-0.2c0.2-0.1,0.3-0.2,0.5-0.2c1.2-0.4,2.6,0.1,3.1,1.3
				c0.2,0.4,0.2,0.8,0.2,1.2c0,0.4-0.1,0.7-0.2,1.1l-0.4,2.1l-0.8,4.1l-1.5,8.3l1.2-8.3l0.6-4.2l0.3-2.1c0-0.3,0.1-0.7,0.1-1
				c0-0.9-0.7-1.7-1.6-1.8c-0.3,0-0.6,0-0.8,0.1c-0.2,0.1-0.3,0.1-0.4,0.2L693,297l-3.7,2l-7.5,3.9L681.3,301.7z"/>
			<path class="st17" d="M654.2,302.1l-14.2-5.4c-1.1-0.4-2.3,0.1-2.7,1.2c-0.2,0.4-0.2,0.9-0.1,1.3l4.3,16.1"/>
			<path class="st18" d="M653.9,302.8l-8.5-3.4l-4.2-1.7l-1.1-0.4c-0.3-0.2-0.7-0.2-1-0.2c-0.7,0-1.2,0.4-1.6,0.9
				c-0.2,0.3-0.2,0.6-0.2,0.9c0,0.4,0.1,0.7,0.2,1.1l0.5,2.2l1.1,4.4l2.2,8.9l-2.5-8.8l-1.3-4.4l-0.6-2.2c-0.1-0.4-0.2-0.8-0.3-1.2
				c0-0.4,0-0.9,0.2-1.3c0.4-0.8,1.2-1.3,2.1-1.4c0.4,0,0.9,0.1,1.3,0.3l1.1,0.4l4.3,1.5l8.6,3.1L653.9,302.8z"/>
			<path class="st18" d="M648.8,306.3c-1.1-1.2-2.3-2.4-3.6-3.4c-0.6-0.5-1.3-1.1-2-1.5c-0.7-0.5-1.4-0.9-2.2-1.1
				c0.8,0.1,1.7,0.4,2.4,0.8c0.8,0.4,1.5,0.8,2.2,1.3c1.4,0.9,2.8,1.9,4.1,3L648.8,306.3z"/>
			<path class="st17" d="M698.1,327.3c0.2-10.9-8.5-23.1-21.1-26.8c-1.1-0.3,3.3-4.6,2.1-4.9c-2.7-0.6-8.1,3.8-9.4,3.8
				c-2.4,0,4.4-7.2,2.1-6.7c-2,0.5-14.6,7.9-16.3,8.8c-8.4,4.1-17.1,15.5-17.2,24.9c-0.2,12.9,13,23.6,29.6,23.8
				S697.9,340.2,698.1,327.3z"/>
			<path class="st18" d="M698,327.2c0-2-0.3-4-0.8-6c-0.1-0.5-0.3-1-0.5-1.5l-0.2-0.7c-0.1-0.2-0.2-0.5-0.3-0.7l-0.6-1.4l-0.7-1.3
				c-0.1-0.2-0.2-0.5-0.4-0.7l-0.4-0.6c-0.3-0.4-0.5-0.9-0.8-1.3c-0.6-0.8-1.2-1.6-1.8-2.4c-0.3-0.4-0.7-0.8-1-1.1l-1.1-1.1
				l-0.5-0.5l-0.6-0.5l-1.1-1c-1.6-1.2-3.2-2.3-5-3.2c-0.9-0.5-1.8-0.9-2.7-1.2c-0.5-0.2-0.9-0.4-1.4-0.5l-0.7-0.2l-0.3-0.1
				l-0.2-0.1h-0.1c-0.1,0-0.2-0.1-0.3-0.1c-0.2-0.1-0.3-0.3-0.3-0.5c0-0.1,0-0.3,0-0.4c0-0.2,0.1-0.3,0.2-0.5
				c0.1-0.2,0.3-0.5,0.4-0.7c0.3-0.4,0.6-0.9,0.9-1.3s0.6-0.8,0.8-1.2c0.1-0.1,0.1-0.2,0.1-0.3c0-0.1,0-0.2,0-0.1
				c0,0.1,0.1,0.2,0.1,0.2l0.1,0.1l0,0h-0.3c-0.9,0-1.8,0.3-2.7,0.7c-0.9,0.4-1.8,0.9-2.7,1.4c-0.9,0.5-1.8,1-2.8,1.4l-0.4,0.1
				c-0.2,0-0.4,0.1-0.5,0.1h-0.3c-0.1,0-0.2-0.1-0.3-0.2c-0.2-0.2-0.3-0.4-0.3-0.7c0-0.3,0.1-0.6,0.2-0.9c0.1-0.2,0.2-0.5,0.4-0.7
				c0.5-0.9,1.1-1.8,1.7-2.6c0.3-0.4,0.5-0.9,0.8-1.3c0.1-0.2,0.2-0.4,0.2-0.5l0,0c0,0,0,0,0,0.1c0,0,0,0,0.1,0l0,0
				c-0.1,0-0.2,0-0.2,0.1c-0.9,0.3-1.8,0.7-2.7,1.2c-0.9,0.5-1.8,0.9-2.7,1.4c-1.8,1-3.6,1.9-5.3,2.9l-5.3,3c-1.8,0.9-3.5,2-5,3.3
				c-3.1,2.6-5.7,5.7-7.8,9.1c-1,1.7-1.9,3.5-2.6,5.4c-0.7,1.9-1.1,3.8-1.3,5.8c-0.3,4,0.7,7.9,2.9,11.3c2.2,3.3,5.1,6.1,8.5,8.1
				c3.4,2,7.2,3.5,11.1,4.2c3.9,0.7,7.9,0.9,11.9,0.4c4-0.5,7.9-1.6,11.5-3.3c3.6-1.7,6.8-4.3,9.3-7.5c1.2-1.6,2.2-3.4,2.9-5.3
				C697.5,331.3,697.9,329.3,698,327.2z M698.1,327.2c0,2-0.4,4.1-1.1,6c-0.7,1.9-1.6,3.8-2.8,5.4c-2.4,3.3-5.6,6.1-9.2,8
				c-7.4,3.9-15.8,5.1-24,3.5c-4.1-0.7-8-2.2-11.5-4.4c-3.6-2.2-6.6-5.1-8.8-8.7c-1.1-1.8-1.9-3.7-2.4-5.8c-0.5-2-0.7-4.1-0.5-6.2
				c0.2-2.1,0.7-4.1,1.5-6c0.8-1.9,1.7-3.7,2.8-5.5c1.1-1.7,2.4-3.3,3.7-4.9c0.3-0.4,0.7-0.7,1-1.1c0.3-0.4,0.7-0.7,1.1-1.1
				s0.7-0.7,1.1-1l1.2-1c1.6-1.3,3.3-2.4,5.1-3.3c1.8-0.9,3.5-2,5.3-3l5.3-3c0.9-0.5,1.8-1,2.7-1.5c0.9-0.5,1.8-1,2.8-1.4
				c0.2-0.1,0.3-0.1,0.5-0.1c0.1,0,0.1,0,0.2,0c0.1,0,0.2,0.1,0.2,0.1c0.1,0.1,0.1,0.3,0.1,0.4c0,0.3-0.1,0.6-0.3,0.9
				c-0.2,0.5-0.5,0.9-0.8,1.4c-0.5,0.9-1.1,1.7-1.5,2.6c-0.1,0.2-0.2,0.4-0.3,0.6c-0.1,0.2-0.1,0.4-0.1,0.5c0,0,0,0,0,0l0,0h0.1
				c0.1,0,0.1,0,0.2-0.1l0.3-0.1c0.9-0.4,1.7-1,2.6-1.4c0.9-0.5,1.8-1,2.7-1.4c0.5-0.2,1-0.4,1.5-0.6c0.5-0.2,1.1-0.3,1.7-0.3h0.5
				h0.1h0.1c0.1,0,0.2,0.1,0.3,0.2c0.2,0.1,0.2,0.3,0.3,0.6c0,0.2,0,0.4-0.1,0.6c-0.1,0.1-0.1,0.3-0.2,0.4c-0.3,0.5-0.6,0.9-0.9,1.3
				s-0.6,0.8-0.9,1.2c-0.1,0.2-0.2,0.4-0.3,0.6c0,0.1-0.1,0.2-0.1,0.2l0,0c0-0.1-0.1-0.2-0.1-0.2c0,0-0.1,0-0.1,0h0.1l0.2,0.1
				l0.4,0.1l0.7,0.3c0.5,0.2,1,0.3,1.5,0.5c1,0.4,1.9,0.9,2.8,1.4c1.8,1,3.5,2.2,5.1,3.5l1.1,1l0.6,0.5l0.5,0.6l1,1.1l1,1.2
				c0.7,0.8,1.2,1.7,1.8,2.5c0.3,0.4,0.5,0.9,0.8,1.3l0.4,0.7c0.1,0.2,0.2,0.5,0.3,0.7l0.7,1.4l0.6,1.4c0.1,0.2,0.2,0.5,0.3,0.7
				l0.2,0.7c0.1,0.5,0.3,1,0.4,1.5C697.9,323.1,698.1,325.2,698.1,327.2L698.1,327.2z"/>
			
				<ellipse transform="matrix(1.483473e-02 -0.9999 0.9999 1.483473e-02 361.5664 1019.315)" class="st2" cx="698.1" cy="326.2" rx="5.7" ry="6.4"/>
			<path class="st18" d="M704.5,326.3c0-0.8-0.2-1.6-0.5-2.3c-0.4-0.7-0.9-1.3-1.5-1.8c-1.2-0.9-2.7-1.4-4.3-1.4
				c-1.5,0.1-2.9,0.6-4,1.6c-2.1,1.7-2.4,4.7-0.7,6.8c0.2,0.2,0.4,0.4,0.6,0.6c1.1,1,2.5,1.6,4,1.7c1.5,0.1,3.1-0.3,4.3-1.2
				c0.6-0.5,1.2-1.1,1.5-1.8C704.3,327.8,704.5,327.1,704.5,326.3z M704.5,326.3c0,1.6-0.8,3.1-2,4.2c-1.2,1.1-2.8,1.7-4.5,1.7
				c-1.7,0.1-3.4-0.5-4.7-1.5c-0.7-0.5-1.2-1.2-1.6-2c-0.8-1.6-0.8-3.5,0.1-5.1c0.4-0.8,1-1.5,1.7-2c1.4-1,3.1-1.5,4.8-1.4
				c1.6,0.1,3.2,0.8,4.4,1.9C703.8,323.1,704.5,324.7,704.5,326.3z"/>
			
				<ellipse transform="matrix(0.7175 -0.6965 0.6965 0.7175 -28.2057 579.1602)" class="st18" cx="699.9" cy="324.4" rx="1.4" ry="1.4"/>
			
				<ellipse transform="matrix(1.483473e-02 -0.9999 0.9999 1.483473e-02 303.463 961.6296)" class="st2" cx="639.7" cy="326.8" rx="5.3" ry="5.9"/>
			<path class="st18" d="M645.7,326.9c0-0.7-0.2-1.5-0.5-2.1c-0.3-0.7-0.8-1.2-1.4-1.7c-1.1-0.9-2.6-1.3-4-1.3
				c-1.4,0.1-2.7,0.6-3.7,1.5c-1.9,1.6-2.2,4.4-0.6,6.3c0.2,0.2,0.3,0.4,0.5,0.5c1,0.9,2.3,1.5,3.7,1.6c1.4,0.1,2.8-0.3,4-1.1
				c0.6-0.4,1.1-1,1.4-1.6C645.5,328.4,645.7,327.7,645.7,326.9z M645.7,326.9c0,1.5-0.7,2.9-1.9,3.9c-1.2,1-2.6,1.6-4.2,1.6
				c-1.6,0.1-3.2-0.4-4.4-1.4c-0.6-0.5-1.2-1.2-1.5-1.9c-0.8-1.5-0.7-3.3,0.1-4.8c0.4-0.7,0.9-1.3,1.6-1.8c1.3-0.9,2.9-1.4,4.5-1.3
				c1.5,0.1,3,0.7,4.1,1.8C645.1,324,645.7,325.4,645.7,326.9z"/>
			
				<ellipse transform="matrix(0.7175 -0.6965 0.6965 0.7175 -45.358 539.0958)" class="st18" cx="642" cy="325.5" rx="1.3" ry="1.3"/>
			<path class="st18" d="M685.4,304.3c1.3-0.9,2.5-1.7,3.9-2.5c0.7-0.4,1.3-0.8,2-1.1c0.7-0.3,1.4-0.6,2.2-0.7c-0.7,0.2-1.4,0.6-2,1
				c-0.6,0.4-1.2,0.9-1.8,1.3c-1.2,0.9-2.3,1.9-3.4,3L685.4,304.3z"/>
			
				<ellipse transform="matrix(1.483473e-02 -0.9999 0.9999 1.483473e-02 326.3477 975.8873)" class="st18" cx="658.4" cy="322.3" rx="1.1" ry="1.1"/>
			
				<ellipse transform="matrix(1.483473e-02 -0.9999 0.9999 1.483473e-02 317.1182 973.2785)" class="st18" cx="652.5" cy="325.7" rx="1.3" ry="1.3"/>
			
				<ellipse transform="matrix(1.483473e-02 -0.9999 0.9999 1.483473e-02 344.5508 1009.7363)" class="st18" cx="684.7" cy="330" rx="1.3" ry="1.3"/>
			
				<ellipse transform="matrix(1.483473e-02 -0.9999 0.9999 1.483473e-02 346.2939 1003.0192)" class="st18" cx="682.2" cy="325.8" rx="0.9" ry="0.9"/>
			
				<ellipse transform="matrix(1.483473e-02 -0.9999 0.9999 1.483473e-02 350.3181 1007.8352)" class="st18" cx="686.6" cy="326.1" rx="0.8" ry="0.8"/>
			
				<ellipse transform="matrix(1.483473e-02 -0.9999 0.9999 1.483473e-02 310.4106 976.9259)" class="st18" cx="651" cy="330.9" rx="0.7" ry="0.7"/>
			<path class="st18" d="M652,372.1c0.8-0.3,1.7-0.5,2.6-0.5c0.9,0,1.8,0.2,2.6,0.6c0.8,0.5,1.4,1.2,1.8,2c0.4,0.8,0.6,1.7,0.6,2.6
				c0,1.8-0.4,3.6-1.1,5.2c-0.7,1.7-1.5,3.3-2.5,4.7l-0.4-0.6c1.3-0.3,2.6-0.5,3.9-0.6c1.3-0.1,2.7,0.1,3.9,0.5
				c1.3,0.4,2.5,1.3,3.3,2.5c0.7,1.2,1.1,2.5,1.2,3.9l-1.3,0c0-1.2-0.3-2.3-0.9-3.4c-0.6-1-1.6-1.7-2.7-2.1
				c-1.1-0.4-2.4-0.6-3.6-0.6c-1.2,0-2.5,0.1-3.7,0.4l-1,0.2l0.6-0.8c1-1.4,1.9-2.9,2.6-4.5c0.7-1.6,1.2-3.3,1.2-5
				c0-0.9-0.2-1.7-0.5-2.5c-0.3-0.8-0.9-1.5-1.6-2c-0.7-0.5-1.6-0.7-2.5-0.7C653.7,371.6,652.8,371.8,652,372.1z"/>
			<path class="st18" d="M671.5,367.8l0.8,18.7l-0.5-0.4c1-0.2,2-0.2,3,0c1,0.1,2,0.5,2.9,1c0.2,0.1,0.4,0.3,0.7,0.5l0.6,0.6
				c0.3,0.4,0.6,0.9,0.8,1.4c0.2,0.5,0.4,1,0.5,1.5c0.1,0.5,0.1,1,0.1,1.6h-1.3c0-0.5,0-0.9-0.1-1.4c-0.1-0.4-0.2-0.9-0.3-1.3
				c-0.1-0.4-0.4-0.8-0.6-1.1l-0.4-0.5c-0.2-0.1-0.3-0.3-0.5-0.4c-0.7-0.5-1.6-0.9-2.5-1c-0.9-0.2-1.9-0.2-2.8-0.1l-0.5,0.1v-0.4
				L671.5,367.8z"/>
			<path class="st18" d="M638.3,392c-0.6-0.3-1.2-0.6-1.9-0.9c-0.7-0.2-1.3-0.4-2-0.6c-0.7-0.1-1.4-0.2-2.1-0.2
				c-0.7,0-1.4,0.1-2.1,0.3c0.7-0.3,1.4-0.5,2.1-0.6c0.7-0.1,1.5-0.1,2.2-0.1c0.7,0,1.5,0.1,2.2,0.3c0.7,0.1,1.5,0.4,2.2,0.6
				L638.3,392z"/>
			<path class="st18" d="M660.1,388.6c0.5,0.5,0.9,1.1,1.4,1.6c0.2,0.3,0.4,0.6,0.6,0.9c0.2,0.4,0.3,0.8,0.4,1.2l-1.3-0.1
				c0.1-0.3,0.1-0.6,0-0.8c-0.1-0.3-0.1-0.7-0.2-1C660.7,389.9,660.4,389.2,660.1,388.6z"/>
			<path class="st18" d="M663.1,388.7c0.5,0.5,0.9,1.1,1.4,1.6c0.2,0.3,0.4,0.6,0.6,0.9c0.2,0.4,0.3,0.8,0.4,1.2l-1.3-0.1
				c0.1-0.3,0.1-0.6,0-0.8c-0.1-0.3-0.1-0.7-0.2-1C663.7,389.9,663.4,389.3,663.1,388.7z"/>
			<path class="st18" d="M672.5,388.8c0.5,0.5,0.9,1.1,1.4,1.6c0.2,0.3,0.4,0.6,0.6,0.9c0.2,0.4,0.3,0.8,0.4,1.2l-1.3-0.1
				c0.1-0.3,0.1-0.6,0-0.8c-0.1-0.3-0.1-0.7-0.2-1C673.1,390.1,672.8,389.4,672.5,388.8z"/>
			<path class="st18" d="M675.5,388.9c0.5,0.5,0.9,1.1,1.4,1.7c0.2,0.3,0.4,0.6,0.6,0.9c0.2,0.4,0.3,0.8,0.4,1.2l-1.3-0.1
				c0.1-0.3,0.1-0.5,0-0.8c-0.1-0.3-0.1-0.7-0.2-1C676.1,390.1,675.8,389.5,675.5,388.9z"/>
			<path class="st18" d="M681.8,389c0.5,0.5,1,1,1.4,1.6c0.2,0.3,0.4,0.6,0.6,0.9c0.2,0.4,0.4,0.8,0.4,1.2l-1.3-0.1
				c0.1-0.3,0.1-0.6,0-0.8c-0.1-0.3-0.2-0.7-0.3-1C682.4,390.2,682.2,389.6,681.8,389z"/>
			<path class="st18" d="M684.8,389c0.5,0.5,1,1,1.4,1.6c0.2,0.3,0.4,0.6,0.6,0.9c0.2,0.4,0.4,0.8,0.4,1.2l-1.3-0.1
				c0.1-0.3,0.1-0.6,0-0.8c-0.1-0.3-0.2-0.7-0.3-1C685.5,390.2,685.2,389.6,684.8,389z"/>
			<path class="st2" d="M658.4,329.3c0,0,0,3.1,2.8,3.3s3.1-3,3.1-3"/>
			<path class="st18" d="M658.4,329.3c0.3,0.7,0.7,1.4,1.2,1.9c0.5,0.4,1.1,0.7,1.7,0.7c0.6,0.1,1.3-0.1,1.8-0.5
				c0.6-0.5,1-1.1,1.3-1.8c0.1,0.9-0.1,1.8-0.6,2.5c-0.3,0.4-0.7,0.7-1.1,0.9c-0.5,0.2-0.9,0.3-1.4,0.2c-0.5,0-1-0.1-1.4-0.4
				c-0.4-0.2-0.8-0.6-1-1C658.3,331.1,658.1,330.2,658.4,329.3z"/>
			<path class="st2" d="M672.1,329.8c0,1.6,1.2,2.9,2.8,3c2.8,0.2,2.1-3.3,2.1-3.3"/>
			<path class="st18" d="M672.1,329.8c0.2,0.7,0.7,1.3,1.2,1.7c0.5,0.4,1.1,0.6,1.7,0.6c0.5,0.1,1.1-0.1,1.4-0.6
				c0.3-0.6,0.5-1.3,0.6-2c0.4,0.7,0.5,1.6,0.3,2.4c-0.2,0.5-0.5,0.9-0.9,1.2c-0.4,0.2-0.9,0.3-1.4,0.3c-0.9,0-1.8-0.4-2.4-1.2
				C672,331.6,671.9,330.7,672.1,329.8z"/>
			<path class="st18" d="M667.2,323.9c0.4,0.6,0.6,1.3,0.6,2c0.1,0.7-0.1,1.5-0.4,2.2c-0.4,0.7-1,1.2-1.7,1.6
				c-0.7,0.3-1.4,0.5-2.1,0.6c-1.4,0.1-2.8,0.1-4.2-0.3c-1.3-0.3-2.6-0.7-3.9-1.3c1.4,0.1,2.7,0.2,4,0.3c1.3,0.1,2.6,0.1,3.8,0
				c1.2-0.1,2.3-0.6,3.1-1.4C667.2,326.5,667.4,325.1,667.2,323.9z"/>
			<path class="st18" d="M667.9,323.9c-0.3,1.3,0,2.6,0.6,3.6c0.8,0.9,1.9,1.4,3.1,1.5c1.3,0.2,2.6,0.2,3.9,0.2c1.3,0,2.7-0.2,4-0.2
				c-1.3,0.6-2.6,1-3.9,1.2c-1.4,0.3-2.8,0.3-4.2,0.1c-0.7-0.1-1.4-0.3-2.1-0.7c-0.7-0.4-1.3-0.9-1.6-1.6c-0.3-0.7-0.5-1.4-0.4-2.2
				C667.3,325.2,667.5,324.5,667.9,323.9z"/>
			
				<ellipse transform="matrix(1.483473e-02 -0.9999 0.9999 1.483473e-02 334.3229 985.8715)" class="st19" cx="667.5" cy="323.3" rx="1.3" ry="3.1"/>
			<rect x="721.1" y="332.9" class="st13" width="91.7" height="60.1"/>
			<polygon class="st2" points="733.3,342 736.7,361.3 741.3,361 738.5,343 			"/>
			<path class="st2" d="M754.7,344.2c0,0-11.7-2.1-10.4,8s13.2,8,13.2,8v-3.7c0,0-10,1.9-10.3-4.7c-0.3-7.1,7.9-5.2,7.9-5.2
				L754.7,344.2z"/>
			<path class="st2" d="M741.2,369.4c0,0-11.7-2.1-10.4,8s13.2,8,13.2,8v-3.7c0,0-10,1.9-10.3-4.7c-0.3-7.1,7.9-5.2,7.9-5.2
				L741.2,369.4z"/>
			<path class="st2" d="M761.2,343.9l1.3,16.6c0,0,8.7-0.1,8.6-0.5s-0.6-3.2-0.6-3.2l-5.8,0.9l-0.9-4h5.6l0.3-3.5l-5.8,0.9l-0.4-4.9
				l5.5-1.3v-2.1L761.2,343.9z"/>
			<path class="st2" d="M759.9,369.7l1.3,16.6c0,0,8.7-0.1,8.6-0.5s-0.6-3.2-0.6-3.2l-5.8,0.9l-0.9-4h5.6l0.3-3.5l-5.8,0.9l-0.4-4.9
				l5.5-1.3v-2.1L759.9,369.7z"/>
			<polygon class="st2" points="786.7,386.2 785.4,371.6 790.7,377.4 798.5,369.7 800.7,386.7 798.7,386.7 797,374.6 791.7,380.4 
				787.4,377 789.5,386.7 			"/>
			<path class="st2" d="M751.8,378.6c0,0,4-1.9,4.2-4.6c0.3-3.2,0.1-4.8-8.7-4.8v17.5h3.1v-6.9l3.7,6.9l3.4-1.1L751.8,378.6z
				 M749.9,375.9v-3.3c0,0,3.7,0.3,3.1,1.9S749.9,375.9,749.9,375.9z"/>
			<path class="st2" d="M775.4,368.6l-2.4,17h2l0.6-5.5l3.1-0.5l3,6.6h2.7L775.4,368.6z M775.8,378.2l0.5-2.8l1.5,2.6L775.8,378.2z"
				/>
		</g>
	</g>
</g>
</svg>
