<?xml version="1.0" encoding="utf-8"?>
<!-- Generator: Adobe Illustrator 21.0.2, SVG Export Plug-In . SVG Version: 6.00 Build 0)  -->
<svg version="1.1" id="Слой_1" xmlns="http://www.w3.org/2000/svg" xmlns:xlink="http://www.w3.org/1999/xlink" x="0px" y="0px"
	 viewBox="0 0 646 456" style="enable-background:new 0 0 646 456;" xml:space="preserve">
<style type="text/css">
	.st0{fill:#4378C6;stroke:#4378C6;stroke-miterlimit:10;}
	.st1{opacity:0.2;fill:#4378C6;enable-background:new    ;}
	.st2{fill:#FFFFFF;stroke:#4378C6;stroke-miterlimit:10;}
	.st3{fill:#FFCB00;}
	.st4{fill:#4378C6;}
	.st5{fill:#FFFFFF;}
	.st6{fill:none;stroke:#4378C6;stroke-miterlimit:10;}
	.st7{fill:#FFFFFF;stroke:#D89800;stroke-width:0.5;stroke-miterlimit:10;}
	.st8{fill:#D89800;}
	.st9{opacity:0.3;fill:#4378C6;enable-background:new    ;}
	.st10{fill:none;stroke:#FFFFFF;stroke-miterlimit:10;}
	.st11{fill:#E8B858;}
	.st12{fill:#D89800;stroke:#D89800;stroke-width:2;stroke-miterlimit:10;}
	.st13{fill:#316199;}
	.st14{fill:#AACBEB;}
	.st15{fill:#685A49;}
	.st16{fill:#67A567;}
	.st17{fill:#58A858;}
	.st18{fill:#42A846;}
	.st19{fill:#EA1827;}
	.st20{fill:none;stroke:#4378C6;stroke-width:3;stroke-miterlimit:10;}
	.st21{fill:none;stroke:#FFCB00;stroke-width:3;stroke-miterlimit:10;}
</style>
<title>index-guys</title>
<path class="st0" d="M110.4,310.3c0,0-9-46.2-68.5-28S11.2,397.2,11.2,397.2l26.3-54.8L110.4,310.3z"/>
<ellipse class="st1" cx="314.5" cy="449.7" rx="142.9" ry="5.1"/>
<ellipse class="st1" cx="70.9" cy="449.7" rx="57.4" ry="5"/>
<path class="st2" d="M412.9,300.1c0,0,7.1-4.1,4.9-6.4c-0.8-0.8-3.2-0.1-5.7,1.8c-1.1,1-2.1,2.1-3,3.3l-34.7-13.7l-2.5,7.8l34.1,9.9
	c0,0-6.6,9-2.9,10.3c1.7,0.6,4.4-3.5,5.1-6.2c0,0,2.4,8.4,5.5,7.4c2.7-0.9-0.4-7.5-1-8.8c0,0,7.6,4,8.6,2.5
	C423.3,305.1,412.9,300.1,412.9,300.1z"/>
<polygon class="st3" points="268.7,364.9 214,431.6 219.7,435.4 292,364.9 "/>
<polygon class="st3" points="311.5,366.6 296,398.4 331.7,435.4 336.7,435.4 314,400.1 335.2,366.6 "/>
<path class="st4" d="M322,429.1h15.8l14.3,20.3h-28c0,0-3.4-11.3,9-8.1L322,429.1z"/>
<path class="st4" d="M209.5,429.2l17.3,2.6l-16.3,17.5h-28.9c0,0,5.5-16.6,20.6-10.1L209.5,429.2z"/>
<circle class="st5" cx="212.2" cy="438.6" r="2.8"/>
<circle class="st5" cx="338.1" cy="438.9" r="2.4"/>
<path class="st5" d="M184,444.7c-1,1.5-1.8,3-2.4,4.7h28.9l4.4-4.7H184z"/>
<path class="st6" d="M209.5,429.2l17.3,2.6l-16.3,17.5h-28.9c0,0,5.5-16.6,20.6-10.1L209.5,429.2z"/>
<path class="st5" d="M323.6,445.7c-0.1,1.2,0.1,2.5,0.4,3.7h28l-2.6-3.7H323.6z"/>
<path class="st6" d="M322,429.1h15.8l14.3,20.3h-28c0,0-3.4-11.3,9-8.1L322,429.1z"/>
<ellipse class="st7" cx="126.5" cy="346.5" rx="9.8" ry="8.7"/>
<path class="st3" d="M61,376c0,0-21.9,45.8-18.9,73.5h72c0,0,2.5-11.3-10.2-11.3c0,0-4.1-52.7-13.5-59.7C76.9,368.5,61,376,61,376z"
	/>
<path class="st8" d="M61.1,376.1c-2.5,5.8-4.8,11.8-7,17.8s-4.2,12-5.9,18.2c-1.8,6.1-3.2,12.3-4.2,18.5c-0.1,0.8-0.3,1.6-0.4,2.3
	l-0.3,2.4c-0.2,1.6-0.4,3.1-0.5,4.7s-0.2,3.1-0.2,4.7l0.2,4.7l-0.6-0.6c6,0.1,12,0.3,18,0.3l9,0.1h9c6,0,12-0.1,18-0.2l18-0.3
	l-0.8,0.6c0.2-1.4,0.2-2.7-0.1-4.1c-0.3-1.3-0.9-2.5-1.8-3.5c-0.9-1-2.1-1.6-3.4-2c-0.7-0.2-1.3-0.3-2-0.4l-2.1-0.1h-0.9l-0.1-0.9
	c-0.7-7.7-1.6-15.4-2.7-23c-1-7.6-2.4-15.2-4.3-22.7c-0.9-3.7-2.2-7.3-3.9-10.7l-0.7-1.2c-0.3-0.3-0.5-0.7-0.8-1
	c-0.7-0.6-1.4-1.2-2.2-1.6c-0.4-0.3-0.8-0.5-1.2-0.8l-1.3-0.7c-0.4-0.2-0.8-0.5-1.3-0.6l-1.3-0.5c-3.6-1.3-7.4-2-11.2-1.8
	C68.4,373.9,64.7,374.7,61.1,376.1z M61,375.9c3.6-1.6,7.4-2.6,11.3-2.9c3.9-0.4,7.9,0.1,11.7,1.4l1.4,0.5c0.5,0.2,0.9,0.4,1.3,0.6
	l1.3,0.6c0.4,0.2,0.8,0.5,1.3,0.8c0.9,0.5,1.7,1.1,2.5,1.8c0.4,0.4,0.7,0.8,1,1.2s0.6,0.9,0.8,1.3c1.9,3.5,3.3,7.2,4.3,11
	c1.1,3.8,1.9,7.6,2.6,11.4s1.3,7.6,1.9,11.5c1.1,7.7,1.9,15.4,2.5,23.1l-1-0.9l2.3,0.1c0.8,0.1,1.6,0.3,2.3,0.5
	c1.6,0.5,3,1.3,4.2,2.5c1.1,1.2,1.9,2.8,2.2,4.4c0.3,1.6,0.3,3.2,0,4.8l-0.1,0.6h-0.7l-18-0.3c-6-0.1-12-0.2-18-0.2h-9l-9,0.1
	c-6,0-12,0.2-18,0.3h-0.6l-0.1-0.6c-0.6-6.4-0.4-12.9,0.8-19.3c1-6.3,2.5-12.6,4.4-18.7c0.9-3.1,1.9-6.1,3-9.1s2.2-6,3.4-9
	s2.4-5.9,3.7-8.8S59.5,378.8,61,375.9L61,375.9z"/>
<path class="st8" d="M56.4,418.4c1.3-0.5,2.6-0.8,4-0.9c1.4-0.1,2.8,0.2,4,0.9c1.2,0.7,2.2,1.8,2.8,3.1c0.6,1.2,1,2.6,1,4
	c0,2.8-0.5,5.5-1.5,8.1c-1,2.6-2.2,5-3.7,7.4l-0.6-0.9c2-0.6,4-0.9,6-1c2.1-0.1,4.1,0.1,6.1,0.7c2.1,0.6,3.9,1.9,5.1,3.7
	c1.2,1.8,1.8,3.9,1.9,6l-2,0.1c0-1.8-0.5-3.6-1.4-5.1c-1-1.5-2.4-2.6-4.1-3.2c-1.8-0.6-3.7-0.9-5.5-0.8c-1.9,0-3.8,0.3-5.7,0.7
	l-1.6,0.4l0.9-1.3c1.5-2.2,2.8-4.5,3.9-7c1.1-2.4,1.7-5.1,1.8-7.8c0-1.3-0.3-2.6-0.8-3.8c-0.5-1.2-1.4-2.3-2.5-3
	c-1.2-0.7-2.5-1-3.8-1C59,417.7,57.6,417.9,56.4,418.4z"/>
<path class="st3" d="M100.5,310l18.4-9.6c1.6-0.8,3.6-0.2,4.4,1.4c0.3,0.6,0.4,1.3,0.3,2l-3.5,23.7"/>
<path class="st8" d="M100,309.2l11.6-5.8l5.8-2.9l0.7-0.4c0.3-0.1,0.5-0.3,0.8-0.4c1.9-0.7,3.9,0.1,4.8,1.9c0.3,0.6,0.4,1.2,0.4,1.8
	c0,0.6-0.2,1.1-0.3,1.6l-0.5,3.2l-1.1,6.4l-2.2,12.8l1.7-12.9l0.8-6.4l0.4-3.2c0.1-0.5,0.2-1.1,0.2-1.6c0-1.4-1.1-2.6-2.5-2.8
	c-0.4,0-0.9,0-1.3,0.2c-0.2,0.1-0.5,0.2-0.7,0.3l-0.7,0.4l-5.7,3.1l-11.4,6.2L100,309.2z"/>
<polygon class="st4" points="63,388.8 61,424.8 63,422.6 63.7,425.8 66.5,423.8 68.4,426.8 70.1,423.9 72,425.9 74.5,423.8 
	75.3,425.9 78.1,423.6 79.3,425.1 79.4,390.4 "/>
<polygon class="st9" points="79.4,395.8 79.4,390.4 63,388.8 62.7,395.4 "/>
<path class="st4" d="M57.3,380.1l-5.1,12l47.5,1.2c0.9-1.6-2.7-14.5-2.7-14.5L57.3,380.1z"/>
<path class="st3" d="M58.2,310.5l-22-7.9c-1.7-0.6-3.6,0.2-4.2,1.9c-0.2,0.7-0.3,1.4-0.1,2.1l7.1,24.7"/>
<path class="st8" d="M57.8,311.4l-13.2-5l-6.6-2.5l-1.6-0.6c-0.5-0.2-1-0.3-1.5-0.4c-1,0-1.9,0.6-2.4,1.5c-0.2,0.4-0.3,0.9-0.3,1.4
	c0.1,0.6,0.2,1.1,0.4,1.6l0.9,3.4l1.8,6.8l3.6,13.6l-4.1-13.5l-2-6.7l-1-3.4c-0.2-0.6-0.4-1.2-0.5-1.8c-0.1-0.7,0-1.4,0.3-2
	c0.6-1.3,1.8-2.1,3.2-2.2c0.7,0,1.3,0.1,1.9,0.4l1.7,0.6l6.6,2.4l13.3,4.5L57.8,311.4z"/>
<polyline class="st10" points="59,392.3 57.3,388.8 60.1,387.4 59.2,383 62.7,381.5 "/>
<polyline class="st10" points="71.9,392.6 70.8,390.1 73.1,388.8 72,384.2 "/>
<polyline class="st10" points="82.9,392.9 80.7,390.2 83.2,388.8 80.7,386.9 82,384.6 "/>
<polyline class="st10" points="93.1,393.1 91.5,389.6 94.1,386.9 91.1,383.3 "/>
<path class="st8" d="M50,316.9c-1.8-1.8-3.7-3.6-5.6-5.2c-1-0.8-2-1.6-3-2.3c-1-0.8-2.2-1.3-3.5-1.6c1.3,0.1,2.6,0.6,3.7,1.2
	c1.2,0.6,2.3,1.3,3.4,2c2.2,1.4,4.3,2.9,6.4,4.5L50,316.9z"/>
<path class="st3" d="M126.5,348.2c0-16.8-13.6-35.4-33.2-40.8c-1.8-0.5,5-7.2,3.2-7.6c-4.1-0.8-12.5,6-14.5,6c-3.7,0-1.1,1-4.5,1.9
	c-3,0.8-14.6,0.3-17.3,1.6c-12.8,6.6-26,24.3-26,38.8c0,19.9,20.7,36.1,46.2,36.1S126.5,368.1,126.5,348.2z"/>
<path class="st8" d="M126.4,348.2c-0.1-5.9-1.6-11.6-4.4-16.8c-2.7-5.2-6.4-9.7-10.9-13.5c-2.2-1.9-4.6-3.6-7.1-5
	c-2.5-1.5-5.1-2.7-7.8-3.6c-0.7-0.2-1.4-0.5-2.1-0.7l-1-0.3c-0.2-0.1-0.5-0.2-0.6-0.4c-0.2-0.2-0.3-0.5-0.3-0.8c0-0.3,0-0.6,0.2-0.9
	c0.3-0.7,0.7-1.4,1.2-2.1c0.4-0.6,0.8-1.2,1.3-1.8c0.4-0.6,0.8-1.1,1.1-1.7c0-0.1,0.1-0.2,0.1-0.3c0,0,0,0,0,0.1
	c0,0.1,0.1,0.3,0.3,0.3h0.1h-0.1H96c-0.2,0-0.3,0-0.4,0c-1.3,0.1-2.7,0.5-3.9,1.2c-2.6,1.2-5,2.8-7.7,4.2c-0.4,0.2-0.7,0.3-1.1,0.5
	c-0.2,0.1-0.5,0.1-0.7,0.2c-0.1,0-0.2,0-0.3,0h-0.3c-0.3,0-0.7,0-1,0.1c-0.1,0-0.2,0-0.3,0.1c0,0-0.1,0-0.2,0.2
	c-0.1,0.2-0.3,0.4-0.5,0.5c-0.2,0.1-0.4,0.3-0.6,0.4c-0.4,0.2-0.8,0.3-1.2,0.4c-0.8,0.2-1.5,0.3-2.3,0.3c-3,0.1-5.9,0.1-8.8,0.2
	c-1.5,0.1-2.9,0.1-4.4,0.3c-0.7,0.1-1.4,0.2-2,0.5c-0.6,0.3-1.3,0.7-1.9,1.1c-5,3.1-9.4,7-13,11.6c-3.6,4.5-6.5,9.6-8.5,15.1
	c-1,2.7-1.6,5.5-1.9,8.4c-0.2,2.8,0,5.7,0.7,8.5c1.4,5.6,4.2,10.7,8.2,14.7c4,4.1,8.8,7.4,14.1,9.6c5.3,2.3,10.9,3.8,16.7,4.3
	c5.7,0.5,11.5,0.3,17.2-0.8c2.8-0.5,5.6-1.3,8.3-2.3c2.7-1,5.4-2.2,7.9-3.6c5.1-2.9,9.5-6.8,12.9-11.6c1.7-2.4,3-5,3.9-7.8
	C125.9,354,126.4,351.1,126.4,348.2z M126.6,348.2c0,5.9-1.8,11.7-5.1,16.7c-3.3,5-7.6,9.2-12.7,12.3c-2.5,1.6-5.2,3-7.9,4.1
	c-2.8,1.1-5.6,2-8.5,2.6c-5.8,1.3-11.9,1.7-17.8,1.1c-6-0.5-11.8-2-17.3-4.4c-5.5-2.4-10.5-5.9-14.7-10.2c-4.2-4.4-7.2-9.8-8.6-15.8
	c-0.7-3-0.8-6-0.5-9c0.3-3,1.1-5.9,2.2-8.7c2.2-5.5,5.3-10.7,9.1-15.2c3.8-4.6,8.3-8.5,13.3-11.6c0.6-0.4,1.3-0.7,2-1.1
	c0.7-0.3,1.5-0.5,2.2-0.6c1.5-0.2,2.9-0.3,4.4-0.4c2.9-0.2,5.9-0.3,8.8-0.6c0.7-0.1,1.4-0.2,2.1-0.4c0.3-0.1,0.6-0.2,0.9-0.4
	c0.2-0.1,0.4-0.3,0.6-0.5c0.1-0.2,0.3-0.4,0.5-0.6c0.2-0.1,0.5-0.3,0.7-0.3c0.4-0.1,0.8-0.1,1.2-0.1h0.3H82c0.1,0,0.2-0.1,0.3-0.1
	c0.3-0.1,0.6-0.3,0.9-0.4c2.5-1.4,5-3,7.7-4.3c1.4-0.7,2.9-1.2,4.5-1.4c0.2,0,0.4,0,0.7,0h0.3h0.2c0.1,0,0.2,0.1,0.4,0.1
	c0.3,0.2,0.5,0.4,0.6,0.8c0,0.2,0,0.4,0,0.6c0,0.3-0.1,0.5-0.2,0.7c-0.3,0.7-0.7,1.4-1.2,2l-1.2,1.8c-0.4,0.5-0.7,1.1-1,1.7
	c0,0.1-0.1,0.2-0.1,0.2c0-0.1-0.1-0.2-0.2-0.3c-0.1-0.1-0.3-0.1-0.2-0.1l1.1,0.3c0.7,0.2,1.4,0.5,2.1,0.7c5.6,2.1,10.8,5.3,15.1,9.4
	c4.4,4,7.9,8.8,10.5,14.2c1.3,2.7,2.3,5.4,3,8.3C126.2,342.3,126.6,345.2,126.6,348.2z"/>
<ellipse class="st5" cx="126.5" cy="346.5" rx="9.8" ry="8.7"/>
<path class="st8" d="M136.3,346.5c0-1.2-0.3-2.4-0.9-3.5c-0.6-1.1-1.4-2-2.3-2.7c-1.9-1.4-4.3-2.1-6.7-2c-2.3,0.1-4.5,1-6.2,2.5
	c-3.1,2.7-3.5,7.4-0.9,10.5c0.3,0.3,0.6,0.6,0.9,0.9c1.7,1.5,3.9,2.4,6.2,2.5c2.4,0.1,4.7-0.6,6.7-2c1-0.7,1.7-1.7,2.3-2.7
	C136,349,136.3,347.8,136.3,346.5z M136.3,346.5c0,2.5-1.1,4.8-3,6.5c-1.9,1.7-4.3,2.7-6.8,2.8c-2.6,0.1-5.2-0.6-7.3-2.2
	c-1.1-0.8-1.9-1.9-2.6-3.1c-1.3-2.5-1.3-5.4,0-7.9c0.6-1.2,1.5-2.2,2.6-3.1c2.1-1.6,4.7-2.4,7.3-2.2c2.5,0.1,4.9,1.1,6.8,2.8
	C135.2,341.7,136.3,344.1,136.3,346.5z"/>
<ellipse class="st5" cx="36.5" cy="348.9" rx="9.2" ry="8.2"/>
<path class="st8" d="M45.7,348.9c0-1.1-0.3-2.3-0.8-3.3c-0.5-1-1.3-1.9-2.2-2.6c-1.8-1.3-4-2-6.2-1.8c-2.1,0.1-4.2,1-5.7,2.4
	c-2.9,2.5-3.3,6.8-0.8,9.7c0.2,0.3,0.5,0.6,0.8,0.8c1.6,1.4,3.6,2.3,5.7,2.4c2.2,0.2,4.4-0.5,6.2-1.8c0.9-0.7,1.6-1.6,2.2-2.5
	C45.4,351.1,45.7,350,45.7,348.9z M45.7,348.9c0,2.3-1.1,4.5-2.8,6c-1.8,1.6-4,2.5-6.4,2.6c-2.5,0.2-4.9-0.6-6.9-2.1
	c-1-0.8-1.8-1.8-2.4-2.9c-1.2-2.3-1.2-5.1,0-7.4c0.6-1.1,1.4-2.1,2.4-2.9c2-1.5,4.4-2.2,6.9-2.1c2.4,0.1,4.6,1.1,6.4,2.6
	C44.7,344.3,45.7,346.5,45.7,348.9z"/>
<path class="st8" d="M106.4,313.1c1.9-1.4,3.9-2.7,5.9-4c1-0.6,2-1.2,3.1-1.7c1-0.6,2.2-0.9,3.3-1.2c-1.1,0.4-2.1,0.9-3.1,1.6
	c-1,0.7-1.9,1.4-2.8,2.1c-1.8,1.5-3.5,3-5.2,4.6L106.4,313.1z"/>
<circle class="st8" cx="65.3" cy="341.5" r="1.7"/>
<circle class="st8" cx="56.2" cy="346.9" r="2"/>
<circle class="st8" cx="106" cy="352.8" r="2"/>
<circle class="st8" cx="101.9" cy="346.3" r="1.5"/>
<circle class="st8" cx="108.8" cy="346.8" r="1.2"/>
<circle class="st8" cx="54" cy="355" r="1.1"/>
<path class="st8" d="M86.4,411.4l1.6,28.8l-0.7-0.6c1.6-0.3,3.1-0.3,4.7-0.1c1.6,0.2,3.2,0.7,4.6,1.5c0.4,0.2,0.7,0.5,1,0.7l0.9,0.9
	c0.5,0.7,1,1.4,1.3,2.1c0.3,0.8,0.6,1.5,0.7,2.4c0.2,0.8,0.2,1.6,0.3,2.4h-2c-0.1-0.7,0-1.4-0.1-2.1c-0.1-0.7-0.3-1.4-0.5-2
	c-0.2-0.6-0.6-1.2-0.9-1.8l-0.7-0.7c-0.2-0.2-0.5-0.4-0.8-0.6c-1.2-0.8-2.5-1.3-3.9-1.5c-1.4-0.2-2.9-0.2-4.3,0l-0.7,0.1v-0.7
	L86.4,411.4z"/>
<path class="st8" d="M69.3,443.7c0.8,0.8,1.5,1.6,2.1,2.5c0.3,0.5,0.6,0.9,0.9,1.4c0.3,0.6,0.5,1.2,0.6,1.9l-2-0.1
	c0.1-0.4,0.1-0.9,0-1.3c-0.1-0.5-0.2-1-0.4-1.5C70.2,445.7,69.8,444.7,69.3,443.7z"/>
<path class="st8" d="M74,443.7c0.8,0.8,1.5,1.6,2.1,2.5c0.3,0.5,0.6,0.9,0.9,1.4c0.3,0.6,0.5,1.2,0.6,1.9l-2-0.1
	c0.1-0.4,0.1-0.9,0-1.3c-0.1-0.5-0.2-1-0.4-1.5C74.9,445.7,74.5,444.7,74,443.7z"/>
<path class="st8" d="M88.5,443.7c0.8,0.8,1.5,1.6,2.1,2.5c0.3,0.5,0.6,0.9,0.9,1.4c0.3,0.6,0.5,1.2,0.6,1.9l-2-0.1
	c0.1-0.4,0.1-0.9,0-1.3c-0.1-0.5-0.2-1-0.4-1.5C89.4,445.7,89,444.7,88.5,443.7z"/>
<path class="st8" d="M93.2,443.7c0.8,0.8,1.5,1.6,2.1,2.5c0.3,0.5,0.6,0.9,0.9,1.4c0.3,0.6,0.5,1.2,0.6,1.9l-2-0.1
	c0.1-0.4,0.1-0.9,0-1.3c-0.1-0.5-0.2-1-0.4-1.5C94.1,445.7,93.6,444.7,93.2,443.7z"/>
<path class="st8" d="M102.8,443.7c0.8,0.8,1.5,1.6,2.2,2.5c0.4,0.5,0.7,0.9,1,1.4c0.4,0.6,0.6,1.2,0.7,1.9l-2-0.1
	c0.1-0.4,0.1-0.8,0-1.3c-0.1-0.5-0.3-1-0.4-1.5C103.9,445.7,103.4,444.7,102.8,443.7z"/>
<path class="st8" d="M107.5,443.7c0.8,0.8,1.5,1.6,2.2,2.5c0.4,0.5,0.7,0.9,1,1.4c0.4,0.6,0.6,1.2,0.7,1.9l-2-0.1
	c0.1-0.4,0.1-0.8,0-1.3c-0.1-0.5-0.3-1-0.4-1.5C108.5,445.7,108.1,444.7,107.5,443.7z"/>
<path class="st11" d="M93.1,352.8c-3.1,0.3-6.2,0.1-9.3-0.3c-2.9-0.6-4-3.6-4-3.6s-4,3.6-5.3,3.7c-1.9,0.2-6.2,0.2-6.2,0.2
	s-0.5,11.5,12.4,11.5c5.9,0,9.3-5,11-8.6C93.4,353.9,93.1,352.8,93.1,352.8z"/>
<path class="st8" d="M93.1,352.8c-2.5,0.4-5,0.5-7.5,0.4c-0.6,0-1.3-0.1-1.9-0.2c-0.7-0.1-1.3-0.4-1.9-0.7c-1.2-0.8-2.1-1.8-2.7-3.1
	l1.2,0.3c-0.8,0.8-1.6,1.5-2.4,2.1c-0.4,0.4-0.8,0.7-1.3,1c-0.5,0.4-1.1,0.7-1.7,0.9l-0.3,0.1h-0.2H74l-0.8,0.1l-1.6,0.1
	c-1.1,0-2.1,0-3.2,0l1-0.9c0,2.6,0.9,5.1,2.5,7.1c1.8,1.9,4.2,3.1,6.8,3.3l2,0.1c0.3,0,0.7,0,1,0s0.6-0.1,1-0.1
	c1.3-0.2,2.5-0.8,3.6-1.5c2.2-1.6,4-3.8,5.3-6.2l0,0l0,0c0.4-0.4,0.7-0.8,1-1.2C92.9,353.9,93.1,353.3,93.1,352.8z M93.1,352.8
	c0.1,0.6,0,1.1-0.3,1.6c-0.2,0.5-0.5,1-0.9,1.4v-0.1c-1,2.7-2.7,5.2-4.9,7c-1.2,1-2.5,1.6-4,2c-0.4,0.1-0.8,0.1-1.1,0.2
	s-0.8,0.1-1.1,0.1l-2.2-0.1c-0.7-0.1-1.5-0.2-2.2-0.4c-0.7-0.2-1.4-0.4-2.2-0.7c-1.4-0.6-2.7-1.5-3.7-2.7c-1-1.2-1.8-2.5-2.3-4
	c-0.5-1.5-0.7-3-0.7-4.5v-0.9h4.1h1.6h0.8h0.4h0.2h0.1c0.4-0.1,0.8-0.3,1.1-0.6c0.4-0.3,0.8-0.6,1.3-0.9c0.8-0.6,1.7-1.3,2.4-1.9
	l0.8-0.7l0.4,1c0.4,1,1.1,1.9,1.9,2.6c0.4,0.3,0.9,0.6,1.5,0.7c0.6,0.1,1.2,0.3,1.8,0.4c1.2,0.2,2.4,0.3,3.7,0.4
	S91.8,352.8,93.1,352.8z"/>
<path class="st5" d="M65.3,352.3c0,0,0.1,4.8,4.4,5s4.8-4.7,4.8-4.7"/>
<path class="st8" d="M65.3,352.3c0.4,1.1,1,2.1,1.8,2.9c0.7,0.7,1.7,1,2.6,1.1c1,0.1,2-0.2,2.7-0.8c0.9-0.8,1.5-1.8,2-2.8
	c0.2,1.4-0.1,2.7-0.9,3.9c-0.4,0.6-1,1.1-1.7,1.4c-0.7,0.3-1.4,0.4-2.2,0.4c-0.7,0-1.5-0.2-2.2-0.5c-0.7-0.4-1.2-0.9-1.7-1.5
	C65.2,355,65,353.6,65.3,352.3z"/>
<path class="st5" d="M86.5,352.8c0,0,0.1,4.3,4.4,4.5s3.1-5.1,3.1-5.1"/>
<path class="st8" d="M86.5,352.8c0.4,1,1,1.9,1.9,2.6c0.8,0.6,1.7,0.8,2.6,0.9c0.8,0.1,1.6-0.2,2.1-0.9c0.5-1,0.8-2.1,0.9-3.1
	c0.7,1.1,0.9,2.5,0.5,3.8c-0.2,0.8-0.7,1.4-1.4,1.8c-0.7,0.4-1.4,0.5-2.2,0.5c-1.4,0-2.8-0.6-3.7-1.8
	C86.4,355.5,86.1,354.1,86.5,352.8z"/>
<path class="st8" d="M78.7,343.7c0.5,0.9,0.9,1.9,1,3c0.1,1.1-0.1,2.3-0.6,3.4c-0.6,1.1-1.5,1.9-2.5,2.5c-1,0.5-2.1,0.9-3.2,1
	c-2.1,0.3-4.3,0.2-6.4-0.3c-2.1-0.4-4.1-1-6-1.9c2.1,0.1,4.2,0.3,6.2,0.4c2,0.1,4,0.1,5.9-0.1c1.8-0.1,3.5-0.9,4.7-2.3
	C78.8,347.6,79.1,345.6,78.7,343.7z"/>
<path class="st8" d="M79.8,343.7c-0.4,1.9,0,3.9,1.1,5.6c1.2,1.4,3,2.2,4.8,2.3c2,0.2,4,0.3,6,0.1c2-0.1,4.1-0.3,6.2-0.4
	c-1.9,0.9-3.9,1.5-6,1.9c-2.1,0.5-4.3,0.5-6.4,0.3c-1.1-0.2-2.2-0.5-3.2-1c-1.1-0.5-2-1.4-2.6-2.4c-0.6-1-0.8-2.2-0.7-3.4
	C79,345.7,79.3,344.7,79.8,343.7z"/>
<ellipse class="st12" cx="79.2" cy="342.8" rx="4.8" ry="2"/>
<polygon class="st5" points="31.8,324 37.8,324 38.7,313.8 44.2,316.8 45.4,307.7 52.9,312 56.2,300.9 63.5,307.7 66.9,300.1 
	68.8,304.4 74.5,291.6 79.2,303.7 84.1,291.6 85.9,302.3 97.9,295.4 97.9,303.7 110.1,299.7 108.8,305.7 118.7,306.2 110.1,313.8 
	132.7,312.8 122.9,319.8 126.5,327.6 112.9,325.6 112.1,333.3 97.9,320.6 88.6,327.6 82.3,319.8 73.2,329.3 66.9,321.9 64.2,327.6 
	58.2,322.9 58.2,332.4 50.6,329.3 48.1,335.1 45.4,331.3 39.9,338.8 38.9,335.1 35,341.5 33.2,336.3 26.4,340.7 33.4,331.3 
	22.2,327.6 34.2,327.6 "/>
<path class="st13" d="M31.8,324l6.1-0.1l-0.1,0.1l0.8-10.2v-0.3l0.3,0.1l5.6,2.9l-0.3,0.2l1.1-9v-0.4l0.3,0.2l7.6,4.2l-0.4,0.2
	l3.2-11l0.2-0.5l0.4,0.4l7.4,6.8l-0.6,0.1l3.4-7.7l0.4-0.8l0.4,0.8l1.8,4.3h-0.8l5.7-12.8l0.4-1l0.4,1l4.7,12.1h-0.7l4.9-12.1
	l0.5-1.2l0.2,1.3l1.8,10.7l-0.5-0.2l12-6.9l0.4-0.2v0.5v8.3l-0.3-0.2l12.2-4l0.3-0.1l-0.1,0.3l-1.3,6l-0.2-0.2l9.9,0.5h0.4l-0.3,0.3
	l-8.6,7.7l-0.1-0.3l22.6-1.1h0.9l-0.7,0.5L123,320l0.1-0.4l3.7,7.8l0.3,0.6l-0.6-0.1l-13.6-1.9l0.4-0.4l-0.8,7.7l-0.1,0.8l-0.6-0.5
	L97.6,321h0.6l-9.2,7l-0.4,0.3l-0.3-0.4l-6.4-7.8h0.8l-9,9.5l-0.4,0.4l-0.4-0.5l-6.3-7.3l0.9-0.1l-2.8,5.6l-0.3,0.6l-0.5-0.4l-6-4.6
	l0.8-0.4l-0.1,9.5v0.8l-0.7-0.3l-7.5-3.2l0.6-0.3l-2.5,5.9l-0.3,0.8l-0.5-0.7l-2.8-3.9h0.7l-5.5,7.5l-0.5,0.7l-0.2-0.8l-1-3.7
	l0.7,0.1l-3.9,6.4l-0.4,0.7l-0.3-0.7l-1.8-5.3l0.5,0.2l-6.9,4.5l-1.4,0.9l1-1.3l7-9.4l0.1,0.4l-11.1-3.8l-1.1-0.4h1.1l12,0.1
	l-0.1,0.1L31.8,324z M31.9,324l2.4,3.5l0.1,0.1h-0.2l-12,0.1l0.1-0.4l11.2,3.7l0.3,0.1l-0.2,0.3l-7,9.5l-0.4-0.4L33,336l0.4-0.2
	l0.1,0.4l1.8,5.2l-0.7-0.1l3.8-6.4l0.5-0.8l0.3,0.9l1.1,3.7l-0.7-0.1L45,331l0.4-0.5l0.4,0.5l2.8,3.9l-0.8,0.1l2.5-5.9l0.2-0.5
	l0.5,0.2l7.6,3.2l-0.7,0.5V323v-1l0.8,0.6l6,4.6l-0.8,0.2l2.7-5.6l0.3-0.7l0.5,0.6l6.3,7.3h-0.8l9.1-9.5l0.4-0.4l0.4,0.5l6.4,7.8
	l-0.7-0.1l9.3-6.9l0.3-0.2l0.3,0.3l14.2,12.6l-0.7,0.3l0.8-7.7v-0.4l0.4,0.1l13.6,2l-0.3,0.5l-3.6-7.8l-0.1-0.2l0.2-0.1l9.9-7
	l0.2,0.5l-22.6,1h-0.6l0.4-0.4l8.7-7.6l0.1,0.3l-9.9-0.5h-0.2v-0.2l1.2-6l0.3,0.2L97.9,304l-0.3,0.1v-0.3v-8.3l0.4,0.2l-12,7
	l-0.4,0.2l-0.1-0.5l-1.8-10.7l0.7,0.1L79.6,304l-0.4,0.9l-0.4-1l-4.8-12.1h0.8l-5.8,12.7l-0.4,0.9l-0.4-0.9l-1.8-4.3h0.7l-3.4,7.6
	l-0.2,0.5l-0.4-0.4l-7.4-6.8l0.5-0.1l-3.3,11l-0.1,0.4l-0.3-0.2l-7.5-4.3l0.4-0.2l-1.2,9v0.4l-0.3-0.2l-5.5-3l0.3-0.1L38,324v0.1
	h-0.1L31.9,324z"/>
<path class="st5" d="M5.9,390.2l0.8,2.7L3,393.8l2.1,3.4c-1.2,0.9-2.3,1.8-3.4,2.8c0.3,0,5,2.1,5,2.1l0.6,3.8l3.6-2.4l2.1,2.9l0.3-2
	l5,2l-1.2-4.1l4.8-0.2l-3.4-3.8l3.8-4.8l-5.1,0.8l0.9-4.5l-3.4,1.5l-1.7-6.2l-2.3,5.8L5.9,390.2z"/>
<path class="st13" d="M6,390.2l0.9,2.6l0.1,0.2l-0.2,0c-1.2,0.4-2.4,0.7-3.6,1l0.2-0.4l2.2,3.4l0.2,0.3l-0.3,0.2L3.4,399l-0.9,0.8
	c-0.2,0.1-0.3,0.3-0.4,0.4l0,0H2c0,0,0-0.1,0-0.1c0,0,0-0.1,0-0.1c0-0.1-0.1-0.3-0.2-0.3c-0.1,0-0.1,0-0.2,0l0,0
	c0.1,0,0.2,0,0.3,0.1l0.3,0.1c1.6,0.6,3.1,1.3,4.6,1.9l0.2,0.1v0.2c0.2,1.3,0.4,2.6,0.5,3.8L7,405.6l3.6-2.3l0.2-0.1l0.1,0.2
	c0.7,1,1.3,2,2,3l-0.4,0.1l0.4-2v-0.2l0.2,0.1c1.6,0.7,3.3,1.3,5,2l-0.2,0.2c-0.4-1.4-0.9-2.8-1.3-4.1l-0.1-0.3h0.3l4.8-0.3
	l-0.3,0.6l-3.5-3.7l-0.3-0.3l0.2-0.3l3.8-4.8l0.5,0.8c-1.7,0.3-3.4,0.5-5.1,0.8l-0.7,0.1l0.1-0.7l0.9-4.5l0.7,0.6l-3.4,1.5l-0.5,0.2
	l-0.1-0.5l-1.6-6.3h0.7l-2.5,5.7l-0.1,0.2h-0.2C9.1,390.8,7.6,390.5,6,390.2z M5.9,390.2l4.7,0.4l-0.2,0.1l2.2-5.8l0.4-1.1l0.3,1.1
	l1.9,6.2l-0.7-0.3l3.4-1.6l0.9-0.4l-0.2,1l-0.9,4.5l-0.6-0.6c1.7-0.3,3.4-0.5,5.1-0.7l1.3-0.2l-0.8,1l-3.9,4.8v-0.6l3.4,3.9l0.5,0.6
	h-0.8l-4.8,0.1l0.2-0.3c0.4,1.4,0.8,2.8,1.2,4.2l0.1,0.4l-0.3-0.1c-1.7-0.7-3.3-1.4-5-2l0.2-0.1l-0.3,2l-0.1,0.5l-0.3-0.4
	c-0.7-1-1.4-1.9-2.1-2.9l0.4,0.1l-3.5,2.5L7,406.6L6.9,406c-0.2-1.3-0.4-2.5-0.6-3.8l0.3,0.3c-1.5-0.6-3-1.3-4.5-1.9l-0.3-0.1
	c-0.1,0-0.1,0,0,0l0,0c-0.2,0-0.4-0.2-0.4-0.4c0,0,0-0.1,0-0.1c0-0.1,0-0.1,0.1-0.2l0,0l0.1-0.1c0.2-0.2,0.3-0.3,0.5-0.4l1-0.8
	l2-1.5l-0.1,0.5l-2-3.5l-0.2-0.3l0.3-0.1c1.2-0.3,2.5-0.5,3.7-0.8l-0.1,0.2L5.9,390.2z"/>
<polyline class="st10" points="62.3,402.5 65.9,399.9 68.8,402.5 72.1,400.3 74.4,402.9 76.9,400.4 79.3,404 "/>
<polyline class="st10" points="61.6,414 65.9,410.9 68.8,413.5 72.1,411.3 74.4,413.9 76.9,411.4 79.3,415 "/>
<polygon class="st14" points="290,337.8 212.2,421.4 237.1,426.4 310.5,357.9 294.4,398.4 314.5,426.4 340.5,421.8 318,395.8 
	352,343.8 "/>
<path class="st4" d="M410.4,292l-101.1-34.7l-36.5,8.9l-0.3,0.4c0.3-0.4,4.6,23,4.6,23l2.8,56h76.8l-38.9-66.9l84.8,25.6L410.4,292z
	"/>
<line class="st10" x1="292" y1="267.9" x2="313.1" y2="345.6"/>
<path class="st10" d="M279.2,332.3c0,0,12.7,4.9,14.5-12.2l27-2.7c0,0,4.2,20.3,27,12.8"/>
<ellipse class="st1" cx="551.3" cy="448.1" rx="93.4" ry="6.7"/>
<polygon class="st15" points="496.7,364.2 491.7,444.6 523.1,447 526.7,364.2 "/>
<polygon class="st16" points="503.7,205.2 431.4,359.1 600.7,388.9 539.6,209 "/>
<polygon class="st17" points="512.7,104 437.7,243.9 606.2,259.5 542.7,107.2 "/>
<polygon class="st18" points="541.7,1.2 458.2,118.8 600.7,149.7 "/>
<circle class="st3" cx="491.1" cy="129.6" r="13.7"/>
<circle class="st3" cx="465.3" cy="363.1" r="8.2"/>
<circle class="st4" cx="576.4" cy="202.1" r="13.7"/>
<circle class="st4" cx="560.7" cy="55.6" r="6.8"/>
<circle class="st14" cx="466.9" cy="296" r="13.7"/>
<circle class="st19" cx="504.7" cy="225.7" r="10.2"/>
<circle class="st19" cx="584.1" cy="349.8" r="7.7"/>
<path class="st5" d="M374.3,192.6c0-40.1-47.7-72.7-93-72.7s-86,32.5-86,72.7c0,33.8,40.7,75.7,86,75.7S374.3,232.7,374.3,192.6z"/>
<path class="st4" d="M374.1,192.6c0-5.3-0.9-10.6-2.5-15.6c-1.7-5-4-9.8-6.9-14.2c-6-8.7-13.5-16.3-22.3-22.1
	c-8.7-5.9-18.2-10.6-28.2-13.9c-10-3.3-20.4-5.2-30.9-5.6c-10.5-0.3-21,1.1-31.1,4.2c-10.1,3.1-19.7,7.9-28.1,14.3
	c-8.5,6.4-15.5,14.5-20.6,23.8c-2.5,4.6-4.4,9.6-5.7,14.7c-1.2,5.1-1.8,10.4-1.6,15.6c0.2,5.2,1.3,10.4,3.1,15.3
	c1.8,4.9,4.2,9.6,6.9,14c11.4,17.8,28.3,31.3,48.1,38.7c9.8,3.6,20.2,5.3,30.7,4.8c10.5-0.5,20.8-2.6,30.6-6.3
	c4.9-1.8,9.7-4,14.4-6.4c4.6-2.5,9.1-5.3,13.3-8.4c8.5-6.2,15.9-14,21.6-22.8c2.8-4.5,5.1-9.3,6.7-14.3
	C373.2,203.1,374.1,197.9,374.1,192.6z M374.4,192.6c0,10.7-3.4,21.2-8.8,30.4c-5.5,9.2-12.7,17.3-21.1,24
	c-8.4,6.7-17.8,12.1-27.8,16c-10.1,3.9-20.7,6.2-31.5,6.8c-10.9,0.5-21.7-1.2-31.9-5.1c-10.1-3.8-19.5-9.3-27.9-16.2
	c-8.4-6.8-15.5-15-21.2-24.2c-2.8-4.6-5.1-9.5-6.9-14.6c-1.8-5.1-2.7-10.5-2.8-15.9c-0.1-5.4,0.6-10.8,2-16c1.4-5.2,3.4-10.2,6-14.9
	c5.3-9.3,12.4-17.5,20.9-24c17.1-13.2,38.2-20.3,59.8-20.2c21.7,0.4,42.7,7.5,60.1,20.4c8.7,6.3,16.1,14.2,21.9,23.2
	C370.9,171.4,374.4,181.9,374.4,192.6L374.4,192.6z"/>
<path class="st3" d="M390.9,116.3c0.2-0.7,0.5-1.3,0.7-2c2.5-8.2,5.2-14.2,1.1-15.9s-5.7,5.6-8.2,13.7c-0.2,0.7-0.4,1.4-0.6,2.1
	c0-1.6-0.2-3.3-0.4-5c-1.1-9.2-1-16.2-6.3-16.1c-5,0.1-3.6,7.4-2.6,16.2l-3.4-3.8c0,0-83.7-85.9-132.7-57.4c-12,7-4,30.7-4,30.7
	s-39.3-17.7-42.3,2.3s21.3,48.3,21.3,48.3l142.7,29.7l13.3,24.3l17.3-7.5C386.9,176.1,413.6,100.9,390.9,116.3z"/>
<path class="st5" d="M368.2,207.1c3.3,4.5,8.2,7.7,13.6,7.7c9.2,0,15.9-5.8,16.7-18.7c0.5-9.2-5.5-22.7-14.7-22.7
	c-5,0-13.5,6.4-17.4,10.9"/>
<path class="st4" d="M368.2,207.1c2.5,3,5.8,5.2,9.5,6.3c1.8,0.5,3.7,0.6,5.5,0.3c1.8-0.2,3.6-0.7,5.3-1.5c1.6-0.8,3-1.9,4.2-3.3
	c1.1-1.4,2-3,2.6-4.7c0.6-1.8,1.1-3.6,1.3-5.4c0.1-0.9,0.2-1.9,0.3-2.8c0-0.9,0-1.8,0-2.8c-0.3-3.7-1.4-7.4-3.1-10.7
	c-0.8-1.7-1.9-3.2-3.2-4.5c-1.2-1.3-2.7-2.4-4.4-3c-3.4-1.4-7.1,0.6-10.4,2.4c-3.4,2-6.6,4.4-9.4,7.1c2.5-3.1,5.4-5.9,8.7-8.1
	c1.7-1.2,3.4-2.2,5.3-3c1-0.4,2.1-0.7,3.1-0.8c1.1-0.1,2.2,0,3.3,0.3c2.1,0.6,4,1.7,5.6,3.2c1.5,1.5,2.8,3.2,3.8,5
	c2.1,3.6,3.3,7.7,3.7,11.8c0.1,1,0.1,2.1,0.1,3.2c-0.1,1-0.2,2.1-0.3,3.1c-0.3,2.1-0.8,4.1-1.5,6.1c-0.8,2-1.9,3.8-3.3,5.4
	c-1.4,1.6-3.2,2.9-5.2,3.8c-2,0.8-4,1.3-6.1,1.4c-2.1,0.1-4.2-0.2-6.2-0.9C373.4,213.3,370.3,210.6,368.2,207.1z"/>
<path class="st4" d="M289.8,238.2c2.6,0.4,5.2,0.7,7.7,0.8c2.4,0.2,4.8,0,7.1-0.7c2.1-0.7,3.9-2.2,4.8-4.3c1-2.3,1.6-4.8,2-7.3
	c0.9,2.6,1,5.4,0.3,8.1c-0.8,2.9-3.1,5.3-6,6.2c-2.7,0.8-5.6,0.9-8.4,0.2C294.6,240.8,292.1,239.7,289.8,238.2z"/>
<line class="st20" x1="355.3" y1="165.3" x2="400.8" y2="165.3"/>
<path class="st4" d="M179.6,216.6l8.5-141l32,24c0,0,37-14,104-0.5l32.5-31.5l5.5,149H179.6z"/>
<path class="st5" d="M235.1,188.3c0-10.1-4.8-18.3-16-18.3c-8.8,0-16,8.2-16,18.3s7.2,18.3,16,18.3S235.1,198.4,235.1,188.3z"/>
<path class="st5" d="M330.5,188.3c0-10.1-4.8-18.3-16-18.3c-8.8,0-16,8.2-16,18.3s7.2,18.3,16,18.3S330.5,198.4,330.5,188.3z"/>
<line class="st21" x1="298.1" y1="171.1" x2="330.9" y2="170.2"/>
<line class="st21" x1="235.3" y1="160.6" x2="202.9" y2="164.1"/>
<path class="st3" d="M271.4,194c-2.9-0.1-5.8-0.4-8.6-0.8c-1.4-0.2-2.9-0.4-4.3-0.6s-2.8-0.5-4.3-0.7l1-1.6c1.9,2.4,3.8,4.9,5.6,7.4
	c0.9,1.3,1.8,2.5,2.6,3.8s1.7,2.6,2.5,3.9c-1.1-1.1-2.2-2.2-3.3-3.3s-2.1-2.3-3.1-3.4c-2-2.3-4-4.7-5.9-7.1l-1.7-2.1l2.6,0.5
	c1.4,0.3,2.8,0.5,4.2,0.8s2.8,0.6,4.2,0.9C265.9,192.4,268.7,193.1,271.4,194z"/>
<ellipse class="st3" cx="220.8" cy="186.9" rx="7.9" ry="11.7"/>
<ellipse class="st3" cx="315.1" cy="185.9" rx="7.9" ry="11.7"/>
</svg>
