<?xml version="1.0" encoding="utf-8"?>
<!-- Generator: Adobe Illustrator 21.0.2, SVG Export Plug-In . SVG Version: 6.00 Build 0)  -->
<svg version="1.1" id="Слой_1" xmlns="http://www.w3.org/2000/svg" xmlns:xlink="http://www.w3.org/1999/xlink" x="0px" y="0px"
	 viewBox="0 0 1438.1 452.7" style="enable-background:new 0 0 1438.1 452.7;" xml:space="preserve">
<style type="text/css">
	.st0{fill:#AACBEB;}
	.st1{fill:#FFFFFF;}
</style>
<title>snowflakes-2</title>
<circle class="st0" cx="1420.6" cy="18.7" r="7"/>
<circle class="st0" cx="958" cy="197" r="5.5"/>
<circle class="st1" cx="221.2" cy="442.6" r="10.2"/>
<circle class="st1" cx="19.4" cy="115.1" r="7"/>
<circle class="st1" cx="474.4" cy="202.5" r="3"/>
<circle class="st1" cx="499" cy="320" r="4"/>
<circle class="st0" cx="963.5" cy="69.7" r="4"/>
</svg>
