<?xml version="1.0" encoding="utf-8"?>
<!-- Generator: Adobe Illustrator 21.0.2, SVG Export Plug-In . SVG Version: 6.00 Build 0)  -->
<svg version="1.1" id="Слой_1" xmlns="http://www.w3.org/2000/svg" xmlns:xlink="http://www.w3.org/1999/xlink" x="0px" y="0px"
	 viewBox="0 0 17.1 17.1" style="enable-background:new 0 0 17.1 17.1;" xml:space="preserve">
<style type="text/css">
	.st0{fill:#FFFFFF;stroke:#FFFFFF;stroke-width:2;stroke-miterlimit:10;}
</style>
<title>close-map</title>
<g>
	<rect x="8.2" y="-0.7" transform="matrix(0.7071 -0.7071 0.7071 0.7071 -3.5407 8.552)" class="st0" width="0.8" height="18.5"/>
	<rect x="-0.7" y="8.2" transform="matrix(0.7071 -0.7071 0.7071 0.7071 -3.5423 8.548)" class="st0" width="18.5" height="0.8"/>
</g>
</svg>
